證券代號,證券名稱,成交股數,成交金額,開盤價,最高價,最低價,收盤價,漲跌價差,成交筆數
"0050","元大台灣50","10248024","1358135228","132.50","133.85","131.30","132.35","1.8500","7006"
"0051","元大中型100","91043","4647849","50.60","51.40","50.45","51.00","1.0500","63"
"0052","富邦科技","1067612","127266811","119.15","120.50","118.75","119.15","1.6000","510"
"0053","元大電子","31250","1958103","62.60","62.95","62.40","62.50","0.9000","28"
"0054","元大台商50","4100","123386","30.39","30.39","29.92","29.92","0.4300","6"
"0055","元大MSCI金融","173016","3612764","21.03","21.05","20.69","20.80","0.1400","123"
"0056","元大高股息","12327045","419278916","34.20","34.40","33.78","34.00","0.1400","6287"
"0057","富邦摩台","23018","2060116","90.20","90.20","89.40","89.40","1.4000","7"
"0061","元大寶滬深","124169","2949718","23.95","23.96","23.63","23.73","-0.0700","53"
"006203","元大MSCI台灣","21000","1313950","62.60","62.90","61.90","62.25","0.5500","14"
"006204","永豐臺灣加權","21100","1748150","82.90","82.90","82.85","82.85","1.5500","5"
"006205","富邦上証","1068722","40677985","38.60","38.62","37.85","38.14","-0.0900","266"
"006206","元大上證50","162063","6191370","38.68","38.72","38.00","38.30","-0.1100","82"
"006207","FH滬深","139000","4308120","31.40","31.40","30.75","31.03","-0.1300","46"
"006208","富邦台50","1367338","103846167","76.05","76.80","75.35","76.05","0.8500","1416"
"00625K","富邦上証+R","","","","","","","0.0000",""
"00631L","元大台灣50正2","7148825","798693756","112.10","114.00","109.60","111.70","3.7000","2937"
"00632R","元大台灣50反1","327860302","1985179011","6.06","6.13","5.99","6.05","-0.1200","17579"
"00633L","富邦上証正2","8468550","579407915","69.95","70.20","67.00","68.05","-0.6500","2196"
"00634R","富邦上証反1","2458000","9483690","3.79","3.88","3.79","3.84","0.0100","56"
"00635U","期元大S&P黃金","1057890","26572892","25.15","25.16","25.08","25.16","0.0000","357"
"00636","國泰中國A50","2457755","67745198","27.80","27.90","27.30","27.54","-0.1000","446"
"00636K","國泰中國A50+U","200","1960","9.80","9.80","9.80","9.80","-0.0900","2"
"00637L","元大滬深300正2","79346327","2148313765","27.59","27.77","26.53","26.90","-0.2400","11508"
"00638R","元大滬深300反1","667000","5160040","7.64","7.79","7.63","7.75","0.0500","121"
"00639","富邦深100","1358663","23132091","17.14","17.26","16.90","17.03","-0.0400","273"
"00640L","富邦日本正2","243000","6662970","27.56","27.57","27.30","27.48","0.2400","23"
"00641R","富邦日本反1","234000","2553140","10.90","10.96","10.88","10.92","-0.0500","69"
"00642U","期元大S&P石油","20887520","221262066","10.63","10.64","10.54","10.62","-0.2200","3644"
"00643","群益深証中小","509112","9073129","17.90","17.97","17.65","17.77","-0.0400","183"
"00643K","群益深証中小+R","","","","","","","0.0000",""
"00645","富邦日本","103221","2569153","24.87","24.90","24.87","24.90","0.0700","6"
"00646","元大S&P500","651842","23220841","35.63","35.68","35.52","35.63","0.4200","177"
"00647L","元大S&P500正2","62046","3804672","61.35","61.45","61.15","61.45","1.5500","23"
"00648R","元大S&P500反1","835000","6204660","7.43","7.45","7.42","7.43","-0.1000","99"
"00650L","FH香港正2","1411540","41609652","29.78","29.90","29.24","29.54","0.0700","95"
"00651R","FH香港反1","162000","1123240","6.94","6.98","6.93","6.93","-0.0100","11"
"00652","富邦印度","164308","4164650","25.30","25.50","25.28","25.50","0.2000","81"
"00653L","富邦印度正2","517200","18373453","35.40","35.80","35.14","35.79","0.5300","155"
"00654R","富邦印度反1","407000","3880670","9.54","9.60","9.50","9.50","-0.0700","99"
"00655L","國泰中國A50正2","5211000","268935100","52.55","52.85","50.50","51.30","-0.4500","1275"
"00656R","國泰中國A50反1","374000","2665360","7.00","7.14","6.99","7.10","0.0500","31"
"00657","國泰日經225","100000","3472000","34.72","34.72","34.72","34.72","0.2200","2"
"00657K","國泰日經225+U","200","2484","12.42","12.42","12.42","12.42","0.1100","2"
"00660","元大歐洲50","4000","114330","28.60","28.60","28.53","28.53","0.2800","3"
"00661","元大日經225","5000","174120","34.80","34.84","34.80","34.84","0.0700","3"
"00662","富邦NASDAQ","246065","11927049","48.56","48.69","48.40","48.51","1.0200","122"
"00663L","國泰臺灣加權正2","93029","9361247","100.50","102.20","99.00","100.30","3.4500","40"
"00664R","國泰臺灣加權反1","16114000","110793490","6.85","6.95","6.80","6.87","-0.1300","1052"
"00665L","富邦恒生國企正2","105000","2515460","24.07","24.10","23.74","23.98","0.4100","41"
"00666R","富邦恒生國企反1","131000","1456080","11.12","11.15","11.10","11.12","-0.1400","10"
"00668","國泰美國道瓊","8100","279174","34.46","34.47","34.46","34.47","0.1800","6"
"00668K","國泰美國道瓊+U","200","2466","12.33","12.33","12.33","12.33","0.1100","2"
"00669R","國泰美國道瓊反1","3540200","28899445","8.15","8.19","8.15","8.16","-0.0700","343"
"00670L","富邦NASDAQ正2","665395","58628257","88.30","88.45","87.70","88.25","3.7500","279"
"00671R","富邦NASDAQ反1","5003300","30053263","6.01","6.02","5.98","6.01","-0.1400","389"
"00673R","期元大S&P原油反1","1101781","19974202","18.09","18.21","18.09","18.10","0.3700","274"
"00674R","期元大S&P黃金反1","157000","2001100","12.73","12.77","12.72","12.72","-0.0300","41"
"00675L","富邦臺灣加權正2","1702257","73227013","43.14","43.85","42.10","43.00","1.4800","830"
"00676R","富邦臺灣加權反1","21879412","81666935","3.75","3.79","3.70","3.74","-0.0800","1027"
"00677U","期富邦VIX","59023171","100644629","1.70","1.73","1.69","1.70","-0.1000","1557"
"00678","群益NBI生技","567566","15507880","27.53","27.53","27.29","27.32","0.5500","46"
"00680L","元大美債20正2","31000","680190","21.91","21.97","21.91","21.96","0.3000","13"
"00681R","元大美債20反1","32000","461100","14.43","14.43","14.40","14.41","-0.0900","3"
"00682U","期元大美元指數","179000","3188930","17.90","17.90","17.76","17.83","-0.0800","54"
"00683L","期元大美元指正2","1006009","16419867","16.34","16.36","16.28","16.34","-0.1400","289"
"00684R","期元大美元指反1","","","","","","","0.0000",""
"00685L","群益臺灣加權正2","8000","303100","38.08","38.40","37.06","37.39","1.1200","7"
"00686R","群益臺灣加權反1","704000","2878940","4.09","4.12","4.05","4.09","-0.0800","65"
"00688L","國泰20年美債正2","231000","5070300","21.88","21.97","21.88","21.97","0.3200","22"
"00689R","國泰20年美債反1","83000","1257370","15.17","15.17","15.14","15.14","-0.1100","7"
"00690","兆豐藍籌30","47124","1486255","31.78","31.96","31.47","31.60","0.5000","22"
"00692","富邦公司治理","2394958","80990485","33.86","34.24","33.60","33.90","0.4400","764"
"00693U","期街口S&P黃豆","974719","22543045","23.23","23.23","23.06","23.13","-0.3000","324"
"00700","富邦恒生國企","113070","2131067","18.93","18.93","18.80","18.85","0.1600","12"
"00701","國泰股利精選30","2032358","48408161","24.06","24.11","23.64","23.75","0.2000","601"
"00702","國泰標普低波高息","104760","2174525","20.84","20.84","20.79","20.83","0.1200","10"
"00703","台新MSCI中國","216098","5291713","24.63","24.63","24.39","24.49","0.2100","20"
"00706L","期元大S&P日圓正2","13000","212280","16.32","16.33","16.32","16.33","0.1100","8"
"00707R","期元大S&P日圓反1","","","","","","","0.0000",""
"00708L","期元大S&P黃金正2","2013015","58068773","28.89","28.97","28.77","28.91","-0.0200","385"
"00709","富邦歐洲","103961","2475912","23.82","23.83","23.79","23.80","0.2900","16"
"00710B","FH彭博高收益債","178896","3294488","18.41","18.43","18.40","18.41","0.0000","53"
"00711B","FH彭博新興債","103297","2058721","19.96","19.96","19.93","19.93","0.0300","11"
"00712","FH富時不動產","1259783","18039622","14.28","14.34","14.28","14.32","0.0700","459"
"00713","元大台灣高息低波","58400","2413199","41.51","41.63","41.05","41.35","0.6800","50"
"00714","群益道瓊美國地產","26001","546834","21.05","21.11","21.01","21.02","0.2300","10"
"00715L","期街口布蘭特正2","93583859","638508755","6.88","6.88","6.75","6.84","-0.3100","9077"
"00717","富邦美國特別股","690612","11507044","16.70","16.70","16.64","16.67","0.0700","127"
"00728","第一金工業30","360339","9805312","27.16","27.52","27.08","27.18","0.3300","188"
"00730","富邦臺灣優質高息","396645","8203459","20.85","20.86","20.60","20.65","0.1000","144"
"00731","FH富時高息低波","285513","16131876","56.15","57.40","56.15","56.60","0.4500","24"
"00732","國泰RMB短期報酬","100000","3975000","39.75","39.75","39.75","39.75","0.0500","2"
"00733","富邦臺灣中小","648159","25186817","38.86","39.18","38.40","38.99","1.0700","339"
"00735","國泰臺韓科技","125015","4067898","32.62","32.80","32.38","32.44","0.3000","20"
"00736","國泰新興市場","148120","3408038","22.99","23.18","22.99","23.09","0.1000","9"
"00737","國泰AI+Robo","296167","9235938","31.25","31.27","31.12","31.19","0.5600","82"
"00738U","期元大道瓊白銀","1261346","36192386","28.77","28.80","28.58","28.70","-0.1000","343"
"00739","元大MSCI A股","384196","10827506","28.47","28.50","27.98","28.26","-0.0500","93"
"00742","新光內需收益","60551","1330394","22.00","22.00","21.80","21.97","0.0900","15"
"00743","國泰中國A150","123000","3616610","29.77","29.77","29.35","29.43","-0.1800","7"
"00752","中信中國50","1119919","32228152","29.00","29.00","28.70","28.81","0.2600","354"
"00753L","中信中國50正2","476000","17088470","36.23","36.35","35.57","35.92","0.3400","167"
"00757","統一FANG+","1271520","56918292","45.00","45.00","44.67","44.82","1.1900","652"
"00762","元大全球AI","220291","8093799","36.86","36.88","36.58","36.75","0.7400","70"
"00763U","期街口道瓊銅","1118397","32848780","29.70","29.70","29.22","29.45","-0.3500","295"
"00770","國泰北美科技","169000","5816530","34.49","34.49","34.33","34.33","0.6800","9"
"00771","元大US高息特別股","44302","840707","19.03","19.03","18.94","19.00","0.0000","28"
"00774B","新光中國政金綠債","2000","78340","39.17","39.17","39.17","39.17","0.1200","2"
"00774C","新光中政金綠債+R","","","","","","","0.0000",""
"00775B","新光投等債15+","2000","81040","40.52","40.52","40.52","40.52","0.1500","2"
"00783","富邦中証500","819031","18172089","22.26","22.28","22.03","22.28","-0.0300","37"
"008201","BP上證50","100","12800","128.00","128.00","128.00","128.00","1.1500","1"
"00830","國泰費城半導體","1986476","53645932","27.07","27.10","26.92","27.02","0.6900","610"
"00850","元大臺灣ESG永續","1447317","47681098","33.00","33.29","32.65","32.89","0.4100","834"
"00851","台新全球AI","71148","2110006","29.72","29.72","29.58","29.60","0.7200","8"
"00852L","國泰美國道瓊正2","434000","8843550","20.38","20.41","20.30","20.37","0.3200","95"
"00861","元大全球未來通訊","1660521","46712836","28.19","28.24","28.06","28.11","0.5500","345"
"00865B","國泰US短期公債","130000","4779250","36.63","36.79","36.63","36.79","0.0900","8"
"00875","國泰網路資安","626495","19043138","30.39","30.47","30.34","30.40","0.5600","215"
"00876","元大未來關鍵科技","2015360","56157686","27.88","27.96","27.77","27.85","0.5100","628"
"00878","國泰永續高股息","9072159","163335846","18.07","18.20","17.85","17.96","0.1800","3490"
"00881","國泰台灣5G+","27075713","456301032","16.75","16.99","16.75","16.85","0.3000","8354"
"00882","中信中國高股息","3058574","49002828","16.03","16.06","15.99","16.02","0.0200","896"
"00885","富邦越南","9547105","146445005","15.29","15.40","15.28","15.37","0.2600","2928"
"01001T","土銀富邦R1","5000","89900","17.98","17.98","17.98","17.98","0.0000","1"
"01002T","土銀國泰R1","39000","707990","18.16","18.34","18.11","18.34","0.2200","21"
"01003T","兆豐新光R1","74070","1406715","18.99","19.07","18.96","19.07","0.0000","20"
"01004T","土銀富邦R2","50","840","","","","","0.0000","1"
"01007T","兆豐國泰R2","32000","640740","20.06","20.33","20.00","20.33","-0.0100","31"
"01009T","王道圓滿R1","20000","184200","9.21","9.21","9.21","9.21","0.0200","7"
"01010T","京城樂富R1","152000","1620980","10.73","10.75","10.60","10.75","0.0000","69"
"020000","富邦特選蘋果N","39000","285750","7.33","7.33","7.30","7.30","0.1500","2"
"020002","元富新中國N","","","","","","","0.0000",""
"020004","兆豐電菁英30N","","","","","","","0.0000",""
"020006","永昌中小300N","10000","296200","29.62","29.62","29.62","29.62","0.0000","1"
"020007","凱基臺灣500N","","","","","","","0.0000",""
"020008","元大特股高息N","2000","24110","12.05","12.06","12.05","12.06","0.1400","2"
"020011","統一微波高息20N","10000","62860","6.29","6.31","6.25","6.25","0.0100","5"
"020012","富邦行動通訊N","21000","127260","6.08","6.08","6.02","6.02","0.1200","4"
"020015","統一MSCI美低波N","","","","","","","0.0000",""
"020016","統一MSCI美科技N","","","","","","","0.0000",""
"020018","統一價值成長30N","307000","4399800","14.37","14.54","14.29","14.54","0.4900","20"
"020019","統一特選台灣5GN","163000","2137790","13.15","13.22","13.05","13.10","0.2100","29"
"02001L","富邦蘋果正二N","31000","357330","11.56","11.56","11.31","11.31","0.0000","5"
"02001R","富邦蘋果反一N","11000","33220","3.02","3.02","3.02","3.02","-0.0400","1"
"020020","元大台股領航N","1850000","12754320","6.80","6.97","6.80","6.89","0.1500","306"
"020022","元大電動車N","3998000","22127700","5.54","5.63","5.48","5.53","0.0600","772"
"1101","台泥","29217416","1515662783","53.90","53.90","50.80","51.20","0.4000","12000"
"1101B","台泥乙特","2037","109075","53.50","53.60","53.50","53.60","0.0000","3"
"1102","亞泥","17140497","883820108","54.00","54.00","50.10","50.60","0.5000","5938"
"1103","嘉泥","1490764","32132929","21.60","21.80","21.20","21.70","0.5000","697"
"1104","環泥","804577","17983730","22.45","22.75","22.10","22.35","0.3500","459"
"1108","幸福","3328084","46897607","13.70","14.50","13.60","14.25","0.7000","1298"
"1109","信大","990256","25821414","25.55","26.30","25.55","26.10","0.8500","535"
"1110","東泥","163000","2641750","16.00","16.40","15.95","16.15","0.1500","73"
"1201","味全","2424299","52040707","21.35","21.75","21.25","21.60","0.4500","837"
"1203","味王","83760","3003759","35.40","36.45","35.40","35.90","0.4500","98"
"1210","大成","2219070","126232492","57.40","57.50","56.50","56.90","0.0000","1669"
"1213","大飲","32701","261178","7.80","8.36","7.79","8.36","0.3400","17"
"1215","卜蜂","667524","51501679","77.00","77.50","76.90","77.40","0.5000","536"
"1216","統一","8681137","650595765","75.00","76.00","74.10","75.00","0.5000","3929"
"1217","愛之味","37126987","482501064","13.40","13.50","12.65","12.90","-0.2000","11925"
"1218","泰山","1929132","56198217","29.40","29.70","28.90","29.15","0.0500","1123"
"1219","福壽","2680563","60956816","22.70","23.20","22.35","23.05","0.7500","790"
"1220","台榮","1122064","17894679","16.10","16.20","15.65","16.05","0.1500","486"
"1225","福懋油","371612","16040777","43.10","44.40","42.00","43.60","0.6000","246"
"1227","佳格","1310389","68367606","52.50","52.90","51.90","52.20","0.2000","1033"
"1229","聯華","1342886","63716278","47.45","47.85","47.05","47.65","0.6500","1105"
"1231","聯華食","480709","28635861","60.20","60.20","59.30","59.60","0.2000","567"
"1232","大統益","130814","21034642","161.00","162.00","159.50","161.00","2.0000","227"
"1233","天仁","7085","245408","34.80","34.80","34.50","34.50","-0.4000","10"
"1234","黑松","159862","5581853","34.60","35.10","34.60","34.85","0.3000","146"
"1235","興泰","7000","227250","32.55","32.55","32.45","32.45","0.0000","5"
"1236","宏亞","235267","3784224","16.45","16.50","15.70","16.10","-0.2000","160"
"1256","鮮活果汁-KY","16303","7109924","436.00","439.00","430.00","437.00","9.0000","203"
"1301","台塑","6506952","638064046","97.30","99.50","96.50","98.10","1.3000","3574"
"1303","南亞","5910059","485416369","82.00","83.60","81.00","82.40","0.9000","3407"
"1304","台聚","10453096","325308877","30.90","31.80","30.40","31.55","1.1500","4398"
"1305","華夏","11702856","374532201","31.60","32.60","31.20","32.25","1.4000","4315"
"1307","三芳","377707","7929325","20.60","21.50","20.60","21.05","0.5000","200"
"1308","亞聚","9423979","259175017","27.65","27.95","26.90","27.85","1.0000","3515"
"1309","台達化","11079376","422754777","36.90","39.35","36.70","39.00","2.7000","5677"
"1310","台苯","3053606","56512820","18.50","18.75","18.20","18.60","0.4500","1058"
"1312","國喬","20068746","494226760","24.80","25.00","24.20","24.80","0.8000","5853"
"1312A","國喬特","28000","943000","33.70","33.70","33.50","33.70","0.0000","7"
"1313","聯成","18464811","415617202","22.80","23.10","22.00","22.80","0.4500","4598"
"1314","中石化","74747781","909400322","12.35","12.45","11.85","12.20","0.2000","12294"
"1315","達新","90500","6352363","70.00","70.40","70.00","70.20","0.5000","87"
"1316","上曜","525009","5792392","11.05","11.25","10.95","11.00","0.1000","208"
"1319","東陽","1891955","60487302","32.65","32.85","31.75","32.10","0.0000","1047"
"1321","大洋","214072","7401279","34.50","34.95","34.30","34.50","0.5000","126"
"1323","永裕","137884","4500187","32.50","32.85","32.50","32.85","0.2000","98"
"1324","地球","76004","786790","10.40","10.45","10.30","10.35","0.1000","35"
"1325","恆大","10651259","996324064","99.00","99.70","91.10","92.30","-6.2000","7182"
"1326","台化","6598418","557514102","85.00","86.40","83.50","84.20","0.0000","3546"
"1337","再生-KY","951937","7094178","7.46","7.58","7.36","7.45","0.1000","447"
"1338","廣華-KY","209047","12322883","58.50","59.40","58.20","59.40","1.4000","204"
"1339","昭輝","35000","1316100","37.50","37.85","37.30","37.60","0.4500","28"
"1340","勝悅-KY","224065","2301021","10.25","10.35","10.15","10.30","0.0500","201"
"1341","富林-KY","13006","1021442","79.50","79.50","77.90","78.90","-0.1000","17"
"1342","八貫","24002","1222401","51.40","51.40","50.80","51.30","0.6000","23"
"1402","遠東新","5925383","180828075","30.55","30.75","30.30","30.50","0.1500","1965"
"1409","新纖","39507589","811163701","20.00","21.30","19.80","20.80","0.9500","13654"
"1410","南染","37645","1299961","34.60","35.05","34.30","34.50","-0.3000","31"
"1413","宏洲","2225548","26062680","10.95","12.35","10.60","12.35","1.1000","846"
"1414","東和","15154535","272137152","17.75","18.60","17.20","18.00","0.7000","5550"
"1416","廣豐","315447","3353163","10.55","10.70","10.55","10.70","0.2000","172"
"1417","嘉裕","8570622","132727475","15.20","16.00","14.70","15.40","0.8000","2709"
"1418","東華","22607","276058","12.50","12.50","11.90","12.40","-0.2500","16"
"1419","新紡","15051","579374","38.50","38.60","38.25","38.60","0.8500","15"
"1423","利華","305306","6255584","20.10","20.70","20.10","20.65","0.8500","169"
"1432","大魯閣","427072","6063022","13.55","14.30","13.55","14.30","1.3000","414"
"1434","福懋","1358786","41287361","30.45","30.75","30.15","30.30","0.0500","749"
"1435","中福","103572","1593218","14.70","15.80","14.70","15.80","1.4000","69"
"1436","華友聯","10166","400032","39.00","39.50","39.00","39.50","0.3000","10"
"1437","勤益控","233271","5622135","24.00","24.20","23.95","24.15","0.2500","94"
"1438","三地開發","49892","1438091","28.85","29.30","28.70","29.30","0.5000","38"
"1439","中和","92413","2226119","24.20","24.40","23.90","23.95","-0.2500","51"
"1440","南紡","73680987","1846232346","24.20","25.85","23.85","25.85","2.3500","21508"
"1441","大東","2942205","36655035","11.95","12.90","11.75","12.90","1.1500","1080"
"1442","名軒","180433","3091676","17.20","17.25","17.05","17.15","0.3500","100"
"1443","立益","74000","900400","12.15","12.25","12.05","12.25","0.0500","18"
"1444","力麗","27492175","324744016","11.75","12.10","11.45","11.95","0.6000","5766"
"1445","大宇","385002","4884474","12.50","12.90","12.50","12.70","0.3500","164"
"1446","宏和","63046","1722698","27.85","28.10","27.10","27.40","0.2000","43"
"1447","力鵬","33726289","400980430","11.65","12.30","11.35","12.20","0.9500","8268"
"1449","佳和","212142","3226180","15.10","15.50","14.85","15.40","0.6000","121"
"1451","年興","1080508","21436813","19.35","20.30","19.25","20.15","1.2000","521"
"1452","宏益","7652287","175694128","22.75","23.70","21.65","23.70","2.1500","2728"
"1453","大將","396344","3546956","8.93","9.14","8.79","9.00","0.2800","202"
"1454","台富","288373","2846265","9.80","9.99","9.66","9.96","0.3100","149"
"1455","集盛","196534182","4452392119","22.50","23.75","21.65","23.75","2.1500","49451"
"1456","怡華","476603","8227035","16.95","18.00","16.65","17.40","0.9000","240"
"1457","宜進","11144188","195537410","17.20","18.20","16.60","17.70","1.0000","4099"
"1459","聯發","9323726","130111688","13.35","14.75","13.10","14.75","1.3000","2352"
"1460","宏遠","6108149","70854506","11.60","11.60","11.60","11.60","1.0500","1793"
"1463","強盛","354382","4842424","13.30","13.95","13.25","13.85","0.6500","195"
"1464","得力","720133","11996660","16.50","16.90","16.40","16.85","0.5500","436"
"1465","偉全","46438","583951","12.65","12.65","12.50","12.65","0.1500","77"
"1466","聚隆","3708974","61025651","16.00","16.90","15.35","16.30","0.9000","1362"
"1467","南緯","3393544","62626074","19.00","19.15","18.20","18.30","-0.2000","1136"
"1468","昶和","193001","2451213","11.90","13.20","11.90","13.15","1.1500","115"
"1470","大統新創","185172","2851936","15.60","16.25","15.15","16.00","0.4000","66"
"1471","首利","1785499","17358405","9.50","9.96","9.41","9.80","0.3900","677"
"1472","三洋紡","23003","234081","10.45","10.45","10.10","10.45","0.2000","11"
"1473","台南","337362","5905439","17.25","17.65","17.25","17.65","0.5000","170"
"1474","弘裕","5041206","76948629","14.80","15.70","14.55","15.70","1.4000","1900"
"1475","業旺","24701","817280","32.60","34.40","32.40","33.45","1.1500","27"
"1476","儒鴻","1744116","1104937689","637.00","642.00","623.00","637.00","22.0000","1744"
"1477","聚陽","6065721","1616381287","259.00","275.00","258.00","270.50","18.5000","4793"
"1503","士電","173637","8712878","50.00","50.60","49.95","50.30","0.5000","120"
"1504","東元","1876846","58770260","31.10","31.85","31.00","31.25","0.2000","823"
"1506","正道","316073","2979929","9.40","9.69","9.22","9.59","0.1900","149"
"1507","永大","118272","7229259","60.60","61.40","60.60","61.10","0.4000","101"
"1512","瑞利","76012","354211","4.70","4.70","4.50","4.70","0.2500","33"
"1513","中興電","2735888","131549932","48.45","48.65","47.60","48.10","0.5500","1418"
"1514","亞力","1098240","25383342","23.30","23.50","22.80","23.20","0.4500","527"
"1515","力山","2028081","139621748","67.60","70.40","67.00","70.10","3.5000","1339"
"1516","川飛","82370","1633890","19.50","20.25","19.50","20.25","0.9000","68"
"1517","利奇","3416341","81372757","23.55","24.40","23.10","23.75","1.0000","1504"
"1519","華城","741227","30635158","41.20","42.15","40.90","41.15","0.6500","441"
"1521","大億","124120","5253000","42.60","42.70","42.00","42.25","0.1000","96"
"1522","堤維西","329064","6688514","20.45","20.65","20.15","20.35","0.3000","204"
"1524","耿鼎","257093","2480693","9.51","9.80","9.51","9.67","0.2400","184"
"1525","江申","58053","3601479","62.00","62.60","61.50","62.10","1.1000","49"
"1526","日馳","572110","26160675","44.75","46.40","44.75","45.95","1.7000","403"
"1527","鑽全","688937","31026525","45.00","45.50","44.50","45.40","1.0500","475"
"1528","恩德","660742","6432694","9.60","9.83","9.60","9.80","0.2700","205"
"1529","樂士","103000","1668000","16.55","16.55","16.10","16.15","-0.0500","43"
"1530","亞崴","37552","1294076","34.25","34.60","34.25","34.55","0.1000","29"
"1531","高林股","84339","1169929","13.85","13.95","13.80","13.80","0.1000","56"
"1532","勤美","458424","14703560","31.75","32.40","31.75","32.30","0.7500","238"
"1533","車王電","519029","27269276","52.80","53.30","51.60","53.10","1.4000","366"
"1535","中宇","122170","4798905","39.30","39.55","38.80","39.25","0.0000","93"
"1536","和大","935821","84869145","89.70","91.70","89.60","91.60","2.6000","826"
"1537","廣隆","130162","18735117","143.50","144.50","143.50","144.00","0.0000","113"
"1538","正峰","24873","308344","12.35","12.80","12.35","12.35","-0.1000","20"
"1539","巨庭","20000","345450","17.30","17.60","17.10","17.60","0.6000","15"
"1540","喬福","131294","2047225","15.55","15.70","15.40","15.70","0.3000","75"
"1541","錩泰","39207","1878565","48.00","48.35","47.60","48.35","1.1000","27"
"1558","伸興","127499","20815618","161.50","164.50","161.50","164.00","2.0000","125"
"1560","中砂","240081","14925966","61.90","62.80","61.80","62.40","0.8000","187"
"1568","倉佑","375581","9289925","24.80","25.20","24.30","24.90","0.7000","214"
"1582","信錦","237649","19173151","80.90","81.30","80.30","80.60","0.8000","177"
"1583","程泰","1000","62500","62.50","62.50","62.50","62.50","1.0000","1"
"1587","吉茂","390404","10146912","26.00","26.65","25.60","26.30","0.4500","216"
"1589","永冠-KY","780496","56226928","71.50","73.00","71.40","71.80","1.0000","560"
"1590","亞德客-KY","448743","450209065","1010.00","1035.00","993.00","998.00","0.0000","426"
"1592","英瑞-KY","670984","1811136","2.71","2.74","2.62","2.71","0.0000","161"
"1597","直得","812679","78422567","94.00","99.00","94.00","97.70","5.2000","711"
"1598","岱宇","2180337","187787373","84.80","89.00","83.20","87.80","4.9000","1567"
"1603","華電","975210","28623791","29.90","30.50","28.50","29.40","0.3000","442"
"1604","聲寶","842819","23776995","28.40","28.40","28.00","28.20","0.1000","508"
"1605","華新","39235846","923059223","24.00","24.20","22.85","23.75","0.3500","14123"
"1608","華榮","14626698","350384410","23.90","24.80","23.20","24.30","1.1000","5637"
"1609","大亞","21294311","533291303","25.35","25.60","24.50","25.30","0.7500","7517"
"1611","中電","947730","10181151","10.65","10.90","10.55","10.80","0.3500","465"
"1612","宏泰","2726363","62613628","23.10","23.45","22.45","23.25","0.5500","1280"
"1614","三洋電","119115","3923574","32.70","33.20","32.65","33.00","0.9000","82"
"1615","大山","664862","24035548","35.70","36.90","35.30","36.55","1.3500","409"
"1616","億泰","2945529","26866295","9.10","9.69","8.69","9.16","0.0600","1027"
"1617","榮星","545006","9688606","17.50","18.20","17.40","17.85","0.7000","319"
"1618","合機","1631549","24838318","15.35","15.80","14.90","15.40","0.4000","817"
"1626","艾美特-KY","79000","1921250","24.20","24.55","24.10","24.10","0.1000","47"
"1701","中化","1497407","34695475","23.40","23.40","23.05","23.15","0.1000","670"
"1702","南僑","2386732","130246858","54.50","55.80","53.50","54.90","1.9000","1525"
"1707","葡萄王","183202","30497498","165.50","167.50","165.50","166.00","1.5000","231"
"1708","東鹼","1318205","34459488","25.90","26.45","25.75","26.15","0.5500","559"
"1709","和益","1311300","22982548","17.55","17.75","17.40","17.50","0.0500","460"
"1710","東聯","2898188","59304253","20.45","20.70","20.15","20.70","0.5500","1072"
"1711","永光","12941357","231596458","17.50","18.20","17.40","17.80","0.5500","4792"
"1712","興農","817752","17466710","21.30","21.55","21.25","21.40","0.1500","438"
"1713","國化","169697","3617203","21.60","21.70","20.95","21.70","0.5000","82"
"1714","和桐","17893797","198551654","11.15","11.30","10.90","11.00","0.0500","3742"
"1717","長興","24955307","1009649047","42.65","42.65","39.40","40.00","1.0500","11111"
"1718","中纖","18251994","176302487","9.63","9.84","9.45","9.77","0.3600","4636"
"1720","生達","1110318","43092746","38.75","38.95","38.70","38.80","0.1000","576"
"1721","三晃","384459","3699512","9.61","9.75","9.46","9.65","0.1000","188"
"1722","台肥","1328489","73666476","55.60","56.20","54.80","55.30","0.3000","729"
"1723","中碳","188279","20242028","107.50","109.50","106.00","107.50","1.0000","163"
"1724","台硝","79736","1260172","15.85","15.85","15.80","15.80","0.0000","46"
"1725","元禎","49001","901468","18.25","18.55","18.20","18.40","0.4000","40"
"1726","永記","34030","2481918","73.20","73.60","72.50","73.60","1.2000","34"
"1727","中華化","60649","714801","11.90","11.90","11.70","11.80","0.1000","53"
"1730","花仙子","177817","12465399","70.10","70.40","70.00","70.20","0.2000","196"
"1731","美吾華","2118207","43245292","20.45","20.65","20.10","20.55","0.1500","1034"
"1732","毛寶","5587958","238312585","45.40","45.40","41.85","41.85","-4.6500","3400"
"1733","五鼎","278466","6624648","24.00","24.35","23.60","23.80","0.1500","162"
"1734","杏輝","2284038","71782333","31.95","32.15","30.85","31.75","0.4000","1581"
"1735","日勝化","120165","2122179","17.10","18.50","16.75","17.30","0.3000","83"
"1736","喬山","1008178","76439148","73.50","77.60","73.30","76.50","4.3000","799"
"1737","臺鹽","367168","11749187","31.80","32.20","31.80","32.10","0.3000","280"
"1760","寶齡富錦","5193436","557152301","114.50","114.50","102.00","102.00","-10.5000","4066"
"1762","中化生","1613938","101932523","63.30","64.10","62.30","63.10","0.2000","1031"
"1773","勝一","246010","27523759","111.00","113.50","110.00","113.50","3.5000","212"
"1776","展宇","44001","743917","16.70","17.75","16.55","16.70","0.2500","34"
"1783","和康生","1598469","51933325","32.30","33.95","31.30","33.95","1.8000","908"
"1786","科妍","86105","4348375","50.00","51.50","50.00","50.70","1.0000","66"
"1789","神隆","1369097","35757449","26.20","26.55","26.00","26.05","-0.0500","673"
"1795","美時","9127976","824791135","87.10","92.50","86.60","91.00","5.0000","6131"
"1802","台玻","75984187","2192870658","28.90","30.00","27.80","29.65","1.8500","29731"
"1805","寶徠","223351","3007183","13.40","13.65","13.20","13.55","0.2500","76"
"1806","冠軍","3478133","38735566","10.80","11.50","10.75","11.40","0.7000","1293"
"1808","潤隆","105870","5481724","50.90","53.80","50.90","51.70","1.6000","83"
"1809","中釉","1488442","19991403","13.45","13.65","13.10","13.60","0.5000","714"
"1810","和成","2241312","24441233","10.45","11.35","10.45","11.30","0.9000","690"
"1817","凱撒衛","70226","2472987","35.10","35.40","35.00","35.25","0.0500","56"
"1903","士紙","125419","6273903","49.50","50.60","49.50","50.20","1.0000","113"
"1904","正隆","5055303","206156138","40.05","41.70","39.80","41.30","1.3500","3328"
"1905","華紙","21468917","471291454","21.85","22.70","21.15","22.10","1.0000","8618"
"1906","寶隆","794020","14494461","17.95","18.65","17.85","18.30","0.4500","272"
"1907","永豐餘","8412823","285108171","33.50","34.95","32.40","34.20","1.0500","3460"
"1909","榮成","15680932","337963680","21.35","22.00","21.05","21.80","0.9000","4740"
"2002","中鋼","398343003","14249589292","35.85","37.10","34.45","36.20","1.0500","116077"
"2002A","中鋼特","28859","1491898","52.00","52.00","51.10","51.90","0.1000","22"
"2006","東和鋼鐵","18462856","868954116","48.00","48.45","45.40","47.90","1.0000","8402"
"2007","燁興","6612296","86843394","13.30","13.50","12.50","13.30","0.3500","2546"
"2008","高興昌","680080","11306686","16.55","17.15","16.15","16.75","0.6000","380"
"2009","第一銅","89824835","5412264784","60.70","62.40","58.30","60.50","2.3000","42979"
"2010","春源","11338940","224593630","19.95","20.40","19.10","20.10","0.5500","4351"
"2012","春雨","1773133","45701116","25.45","26.65","24.95","25.90","0.8500","975"
"2013","中鋼構","1759981","71281005","40.50","41.15","39.80","40.75","0.7000","1064"
"2014","中鴻","304799956","13591953450","45.00","47.20","42.45","46.15","3.1500","108349"
"2015","豐興","1134838","82320979","72.20","74.00","71.20","73.50","2.0000","726"
"2017","官田鋼","9149464","181952026","20.00","20.80","19.05","19.85","0.6000","4206"
"2020","美亞","9782831","300161722","30.50","31.75","29.80","31.20","0.9000","4541"
"2022","聚亨","11857504","154695867","13.05","13.60","12.35","13.25","0.3000","4561"
"2023","燁輝","58948103","1192156873","20.65","21.10","19.55","20.40","0.2500","18246"
"2024","志聯","133673","2165648","16.35","16.65","15.80","16.30","0.2000","116"
"2025","千興","1427464","5561911","3.93","3.93","3.85","3.85","0.1300","313"
"2027","大成鋼","86116671","3428143613","40.20","40.95","38.45","40.30","0.8000","35549"
"2028","威致","3406760","105153357","31.50","32.15","29.30","31.45","1.1000","2052"
"2029","盛餘","5940030","177716405","29.80","31.00","28.90","30.85","1.4500","2817"
"2030","彰源","8197106","147481748","18.00","18.45","17.45","18.25","0.6500","2957"
"2031","新光鋼","28949289","1725018107","59.50","62.20","56.50","60.70","3.5000","13573"
"2032","新鋼","2532148","46524983","18.20","18.80","17.75","18.75","0.9000","1225"
"2033","佳大","3234252","50785853","15.25","16.55","14.80","16.00","0.9000","1410"
"2034","允強","7557566","220689529","29.10","29.80","28.50","29.80","1.2000","3394"
"2038","海光","35247570","1048234282","29.50","31.05","28.20","31.05","2.8000","13387"
"2049","上銀","3422600","1205434566","344.00","362.00","340.00","351.50","14.0000","3087"
"2059","川湖","100373","38334918","382.00","386.00","377.50","383.00","2.5000","105"
"2062","橋椿","237000","6519400","26.95","27.75","26.95","27.70","0.7500","128"
"2069","運錩","2809101","63454426","22.60","23.20","21.75","22.90","0.5000","1490"
"2101","南港","1357120","50518754","37.10","37.80","36.95","37.10","0.5000","605"
"2102","泰豐","23627077","636433615","25.20","27.40","24.75","26.40","1.2000","3763"
"2103","台橡","5832948","172399256","29.70","30.10","28.80","29.95","0.9500","2303"
"2104","國際中橡","3381713","81889637","24.00","24.50","23.85","24.30","0.5500","1221"
"2105","正新","8754307","387304799","44.45","45.25","43.90","44.35","0.1500","3090"
"2106","建大","1645419","62129807","37.45","38.20","37.15","38.20","1.1500","905"
"2107","厚生","1585704","36951031","23.10","23.45","23.00","23.40","0.6000","489"
"2108","南帝","16925152","2119611765","120.00","129.50","119.00","128.00","9.5000","11076"
"2109","華豐","884782","15699491","18.20","18.30","17.50","17.95","0.0500","404"
"2114","鑫永銓","65259","7700371","117.50","120.00","116.50","118.00","3.0000","63"
"2115","六暉-KY","48431","2219353","45.90","46.00","45.45","45.90","0.6500","47"
"2201","裕隆","2679468","105150997","39.40","39.80","38.75","39.20","0.6000","1410"
"2204","中華","1319153","88437469","67.10","67.80","66.30","67.10","0.4000","902"
"2206","三陽工業","1406659","39151990","27.85","28.15","27.50","28.00","0.6000","832"
"2207","和泰車","197678","106789601","536.00","546.00","535.00","539.00","5.0000","326"
"2208","台船","25293629","534557172","20.45","21.90","20.30","21.90","1.9500","7512"
"2211","長榮鋼","852935","42823934","50.50","51.30","49.30","50.70","1.5500","624"
"2227","裕日車","59538","15667332","263.00","266.00","261.50","262.00","0.5000","129"
"2228","劍麟","65404","4584335","71.00","71.00","69.50","70.10","0.1000","51"
"2231","為升","371494","72689955","195.00","200.00","193.00","195.00","3.0000","381"
"2233","宇隆","934116","93724356","101.00","101.50","99.00","101.00","3.2000","731"
"2236","百達-KY","7106","169145","24.15","24.30","23.50","24.30","0.1000","7"
"2239","英利-KY","275489","25300567","93.50","95.30","89.00","90.50","1.1000","238"
"2241","艾姆勒","82060","4209386","51.40","51.80","51.00","51.40","0.6000","69"
"2243","宏旭-KY","7000","69260","9.97","9.97","9.70","9.88","0.3700","7"
"2247","汎德永業","90080","19711482","221.50","221.50","217.50","219.00","1.0000","128"
"2301","光寶科","3402354","214447013","63.30","63.60","62.50","63.10","0.5000","1849"
"2302","麗正","432575","7221311","16.75","17.05","16.40","16.70","0.3000","248"
"2303","聯電","146240160","6927587864","47.75","48.20","46.85","46.95","0.4500","45128"
"2305","全友","1191975","10027052","8.43","8.55","8.30","8.42","0.2200","399"
"2308","台達電","8708261","2500899333","285.50","289.50","283.00","289.00","8.0000","6398"
"2312","金寶","20058113","262098199","13.00","13.30","12.85","13.05","0.3000","4440"
"2313","華通","7056647","249073429","35.95","36.20","35.00","35.00","-0.4500","3395"
"2314","台揚","3329889","108079159","32.30","33.25","31.85","32.25","0.2000","1702"
"2316","楠梓電","599154","16857136","28.20","28.30","27.95","28.20","0.4000","323"
"2317","鴻海","54294943","5915349127","108.00","110.00","108.00","109.50","3.5000","24601"
"2321","東訊","2350","16866","7.22","7.22","7.22","7.22","-0.3300","6"
"2323","中環","8267729","82122449","9.92","10.10","9.84","9.91","0.1600","2078"
"2324","仁寶","74025581","1796833450","25.45","25.45","23.30","23.30","0.1500","19136"
"2327","國巨","11523776","5389098547","487.00","487.00","457.00","458.50","15.0000","10226"
"2328","廣宇","9723733","361087173","36.65","37.70","36.30","37.50","1.8500","4745"
"2329","華泰","7581388","119634867","15.80","16.10","15.50","15.95","0.5000","1954"
"2330","台積電","28009899","16016851343","572.00","577.00","568.00","573.00","6.0000","27050"
"2331","精英","3583415","85402835","23.80","24.30","23.40","24.00","0.7500","1635"
"2332","友訊","2963798","55401439","18.55","18.95","18.50","18.85","0.5000","1142"
"2337","旺宏","22294286","857057426","38.45","39.00","37.70","38.80","1.2000","9564"
"2338","光罩","13947282","1009067355","74.00","74.80","70.90","71.60","0.6000","7779"
"2340","光磊","2002812","49300480","24.65","24.95","24.35","24.60","0.4000","973"
"2342","茂矽","1491578","44401846","30.10","30.30","29.25","29.80","0.8000","873"
"2344","華邦電","46755604","1344794396","28.95","29.15","28.40","28.90","0.8500","15587"
"2345","智邦","1553510","461221944","298.00","303.50","291.00","295.00","-0.5000","1355"
"2347","聯強","3686035","214010719","57.90","58.90","57.70","58.00","0.7000","2079"
"2348","海悅","393467","36032891","92.70","92.80","90.70","92.30","1.1000","355"
"2349","錸德","2419818","22669922","9.39","9.50","9.25","9.38","0.1800","807"
"2351","順德","3249457","271006332","84.00","85.60","81.10","82.80","2.5000","2360"
"2352","佳世達","8802509","254503878","29.05","29.20","28.50","28.90","0.3500","3580"
"2353","宏碁","32962475","1024177578","31.20","31.85","30.50","30.90","0.2500","14340"
"2354","鴻準","4509892","285332359","63.50","64.10","62.70","63.10","0.9000","2755"
"2355","敬鵬","1662165","43827580","26.40","26.80","25.80","26.55","0.5000","990"
"2356","英業達","8532857","218402757","25.50","25.85","25.35","25.75","0.4500","3759"
"2357","華碩","8806299","3468726960","402.00","408.00","388.00","392.50","-4.5000","8523"
"2358","廷鑫","681811","9375989","13.70","13.95","13.55","13.85","0.2000","288"
"2359","所羅門","295459","4948950","16.65","16.90","16.65","16.80","0.2000","143"
"2360","致茂","938766","174485037","188.00","192.00","183.00","183.00","-2.5000","521"
"2362","藍天","472304","14099689","29.65","30.05","29.65","30.00","0.3500","232"
"2363","矽統","7240235","138431707","19.40","19.55","18.85","19.10","0.2000","2841"
"2364","倫飛","138002","452610","3.20","3.31","3.20","3.29","-0.0100","66"
"2365","昆盈","2813672","34232839","12.30","12.60","12.00","12.10","0.0500","962"
"2367","燿華","1942168","37831748","19.60","19.75","19.30","19.45","0.2000","962"
"2368","金像電","17251038","881849286","51.10","52.60","49.95","51.00","1.8500","8711"
"2369","菱生","3498034","54692260","15.75","16.00","15.40","15.60","0.2500","1323"
"2371","大同","8910891","206840952","23.30","23.55","23.00","23.25","0.2500","2171"
"2373","震旦行","40935","3749711","90.40","91.90","90.40","91.70","1.3000","52"
"2374","佳能","875425","12790371","14.55","14.75","14.45","14.65","0.3500","294"
"2375","凱美","6232914","602704997","97.00","99.70","94.30","95.80","2.8000","4352"
"2376","技嘉","31946101","3173987213","103.00","104.50","95.60","99.60","-2.4000","20956"
"2377","微星","7971361","1308441061","167.50","171.50","160.00","164.50","-0.5000","5805"
"2379","瑞昱","2250359","1015815890","460.00","460.00","443.00","451.50","1.5000","2063"
"2380","虹光","1114459","12948316","11.65","12.15","11.40","11.50","0.1500","463"
"2382","廣達","10779059","960122353","88.70","90.80","88.40","88.80","0.4000","5823"
"2383","台光電","1366513","213940761","159.50","159.50","155.00","156.50","0.0000","1153"
"2385","群光","5793183","455425673","79.40","80.50","77.80","78.50","-0.4000","3502"
"2387","精元","2115049","115976580","53.20","56.60","52.90","56.30","3.6000","1180"
"2388","威盛","1560780","67833540","43.50","44.25","42.85","43.60","1.0500","924"
"2390","云辰","21150345","459413726","20.90","22.40","20.90","21.75","0.4500","8786"
"2392","正崴","1083351","41912622","39.00","39.10","38.45","38.65","0.4000","688"
"2393","億光","1870663","78566179","42.30","42.40","41.60","42.00","0.5000","1193"
"2395","研華","1075457","345435374","320.50","327.00","317.50","319.00","-3.5000","1023"
"2397","友通","4034","241044","59.00","60.00","59.00","60.00","1.4000","8"
"2399","映泰","26592252","657868725","25.60","25.90","23.55","24.20","-0.4000","11134"
"2401","凌陽","10225651","271987406","26.80","27.20","26.15","26.50","0.6500","4538"
"2402","毅嘉","1051832","16891003","16.00","16.30","15.80","16.15","0.5000","452"
"2404","漢唐","703891","160104055","227.50","228.50","226.50","227.50","2.5000","719"
"2405","浩鑫","940539","11000873","11.65","11.85","11.55","11.70","0.2500","379"
"2406","國碩","1940557","34803407","17.80","18.40","17.60","18.00","0.4000","867"
"2408","南亞科","10953097","842944426","77.80","78.60","75.50","76.30","1.1000","6540"
"2409","友達","366027842","8042087186","22.50","22.80","21.35","21.70","-0.1500","82306"
"2412","中華電","12701109","1447252095","113.50","114.50","113.50","114.50","1.0000","3844"
"2413","環科","823168","17658119","21.45","22.00","20.90","21.50","0.3000","446"
"2414","精技","246887","6968986","28.25","28.40","28.05","28.35","0.2500","142"
"2415","錩新","1018794","36873298","36.65","36.85","35.25","36.05","0.6000","663"
"2417","圓剛","5223952","229278075","45.00","45.00","43.35","43.95","0.0000","3349"
"2419","仲琦","453347","9183259","20.10","20.55","20.05","20.20","0.2000","232"
"2420","新巨","199624","7220308","36.35","36.40","36.00","36.20","0.3000","136"
"2421","建準","931165","38834484","41.20","42.10","41.20","42.00","1.3500","699"
"2423","固緯","92285","2168468","23.85","23.85","23.35","23.65","0.3500","64"
"2424","隴華","167","4008","","","","","0.0000","1"
"2425","承啟","897667","26982025","30.00","30.70","29.05","30.70","1.2000","574"
"2426","鼎元","3313550","79214497","24.15","24.20","23.45","24.10","0.9000","1262"
"2427","三商電","293385","3368933","11.55","11.70","11.30","11.45","-0.0500","144"
"2428","興勤","310642","47596239","154.00","155.00","151.50","152.50","3.5000","272"
"2429","銘旺科","27000","434950","16.00","16.50","15.90","16.40","0.4000","25"
"2430","燦坤","2430912","70074130","27.65","29.75","27.65","29.50","2.1000","1217"
"2431","聯昌","1025772","13311596","12.80","13.10","12.80","13.10","0.4000","398"
"2433","互盛電","54125","2813620","51.80","52.40","51.70","51.70","0.5000","54"
"2434","統懋","48192","1829567","38.45","38.60","37.50","37.65","-0.6000","37"
"2436","偉詮電","17411611","1017797336","57.00","59.70","56.60","59.50","3.7000","9587"
"2438","翔耀","40880","439840","10.70","11.00","10.60","11.00","0.3500","25"
"2439","美律","641402","66430207","103.50","104.50","102.50","104.00","2.0000","550"
"2440","太空梭","727511","12507382","17.00","17.50","16.50","17.40","0.5500","328"
"2441","超豐","2727026","183565982","66.30","68.30","66.00","67.70","2.0000","1968"
"2442","新美齊","1102465","11158839","10.10","10.30","9.96","10.15","0.1700","277"
"2443","億麗","120004","342648","2.93","2.93","2.85","2.85","0.0100","36"
"2444","兆勁","388007","4552777","11.75","11.80","11.55","11.75","0.3000","184"
"2449","京元電子","7876634","318904928","40.90","41.20","40.15","40.40","0.2000","4150"
"2450","神腦","230178","7196843","30.85","31.90","30.80","31.40","0.6500","170"
"2451","創見","660872","45830258","69.70","69.80","68.70","69.50","0.9000","485"
"2453","凌群","489291","12032673","24.40","24.80","24.05","24.60","0.4000","305"
"2454","聯發科","13888295","13266103555","961.00","973.00","936.00","955.00","25.0000","13300"
"2455","全新","1293233","127991154","97.90","99.80","97.90","99.80","3.9000","1085"
"2456","奇力新","2450969","228179156","93.20","95.00","91.60","92.30","1.3000","1869"
"2457","飛宏","10492887","292284675","27.50","28.65","27.20","27.90","1.2500","5084"
"2458","義隆","2767793","562834349","206.50","208.00","200.50","201.50","-1.0000","2430"
"2459","敦吉","58367","3105393","53.30","53.60","53.00","53.00","0.3000","59"
"2460","建通","3051874","96249938","31.70","32.25","30.55","31.90","1.1000","1858"
"2461","光群雷","1480634","28832671","19.50","19.85","19.15","19.70","0.5500","551"
"2462","良得電","724683","22159107","30.30","31.20","30.05","31.00","0.7000","326"
"2464","盟立","909567","37741002","41.80","42.20","41.20","41.45","0.3000","591"
"2465","麗臺","3446593","150176223","43.40","45.00","42.60","43.00","1.1500","1906"
"2466","冠西電","69000","2176350","31.45","31.70","31.35","31.60","0.1500","57"
"2467","志聖","496263","25000146","49.65","51.00","49.65","50.90","1.9500","361"
"2468","華經","190080","2554122","13.40","13.70","13.25","13.50","0.4000","75"
"2471","資通","271055","7034815","25.70","26.45","25.30","26.15","0.4500","158"
"2472","立隆電","1449742","87056407","60.00","61.50","59.00","59.50","0.9000","921"
"2474","可成","6557672","1221451129","195.00","195.00","181.00","181.50","4.0000","4225"
"2476","鉅祥","1355460","42104256","31.30","31.50","30.70","31.25","0.5500","679"
"2477","美隆電","929210","31648536","33.40","35.00","33.35","35.00","1.7000","548"
"2478","大毅","1370514","89276358","65.50","67.10","64.10","64.20","0.7000","1062"
"2480","敦陽科","181192","12407119","68.50","68.80","68.20","68.30","0.2000","188"
"2481","強茂","10794118","492401980","44.90","46.40","44.65","46.15","2.3000","5077"
"2482","連宇","163920","1791324","11.15","11.15","10.80","10.95","0.1500","102"
"2483","百容","100915","1946701","19.00","19.50","19.00","19.35","0.4000","61"
"2484","希華","1769311","45053776","26.00","26.00","25.10","25.35","0.0000","838"
"2485","兆赫","2384908","42941543","18.05","18.25","17.80","18.00","0.2000","1007"
"2486","一詮","2927899","78907208","26.50","27.40","26.25","27.30","1.4000","1327"
"2488","漢平","90424","2633930","29.30","29.35","29.00","29.00","0.1500","75"
"2489","瑞軒","11935111","186637754","15.50","16.00","15.25","15.75","0.5500","3394"
"2491","吉祥全","4397550","107290701","22.90","24.60","22.70","24.60","2.2000","1391"
"2492","華新科","10396671","2025707372","196.00","202.00","190.00","192.00","2.5000","7353"
"2493","揚博","289093","10500698","36.80","36.80","36.20","36.30","0.0000","198"
"2495","普安","3893763","76812530","19.30","19.90","19.00","19.90","1.8000","1020"
"2496","卓越","9330","545458","58.40","58.60","58.00","58.40","0.0000","16"
"2497","怡利電","165044","4733158","28.65","29.15","28.10","28.30","0.4000","127"
"2498","宏達電","9842845","341741473","34.30","35.35","34.25","34.65","0.9500","4526"
"2501","國建","712213","13973205","19.50","19.80","19.45","19.60","0.1500","326"
"2504","國產","4944710","115861930","22.90","24.00","22.90","23.90","1.3500","2078"
"2505","國揚","707791","21576664","30.55","30.85","30.35","30.45","0.1000","384"
"2506","太設","344101","3517170","10.00","10.30","10.00","10.15","0.1500","161"
"2509","全坤建","623961","11950086","19.00","19.40","18.95","19.10","0.4000","385"
"2511","太子","2091206","23721424","11.25","11.50","11.25","11.30","0.1500","501"
"2514","龍邦","131336","2233971","17.00","17.15","16.85","16.95","0.2500","72"
"2515","中工","7374594","65588205","8.98","8.98","8.78","8.92","0.1500","1858"
"2516","新建","363842","1993268","5.38","5.60","5.29","5.60","0.2600","181"
"2520","冠德","2146322","78994632","36.75","37.10","36.50","36.85","0.6000","1322"
"2524","京城","12028","416965","35.05","35.05","34.45","34.45","0.2000","18"
"2527","宏璟","520460","11795124","22.60","22.95","22.40","22.80","0.3000","227"
"2528","皇普","26000","572900","22.55","22.55","21.65","21.70","0.0000","21"
"2530","華建","533825","7323769","13.70","13.85","13.65","13.75","0.2500","206"
"2534","宏盛","5463896","107404026","19.30","19.80","19.20","19.60","0.3500","565"
"2535","達欣工","1118528","36854494","32.65","33.35","32.65","33.10","0.5000","793"
"2536","宏普","117340","2494970","21.40","21.45","21.15","21.40","0.2500","83"
"2537","聯上發","424153","3736564","8.76","8.89","8.74","8.83","0.1000","167"
"2538","基泰","465329","4456426","9.57","9.66","9.50","9.60","0.1000","184"
"2539","櫻花建","146510","4630291","31.50","31.90","31.40","31.50","0.4000","100"
"2540","愛山林","129480","9715959","74.00","75.40","73.60","74.40","0.8000","50"
"2542","興富發","4660699","199151083","42.75","43.05","42.10","43.00","0.8500","2510"
"2543","皇昌","301551","2200440","7.55","7.65","7.21","7.40","0.0000","94"
"2545","皇翔","492560","19670357","39.90","40.10","39.75","40.10","0.4500","315"
"2546","根基","85579","4001430","46.50","47.00","46.50","47.00","0.9500","100"
"2547","日勝生","1967200","21345713","10.85","11.00","10.75","10.85","0.1500","544"
"2548","華固","466755","42345031","91.50","91.50","90.50","90.50","-0.1000","387"
"2597","潤弘","485038","69940132","143.00","146.50","141.50","144.50","4.0000","362"
"2601","益航","36932396","444239006","11.80","12.30","11.60","12.10","0.5500","7857"
"2603","長榮","592334120","48780487121","81.00","84.70","80.10","84.70","7.7000","216135"
"2605","新興","39227519","963097037","23.80","25.65","23.45","25.10","1.6500","14765"
"2606","裕民","42005415","2058059843","47.25","50.90","47.00","50.90","4.5500","18141"
"2607","榮運","14414192","279846244","18.95","20.00","18.75","19.80","1.3500","5597"
"2608","嘉里大榮","15797653","848448581","49.95","54.90","49.95","54.90","4.9500","7798"
"2609","陽明","525852293","46931658114","87.00","91.80","86.90","91.80","8.3000","191761"
"2610","華航","91596943","1403448551","15.30","15.75","15.10","15.40","0.3000","17073"
"2611","志信","11896700","199669914","16.05","17.35","16.05","17.00","1.1500","4965"
"2612","中航","5348695","217271216","39.50","42.15","38.85","41.80","3.2500","3152"
"2613","中櫃","4028381","95335327","23.00","24.45","22.60","23.65","1.3000","2169"
"2614","東森","24161853","422304695","17.15","17.80","17.00","17.40","0.3000","7224"
"2615","萬海","73376940","8290558283","110.00","114.00","109.50","114.00","10.0000","20536"
"2616","山隆","613733","21954559","34.60","35.00","34.60","34.75","0.3000","146"
"2617","台航","9521458","326245526","33.20","35.40","32.85","35.40","3.2000","4357"
"2618","長榮航","39756650","601694980","15.15","15.45","14.85","15.20","0.3500","10698"
"2630","亞航","196160","3080076","15.45","16.10","15.30","15.65","0.4000","130"
"2633","台灣高鐵","6351593","178451353","28.15","28.55","27.90","28.10","-0.0500","3154"
"2634","漢翔","942029","25366379","26.75","27.20","26.75","26.90","0.3000","606"
"2636","台驊投控","11182035","796872656","70.10","72.90","69.70","71.50","3.1000","6765"
"2637","慧洋-KY","78064162","5097134748","64.00","67.80","62.50","67.70","6.0000","37756"
"2642","宅配通","15488432","750099151","46.05","49.30","46.05","49.30","4.4500","8362"
"2701","萬企","100415","1163727","11.50","11.75","11.50","11.50","0.0500","59"
"2702","華園","259023","4801970","18.30","18.95","18.20","18.60","0.2500","146"
"2704","國賓","33947","930531","27.00","27.70","27.00","27.65","0.9000","46"
"2705","六福","189767","3036927","15.75","16.10","15.70","16.10","0.5000","101"
"2706","第一店","116831","1559187","13.35","13.45","13.20","13.20","0.1000","88"
"2707","晶華","267305","35896219","132.50","135.50","132.50","135.50","2.5000","236"
"2712","遠雄來","4000","129100","32.85","32.85","32.00","32.00","0.8000","4"
"2722","夏都","19452","528394","27.30","27.50","26.95","26.95","0.0500","19"
"2723","美食-KY","608723","90413412","149.00","153.00","145.00","145.50","-1.0000","494"
"2727","王品","1079171","137382742","124.00","129.50","124.00","127.50","4.0000","1109"
"2731","雄獅","497083","39563508","77.10","80.60","77.10","80.10","3.0000","409"
"2739","寒舍","36100","824600","22.85","23.10","22.60","22.85","0.4500","25"
"2748","雲品","34562","1358715","40.00","40.00","39.00","39.00","0.9000","31"
"2801","彰銀","7956175","131904746","16.50","16.75","16.45","16.65","0.2500","2426"
"2809","京城銀","2429690","97673854","40.25","40.65","39.90","40.50","0.8000","1134"
"2812","台中銀","4535502","51309383","11.30","11.40","11.25","11.35","0.1000","1381"
"2816","旺旺保","167959","3371789","19.95","20.30","19.90","20.20","0.4000","115"
"2820","華票","1083032","17143638","15.75","15.90","15.75","15.80","0.0500","433"
"2823","中壽","6396621","152453057","23.80","24.15","23.60","23.70","0.1500","1869"
"2832","台產","643245","12910850","20.10","20.25","19.95","20.05","0.1000","346"
"2834","臺企銀","21580446","202713857","9.39","9.49","9.35","9.41","0.0600","4542"
"2836","高雄銀","686830","7405559","10.70","10.85","10.70","10.80","0.1500","291"
"2836A","高雄銀甲特","6000","135850","22.65","22.70","22.60","22.60","0.0000","4"
"2838","聯邦銀","1285859","14827323","11.50","11.65","11.45","11.55","0.1500","395"
"2838A","聯邦銀甲特","63000","3322700","52.70","52.90","52.70","52.80","0.1000","15"
"2841","台開","616670","3882221","6.39","6.39","6.23","6.30","-0.0500","238"
"2845","遠東銀","3280393","34175342","10.35","10.45","10.35","10.45","0.1500","671"
"2849","安泰銀","106356","1546846","14.45","14.65","14.40","14.50","0.2500","59"
"2850","新產","175539","6960816","39.55","39.85","39.40","39.50","0.1500","93"
"2851","中再保","662697","16492669","24.90","25.15","24.70","24.75","0.1000","340"
"2852","第一保","335209","4401832","13.10","13.20","12.95","13.20","0.2000","145"
"2855","統一證","7482993","199709087","26.50","27.00","26.25","26.95","1.0500","2602"
"2867","三商壽","3968844","35899231","9.01","9.16","8.96","9.00","0.1100","970"
"2880","華南金","7549916","136250330","18.00","18.20","17.90","18.05","0.2000","2750"
"2881","富邦金","57010771","4177057903","76.40","76.40","71.50","72.00","1.8000","20283"
"2881A","富邦特","111409","6902614","62.00","62.00","61.90","61.90","-0.1000","31"
"2881B","富邦金乙特","57749","3561861","61.70","61.80","61.60","61.70","-0.1000","31"
"2882","國泰金","83602109","4568069301","54.80","56.00","53.20","54.20","0.9000","24327"
"2882A","國泰特","189055","11733510","62.10","62.20","62.00","62.10","0.0000","34"
"2882B","國泰金乙特","11433","706370","61.70","61.90","61.70","61.90","0.0000","14"
"2883","開發金","79222120","950992343","12.05","12.15","11.90","12.05","0.2000","10721"
"2884","玉山金","15564764","395516563","25.35","25.60","25.25","25.45","0.2000","5600"
"2885","元大金","20318856","502615519","24.75","25.10","24.40","24.65","0.2000","6191"
"2886","兆豐金","19912170","643809936","32.20","32.60","32.20","32.50","0.4000","5972"
"2887","台新金","29254847","425458210","14.50","14.70","14.40","14.60","0.2500","5725"
"2887E","台新戊特","439381","23197230","52.80","52.80","52.70","52.70","-0.1000","48"
"2887F","台新戊特二","11269","581415","51.60","51.60","51.60","51.60","-0.1000","14"
"2888","新光金","63832784","594379556","9.30","9.41","9.22","9.31","0.1400","7607"
"2888A","新光金甲特","8487","358998","42.30","42.35","42.30","42.35","0.1500","14"
"2888B","新光金乙特","62055","2549806","41.00","41.10","41.00","41.10","0.1000","30"
"2889","國票金","6278282","105608410","16.85","17.00","16.70","16.85","0.1500","2313"
"2890","永豐金","23964382","317397965","13.20","13.40","13.15","13.20","0.1000","4867"
"2891","中信金","70783943","1610811900","22.65","23.30","22.40","22.60","0.3000","13191"
"2891B","中信金乙特","14265","901013","63.10","63.30","63.10","63.30","0.0000","22"
"2891C","中信金丙特","26121","1589771","60.80","61.00","60.80","61.00","0.0000","24"
"2892","第一金","11747277","255301774","21.70","22.00","21.60","21.65","0.1000","3586"
"2897","王道銀行","1749245","12028181","6.83","6.93","6.83","6.88","0.0500","436"
"2897A","王道銀甲特","33990","343000","10.10","10.10","10.05","10.10","0.0000","118"
"2901","欣欣","122159","3590411","28.85","29.85","28.80","29.35","0.7000","49"
"2903","遠百","951387","20491431","21.40","21.95","21.35","21.50","0.0500","585"
"2904","匯僑","69199","1983787","28.50","28.85","28.50","28.80","0.4000","56"
"2905","三商","926621","19984698","21.45","21.90","21.40","21.50","0.2500","437"
"2906","高林","1246486","18959667","14.90","15.65","14.70","15.60","0.9000","343"
"2908","特力","152581","3917078","25.20","25.90","25.20","25.90","0.9000","95"
"2910","統領","7000","217300","31.00","31.30","30.70","31.10","0.6500","6"
"2911","麗嬰房","358223","2728084","7.58","7.78","7.45","7.61","0.1500","220"
"2912","統一超","1573974","423666542","269.50","273.00","267.00","268.00","-0.5000","1261"
"2913","農林","3423169","62506592","18.30","18.50","18.00","18.25","0.2000","1214"
"2915","潤泰全","3531035","289134044","82.20","82.80","81.00","82.20","1.1000","1557"
"2923","鼎固-KY","43335","1207081","27.15","28.55","27.15","27.55","0.2500","23"
"2929","淘帝-KY","279922","3728297","13.50","13.50","13.00","13.00","0.0000","136"
"2936","客思達-KY","9000","200150","22.20","22.25","22.20","22.25","0.0500","8"
"2939","凱羿-KY","106104","3340078","31.10","31.80","30.80","30.80","-0.9500","38"
"3002","歐格","72109","845091","11.65","11.75","11.65","11.75","0.1000","50"
"3003","健和興","2794613","178829004","62.80","64.90","62.80","64.00","2.6000","1637"
"3004","豐達科","54643","2732583","50.00","50.50","49.90","50.50","1.1000","49"
"3005","神基","1229998","61569596","50.20","50.70","49.50","49.80","0.1000","705"
"3006","晶豪科","31092598","3245890584","106.00","108.00","101.50","106.50","5.0000","16788"
"3008","大立光","435841","1273765590","2900.00","2950.00","2885.00","2920.00","70.0000","1597"
"3010","華立","415166","31578353","76.00","76.60","75.50","76.20","0.6000","361"
"3011","今皓","339210","2551982","7.72","7.74","7.42","7.56","0.2800","140"
"3013","晟銘電","369300","4623532","12.65","12.75","12.40","12.55","0.1000","204"
"3014","聯陽","18097399","2115194169","120.50","123.50","111.50","112.50","-2.5000","11810"
"3015","全漢","752563","31154436","41.20","41.75","41.00","41.50","0.7500","452"
"3016","嘉晶","2106560","131387986","62.80","63.80","61.40","62.30","0.5000","1376"
"3017","奇鋐","9097061","581708277","62.00","65.40","62.00","64.90","4.0000","5289"
"3018","同開","108198","1732398","15.65","16.25","15.65","16.10","0.6500","145"
"3019","亞光","2523492","190835009","75.30","76.80","74.10","76.20","2.3000","1619"
"3021","鴻名","158630","3217259","20.60","20.60","19.90","20.35","0.6500","110"
"3022","威強電","185734","8992348","48.95","49.00","47.90","48.40","0.7000","152"
"3023","信邦","498729","121306729","243.00","246.50","240.50","243.50","2.0000","456"
"3024","憶聲","1168988","14714323","12.65","12.75","12.40","12.75","0.3500","413"
"3025","星通","937133","23444673","24.75","25.40","24.70","25.00","0.7000","410"
"3026","禾伸堂","10707105","1407119557","134.00","134.00","127.00","127.50","5.5000","5201"
"3027","盛達","3676624","83455934","21.80","23.10","21.20","23.10","2.1000","1590"
"3028","增你強","940372","26389406","28.20","28.35","27.70","28.10","0.5000","443"
"3029","零壹","793899","35577259","44.80","45.10","44.50","44.80","0.5500","546"
"3030","德律","508598","28466382","55.90","56.30","55.70","56.10","0.5000","319"
"3031","佰鴻","494080","8323660","16.95","17.15","16.60","17.00","0.5000","275"
"3032","偉訓","175589","7033245","39.70","40.30","39.70","40.25","0.7000","178"
"3033","威健","2592433","57853958","22.50","22.60","22.10","22.40","0.3000","1098"
"3034","聯詠","13629781","6392388477","472.00","478.00","462.00","470.50","10.5000","12219"
"3035","智原","10356376","624307891","60.70","61.60","59.20","59.80","1.0000","5119"
"3036","文曄","1398499","71205421","51.10","51.70","50.50","50.80","0.4000","791"
"3036A","文曄甲特","54060","2543622","47.00","47.10","47.00","47.10","0.1000","39"
"3037","欣興","40284589","3987363057","97.20","100.50","96.60","100.50","5.9000","22475"
"3038","全台","865624","16455639","18.85","19.20","18.85","19.00","0.2500","370"
"3040","遠見","180422","8620151","47.50","48.40","47.50","47.70","0.1000","153"
"3041","揚智","2240068","53499831","23.90","24.30","23.40","24.05","0.7500","1088"
"3042","晶技","7629505","707243971","94.60","94.70","91.70","92.30","0.1000","4037"
"3043","科風","162306","626003","4.07","4.07","3.70","3.98","0.0700","62"
"3044","健鼎","1357360","172420303","127.00","128.00","126.50","127.00","0.5000","896"
"3045","台灣大","2506015","252328998","101.00","101.00","100.00","101.00","0.5000","1376"
"3046","建碁","122456","2787830","23.70","23.70","22.30","22.85","0.7500","91"
"3047","訊舟","860887","9336774","10.80","11.15","10.65","10.85","0.2000","376"
"3048","益登","1931251","64687296","33.55","33.90","33.20","33.60","0.3000","1071"
"3049","和鑫","6694629","76845871","11.50","11.75","11.25","11.60","0.4500","1497"
"3050","鈺德","686465","10200219","14.60","15.05","14.60","14.95","0.6500","375"
"3051","力特","953826","7437652","7.69","7.85","7.62","7.79","0.1700","241"
"3052","夆典","704153","8211813","11.60","11.80","11.50","11.65","0.1500","264"
"3054","立萬利","22433","465576","19.85","22.20","19.85","22.20","1.7000","22"
"3055","蔚華科","301179","8087696","26.25","27.60","26.15","27.60","1.6500","288"
"3056","總太","420958","16344376","38.60","39.00","38.60","38.85","0.6000","286"
"3057","喬鼎","622703","8868105","13.30","14.35","13.30","14.35","1.3000","280"
"3058","立德","2943281","43547277","14.45","15.20","14.10","15.00","0.9500","1185"
"3059","華晶科","14794243","477833013","31.60","32.90","31.55","32.50","1.2000","5503"
"3060","銘異","3461554","78127119","21.80","22.80","21.70","22.80","2.0500","1172"
"3062","建漢","2277246","37050354","16.00","16.50","15.95","16.40","0.5500","892"
"3090","日電貿","1192640","61770719","52.00","52.70","51.30","51.40","0.7000","812"
"3092","鴻碩","2164893","135372082","64.10","64.90","61.30","61.90","-0.1000","1493"
"3094","聯傑","1817519","58117508","31.35","32.85","31.25","31.60","0.8500","1074"
"3130","一零四","1188","195261","164.00","164.00","164.00","164.00","1.0000","10"
"3138","耀登","1813235","297567305","156.50","165.50","156.50","165.50","15.0000","1335"
"3149","正達","3848270","122452892","31.20","32.90","30.80","31.70","1.4500","1861"
"3164","景岳","612264","15085202","25.20","25.25","24.40","24.40","-0.2500","324"
"3167","大量","210650","13072719","61.60","63.40","61.00","62.00","1.1000","131"
"3189","景碩","13456317","1250112197","90.30","95.20","89.10","94.40","6.2000","8764"
"3209","全科","636952","17825076","28.30","28.30","27.80","28.00","0.2500","344"
"3229","晟鈦","42334","260902","6.13","6.25","6.12","6.20","0.1000","21"
"3231","緯創","17675270","515889744","29.40","29.70","29.00","29.10","-0.1000","7088"
"3257","虹冠電","163157","11697802","72.00","72.00","71.00","71.90","1.0000","119"
"3266","昇陽","113001","1381562","12.25","12.60","12.10","12.30","0.2500","56"
"3296","勝德","317200","6348392","20.00","20.85","19.50","20.25","0.2500","178"
"3305","昇貿","1243522","49057401","39.10","40.20","38.65","40.20","1.8000","697"
"3308","聯德","66261","534287","7.97","8.33","7.96","8.17","0.2200","51"
"3311","閎暉","56201","1864932","33.50","33.60","33.00","33.45","0.4500","59"
"3312","弘憶股","1027640","19624360","19.10","19.40","18.70","19.30","0.6500","565"
"3321","同泰","236956","2864480","12.05","12.20","11.85","12.15","0.3500","140"
"3338","泰碩","347194","15732753","45.65","45.90","44.85","45.30","0.7500","263"
"3346","麗清","1004604","42284066","41.80","42.65","41.55","42.20","1.3500","664"
"3356","奇偶","461373","12442967","26.90","27.30","26.60","27.05","0.8000","265"
"3376","新日興","873315","93229753","109.00","109.00","105.50","107.00","0.0000","708"
"3380","明泰","1425145","37700385","26.50","26.95","26.10","26.50","0.6500","734"
"3383","新世紀","44000","197910","4.56","4.56","4.49","4.49","0.1400","16"
"3406","玉晶光","2312759","959100519","416.50","422.50","408.00","413.50","10.0000","2199"
"3413","京鼎","1625948","352757830","219.00","222.00","213.50","218.00","4.5000","1409"
"3416","融程電","69003","4972416","71.90","72.40","71.70","72.10","0.8000","47"
"3419","譁裕","969164","17384811","17.75","18.25","17.50","18.10","1.0000","455"
"3432","台端","87016","1113522","12.90","12.90","12.60","12.90","0.2000","40"
"3437","榮創","3720298","105768724","28.45","29.90","27.70","28.35","1.0000","1873"
"3443","創意","2386574","808263505","335.50","343.00","333.00","340.50","15.5000","2311"
"3450","聯鈞","366807","19875747","53.50","54.80","53.50","54.10","1.0000","282"
"3454","晶睿","77050","5858978","75.90","77.50","75.80","76.30","1.6000","81"
"3481","群創","535934256","11212988353","21.40","21.75","20.40","20.70","-0.1000","111142"
"3494","誠研","1515000","4836310","3.38","3.50","3.16","3.18","-0.3300","365"
"3501","維熹","94374","4552043","48.10","48.85","48.00","48.35","0.5500","96"
"3504","揚明光","623707","44143533","68.30","72.50","68.30","71.90","3.5000","501"
"3515","華擎","573061","87484514","153.50","155.50","151.00","153.00","1.5000","464"
"3518","柏騰","75129","1912388","25.50","25.95","25.00","25.35","0.3500","62"
"3528","安馳","40290","1834611","45.10","46.05","45.10","45.50","-0.1000","37"
"3530","晶相光","816918","79147816","98.00","98.50","95.20","96.60","1.6000","676"
"3532","台勝科","1173382","184609604","159.00","161.00","153.50","157.00","0.0000","1012"
"3533","嘉澤","2258769","1242636222","534.00","568.00","530.00","556.00","37.0000","2284"
"3535","晶彩科","286391","4693070","16.45","16.65","16.10","16.25","0.2500","141"
"3536","誠創","118067","945178","8.00","8.10","7.95","8.10","0.0100","34"
"3543","州巧","116002","3183210","28.20","28.20","27.05","27.50","-0.3000","67"
"3545","敦泰","34458153","5939216666","175.00","177.00","168.00","176.00","7.0000","22973"
"3550","聯穎","282002","4925884","17.25","17.60","17.25","17.55","0.3500","163"
"3557","嘉威","136822","11186229","80.70","83.80","80.70","83.00","2.6000","123"
"3563","牧德","245533","56438444","226.50","234.50","225.50","231.00","10.0000","284"
"3576","聯合再生","19480569","249637851","12.95","13.10","12.65","12.80","0.2500","4948"
"3583","辛耘","348306","20258904","57.20","58.80","57.20","58.50","2.4000","274"
"3588","通嘉","450406","28688224","63.00","64.70","62.80","63.80","1.8000","375"
"3591","艾笛森","240588","4414008","18.30","18.65","18.10","18.30","0.5000","176"
"3593","力銘","63698","903411","14.35","14.40","13.90","14.40","0.1000","33"
"3596","智易","1612277","149375432","91.40","93.50","91.40","92.90","2.0000","1230"
"3605","宏致","1141194","46204845","40.00","40.95","39.85","40.75","1.3000","640"
"3607","谷崧","285164","3790703","13.35","13.60","13.00","13.45","0.5000","170"
"3617","碩天","31011","2530398","81.80","82.30","81.20","81.50","-0.1000","32"
"3622","洋華","442754","14032379","32.00","32.25","31.30","31.75","0.9500","287"
"3645","達邁","448882","19389487","43.00","43.55","42.60","43.30","1.1500","294"
"3653","健策","1119338","298680070","269.50","274.00","262.00","264.00","-1.5000","949"
"3661","世芯-KY","5011167","2192578701","424.50","454.50","418.50","454.50","41.0000","4890"
"3665","貿聯-KY","2132395","461547933","220.00","221.00","213.00","218.00","2.5000","1729"
"3669","圓展","2338594","195932597","85.60","85.80","82.60","83.60","0.1000","1636"
"3673","TPK-KY","3370814","151537506","45.10","45.60","44.65","44.65","0.4500","1614"
"3679","新至陞","156451","20001994","128.00","129.00","126.50","129.00","3.0000","150"
"3682","亞太電","4108667","34174090","8.30","8.40","8.24","8.33","0.1200","1116"
"3686","達能","672579","10280785","15.50","15.80","15.10","15.10","0.0000","337"
"3694","海華","427278","9134097","21.30","21.70","21.20","21.45","0.6500","224"
"3701","大眾控","25240","361038","14.55","14.55","14.10","14.15","-0.4000","30"
"3702","大聯大","3678873","181440002","49.70","49.90","48.90","49.45","0.0500","1994"
"3702A","大聯大甲特","79419","3943481","49.65","49.75","49.60","49.60","-0.0500","41"
"3703","欣陸","4938041","122123105","24.05","25.40","23.80","25.20","1.6000","1971"
"3704","合勤控","4195134","118591820","28.20","29.05","27.85","28.15","0.6000","1741"
"3705","永信","277565","11923638","43.00","43.30","42.80","43.05","0.1000","180"
"3706","神達","2869520","78294917","27.25","27.55","27.10","27.30","0.3000","1259"
"3708","上緯投控","587173","67780088","117.00","118.00","114.00","115.50","0.5000","489"
"3711","日月光投控","21623172","2299356634","108.00","110.50","104.00","105.50","-1.0000","9773"
"3712","永崴投控","463437","12282579","26.30","26.85","26.05","26.65","0.8000","304"
"3714","富采","6124947","427135315","70.90","71.50","68.60","69.30","0.2000","4019"
"4104","佳醫","95113","5362789","56.60","56.70","56.20","56.40","0.2000","119"
"4106","雃博","4375171","159961180","37.25","37.90","35.50","36.80","0.0000","2788"
"4108","懷特","478372","11894313","25.00","25.20","24.70","24.85","0.0500","301"
"4119","旭富","313273","26197670","82.50","84.60","82.50","84.60","1.8000","263"
"4133","亞諾法","16866963","1227251153","74.10","75.50","69.60","71.70","-1.5000","10867"
"4137","麗豐-KY","159478","33588204","213.00","215.00","209.00","210.00","-0.5000","143"
"4141","龍燈-KY","333057","3896824","11.80","11.95","11.45","11.65","0.1500","290"
"4142","國光生","17931633","1001778528","56.80","57.50","55.10","55.60","-0.7000","10207"
"4148","全宇生技-KY","19300","671942","35.30","35.40","34.50","34.50","0.5000","23"
"4155","訊映","114400","2705893","23.70","23.80","23.55","23.60","0.1000","88"
"4164","承業醫","130629","4582555","35.00","35.50","34.80","35.00","0.2500","135"
"4190","佐登-KY","81002","6073847","74.50","75.70","74.20","75.70","1.3000","67"
"4306","炎洲","3131900","53324007","17.00","17.25","16.85","17.15","0.3000","1111"
"4414","如興","4325107","40834528","9.46","9.60","9.22","9.55","0.2600","1358"
"4426","利勤","939308","22745034","23.65","24.95","23.55","24.65","1.5000","489"
"4438","廣越","86185","10353291","118.00","122.00","118.00","121.50","4.0000","83"
"4439","冠星-KY","32030","4667410","142.00","149.00","142.00","146.00","6.0000","29"
"4526","東台","399813","6007970","14.90","15.35","14.80","15.00","0.2000","229"
"4532","瑞智","841109","16637095","19.55","20.00","19.55","20.00","0.6500","398"
"4536","拓凱","200799","32056247","155.00","163.00","154.50","161.00","7.0000","178"
"4540","全球傳動","308163","14890137","47.50","48.85","47.50","48.70","2.1000","244"
"4545","銘鈺","330150","8462343","25.70","26.50","25.00","26.00","1.1000","179"
"4551","智伸科","832515","141603022","162.00","176.50","162.00","172.50","11.5000","758"
"4552","力達-KY","134935","3963340","28.75","29.85","28.75","29.70","1.1000","106"
"4555","氣立","69033","3540474","51.40","51.70","50.50","51.30","0.4000","38"
"4557","永新-KY","6172","391311","64.00","64.00","63.10","63.60","0.1000","14"
"4560","強信-KY","192050","7820722","40.65","41.45","40.50","41.45","0.9500","70"
"4562","穎漢","74050","1436857","19.50","19.80","19.00","19.70","0.4500","66"
"4564","元翎","2370478","86972886","36.60","37.25","36.10","37.00","1.3000","935"
"4566","時碩工業","118220","5470220","47.00","47.40","45.85","46.35","0.3500","102"
"4571","鈞興-KY","109001","14206129","132.50","132.50","129.50","130.00","2.0000","71"
"4572","駐龍","8121","694236","85.10","86.00","84.50","86.00","1.5000","10"
"4576","大銀微系統","448687","53873138","118.50","123.00","117.00","122.00","7.0000","364"
"4581","光隆精密-KY","13000","479100","36.50","37.40","36.50","37.30","0.9000","11"
"4720","德淵","483558","7087096","14.60","14.80","14.40","14.75","0.3500","252"
"4722","國精化","321851","10461881","32.50","32.80","32.20","32.80","0.5500","170"
"4737","華廣","36164","2641542","73.50","74.50","72.00","72.10","-0.8000","42"
"4739","康普","676746","45136635","66.00","67.50","65.60","66.70","1.3000","458"
"4746","台耀","32028524","2545641005","80.40","81.80","76.10","81.80","7.4000","15490"
"4755","三福化","42131","2586167","61.40","61.90","61.00","61.20","0.8000","36"
"4763","材料-KY","749505","80827763","112.00","112.00","105.50","107.00","0.0000","652"
"4764","雙鍵","7000","399900","57.80","57.80","56.50","57.20","1.2000","7"
"4766","南寶","37009","5425808","146.00","148.00","145.50","147.00","2.0000","36"
"4807","日成-KY","16099","392353","24.90","24.90","24.10","24.65","-0.2500","20"
"4904","遠傳","2609934","168162232","64.50","64.90","64.10","64.60","0.4000","1199"
"4906","正文","1519827","43666205","28.80","29.00","28.50","28.75","0.3500","773"
"4912","聯德控股-KY","419656","72371832","172.00","176.00","170.00","172.00","3.5000","297"
"4915","致伸","1610511","82221228","51.10","51.90","50.70","51.00","0.5000","1023"
"4916","事欣科","119664","2599361","21.70","22.00","21.30","21.85","0.8000","89"
"4919","新唐","10208720","657050556","64.80","65.60","63.50","64.00","1.1000","5743"
"4927","泰鼎-KY","2160318","112550238","51.70","53.20","50.80","52.40","2.0000","1329"
"4930","燦星網","452311","10593148","23.55","23.75","23.00","23.45","0.6500","289"
"4934","太極","602631","13554095","22.95","23.05","22.20","22.30","0.2000","337"
"4935","茂林-KY","434945","38285640","87.10","88.60","87.10","88.50","2.7000","343"
"4938","和碩","10448251","758417794","72.90","73.20","72.10","72.50","0.4000","5126"
"4942","嘉彰","673150","27770480","41.45","41.55","40.85","41.45","0.3000","353"
"4943","康控-KY","736353","40874250","55.80","56.50","54.00","56.50","2.5000","576"
"4952","凌通","325301","15495657","47.95","48.40","47.15","47.80","0.9500","262"
"4956","光鋐","997752","21205187","21.40","21.70","20.90","21.20","0.4000","564"
"4958","臻鼎-KY","3033056","278975033","92.20","93.10","91.40","91.80","0.7000","1932"
"4960","誠美材","10566698","123509923","11.80","11.95","11.40","11.80","0.3000","2125"
"4961","天鈺","26882384","6710504999","253.00","259.00","242.00","251.00","1.0000","20156"
"4967","十銓","9089930","452773758","49.20","50.80","48.55","50.10","2.1500","5193"
"4968","立積","1871589","874704801","470.00","475.50","461.00","462.50","2.0000","1676"
"4976","佳凌","6303732","439684008","68.70","70.80","68.10","70.00","2.5000","3197"
"4977","眾達-KY","474686","42713416","89.50","91.30","89.10","90.20","3.2000","369"
"4989","榮科","1631311","60078276","37.00","37.75","36.00","37.05","1.1500","806"
"4994","傳奇","64161","4236532","65.50","67.60","65.30","65.60","0.3000","60"
"4999","鑫禾","334174","15966810","47.45","48.15","47.30","47.75","1.0500","240"
"5007","三星","175995","10583682","60.20","60.50","59.00","60.40","0.5000","94"
"5203","訊連","216874","18466671","83.10","86.00","83.10","85.30","3.0000","200"
"5215","科嘉-KY","725596","77814810","107.50","109.50","105.00","108.50","3.5000","571"
"5225","東科-KY","10000","186600","18.70","18.80","18.50","18.70","0.0000","9"
"5234","達興材料","85100","7428550","85.60","87.80","85.60","87.80","1.5000","70"
"5243","乙盛-KY","2543542","146629474","57.30","58.50","56.80","58.20","2.4000","1530"
"5258","虹堡","656844","13979888","20.60","21.70","20.60","21.50","0.9000","312"
"5269","祥碩","1086060","1395392630","1295.00","1320.00","1255.00","1280.00","35.0000","1317"
"5283","禾聯碩","105807","12307643","116.00","117.50","115.50","117.00","2.5000","143"
"5284","jpp-KY","15000","636150","42.80","43.00","42.20","42.75","0.7500","8"
"5285","界霖","212552","13492258","63.90","64.50","62.50","64.00","1.1000","199"
"5288","豐祥-KY","39000","5360500","137.50","139.50","136.50","137.50","1.5000","28"
"5388","中磊","3971652","267890548","68.20","68.20","65.30","66.20","4.2000","1967"
"5434","崇越","424859","54419996","129.00","129.00","127.50","128.00","0.5000","399"
"5469","瀚宇博","3610766","157429756","43.80","44.25","43.15","43.60","0.2000","2068"
"5471","松翰","2785769","245067590","88.60","89.80","87.20","88.10","1.1000","1802"
"5484","慧友","92829","1312434","14.10","14.25","14.00","14.10","0.2500","43"
"5515","建國","567674","7217727","12.65","12.85","12.60","12.75","0.1500","247"
"5519","隆大","2210038","48123780","21.85","22.15","21.50","21.85","0.3500","891"
"5521","工信","1756500","16384239","9.25","9.44","9.24","9.42","0.2100","529"
"5522","遠雄","532354","28825452","53.50","54.60","53.50","54.60","1.6000","417"
"5525","順天","218387","5390121","24.55","25.10","24.40","24.80","0.2500","153"
"5531","鄉林","1883614","21463937","11.30","11.70","11.05","11.45","0.2500","791"
"5533","皇鼎","49100","795260","16.00","16.45","16.00","16.10","0.3000","34"
"5534","長虹","279299","21804096","77.70","78.70","77.70","78.20","0.4000","232"
"5538","東明-KY","66000","2762650","41.75","42.50","41.30","41.95","0.4500","43"
"5546","永固-KY","103953","7888841","75.90","76.50","75.00","76.50","2.1000","80"
"5607","遠雄港","687313","20257756","29.10","29.95","29.05","29.65","0.7500","346"
"5608","四維航","50140386","1469267248","28.30","30.25","28.20","30.25","2.7500","19103"
"5706","鳳凰","483496","16961551","34.00","35.70","34.00","35.15","1.3500","318"
"5871","中租-KY","2850845","582582155","202.50","206.50","201.50","205.50","3.5000","2065"
"5871A","中租-KY甲特","257702","25642956","99.60","99.60","99.40","99.50","-0.1000","57"
"5876","上海商銀","6887102","305018851","43.50","44.60","43.45","44.35","1.0000","2900"
"5880","合庫金","8947574","185162108","20.65","20.80","20.60","20.75","0.3000","2816"
"5906","台南-KY","1002","43987","43.90","43.90","43.90","43.90","0.5000","2"
"5907","大洋-KY","207000","3927650","18.95","19.40","18.75","19.00","0.2500","102"
"6005","群益證","16702211","274382928","16.25","16.70","16.15","16.65","0.5500","4657"
"6024","群益期","561182","23643933","41.80","42.50","41.80","42.35","1.0500","393"
"6108","競國","343525","6391539","18.30","18.95","18.25","18.85","0.8000","220"
"6112","聚碩","125596","5087002","40.45","40.65","40.40","40.60","0.2500","127"
"6115","鎰勝","93516","4023029","43.00","43.35","42.80","42.95","0.3000","81"
"6116","彩晶","235832633","4598049808","19.50","20.35","18.95","19.20","0.4000","56056"
"6117","迎廣","12004","187220","15.40","15.90","15.40","15.80","-0.2000","8"
"6120","達運","2826955","36038710","12.90","13.20","12.40","12.85","0.3500","1097"
"6128","上福","36365","894906","24.45","24.75","24.45","24.65","0.1500","31"
"6133","金橋","129046","1155793","8.81","9.10","8.81","8.95","0.2400","63"
"6136","富爾特","109827","1894688","17.30","17.35","17.15","17.20","0.0500","91"
"6139","亞翔","404354","11104560","27.60","27.85","27.20","27.60","0.3000","232"
"6141","柏承","269485","7050457","26.10","26.60","25.85","26.20","0.6000","208"
"6142","友勁","819017","9708066","11.90","12.00","11.55","11.95","0.4500","357"
"6152","百一","588624","5807602","9.83","9.97","9.71","9.84","0.2400","262"
"6153","嘉聯益","4859785","138688013","28.15","29.20","27.95","29.00","1.4000","2405"
"6155","鈞寶","1440159","35834704","24.70","25.30","24.05","24.70","1.0000","848"
"6164","華興","427562","4088771","9.63","9.70","9.47","9.51","0.1600","179"
"6165","浪凡","188110","5895446","30.85","31.90","30.65","31.45","0.6000","131"
"6166","凌華","104202","6101016","58.70","58.90","58.20","58.20","0.2000","70"
"6168","宏齊","1632054","30501457","18.70","19.05","18.45","18.80","0.4500","719"
"6172","互億","116854","4036196","34.20","34.95","34.10","34.95","0.8500","41"
"6176","瑞儀","2165941","251864618","117.00","118.00","115.50","116.50","0.5000","1445"
"6177","達麗","503368","14321370","28.35","28.75","28.20","28.50","0.3500","182"
"6183","關貿","122391","5987729","49.40","49.60","48.60","49.00","-0.2000","103"
"6184","大豐電","135020","5968434","44.10","44.35","44.05","44.30","0.4500","91"
"6189","豐藝","296222","11720344","39.65","39.80","39.45","39.55","0.0500","202"
"6191","精成科","4798267","140461948","29.50","29.70","28.85","29.25","0.5000","1948"
"6192","巨路","90650","6184464","67.80","68.50","67.80","68.30","0.8000","72"
"6196","帆宣","326586","31272733","96.00","96.60","95.20","95.40","0.8000","309"
"6197","佳必琪","295969","10806987","36.50","36.80","36.25","36.40","0.1500","182"
"6201","亞弘電","40002","1816992","45.30","45.95","45.15","45.20","0.3000","30"
"6202","盛群","1140121","101752829","89.00","90.50","88.40","89.30","1.0000","843"
"6205","詮欣","166119","5118941","30.45","31.15","30.45","30.85","0.5000","94"
"6206","飛捷","145174","8878924","61.20","61.50","61.00","61.50","0.6000","90"
"6209","今國光","1084754","33821750","30.70","31.70","30.60","31.60","1.4000","623"
"6213","聯茂","911497","111222870","122.50","124.00","120.50","121.50","-0.5000","642"
"6214","精誠","386314","33264263","86.20","87.00","85.50","86.40","0.7000","316"
"6215","和椿","738176","15240572","20.45","21.10","20.20","20.85","0.9000","367"
"6216","居易","142487","3569669","24.85","25.20","24.85","25.15","0.3000","73"
"6224","聚鼎","592978","62541107","105.00","106.50","104.00","106.00","4.0000","444"
"6225","天瀚","1008","3985","3.96","3.96","3.96","3.96","0.2600","6"
"6226","光鼎","586519","5112334","8.62","8.85","8.60","8.70","0.1000","253"
"6230","尼得科超眾","110620","23415115","208.00","214.00","208.00","212.50","4.5000","111"
"6235","華孚","630036","11052350","17.55","17.80","17.35","17.60","0.4500","312"
"6239","力成","2792854","285275528","103.00","104.00","100.50","102.00","0.0000","1684"
"6243","迅杰","1061070","16900819","15.50","16.35","15.45","16.10","0.9500","569"
"6251","定穎","2784827","48959707","17.50","17.90","17.35","17.60","0.5500","1026"
"6257","矽格","1884501","90617956","48.20","48.60","47.75","47.85","0.2500","1115"
"6269","台郡","1124306","127854147","114.00","115.50","113.00","113.00","0.0000","727"
"6271","同欣電","1325721","219931875","164.50","168.00","163.50","167.50","6.5000","1240"
"6277","宏正","92109","7629335","82.50","83.90","82.50","82.80","0.3000","65"
"6278","台表科","2252267","238767437","106.50","108.00","104.50","105.50","2.5000","1484"
"6281","全國電","57267","4636353","80.90","81.30","80.50","80.80","0.7000","67"
"6282","康舒","2343672","59730967","25.40","25.75","25.30","25.50","0.3500","1034"
"6283","淳安","3210800","144798371","42.30","45.85","42.30","45.85","4.1500","1724"
"6285","啟碁","1148023","73641108","63.70","65.20","63.10","63.90","1.0000","852"
"6288","聯嘉","782154","19575207","24.80","25.40","24.50","25.10","0.7000","435"
"6289","華上","17245","55691","3.24","3.24","3.23","3.23","0.1400","10"
"6405","悅城","350000","8846700","24.80","25.60","24.80","25.40","0.9000","201"
"6409","旭隼","177761","197352405","1090.00","1135.00","1090.00","1115.00","15.0000","129"
"6412","群電","315371","21069341","66.80","67.50","66.50","66.70","0.0000","273"
"6414","樺漢","601105","114672091","191.50","194.00","189.50","190.00","1.0000","473"
"6415","矽力-KY","454684","1405283150","3050.00","3240.00","3020.00","3045.00","70.0000","578"
"6416","瑞祺電通","1446173","159247936","109.00","112.50","107.00","112.00","7.0000","1113"
"6426","統新","110310","8589656","77.50","79.00","76.70","78.20","1.6000","117"
"6431","光麗-KY","14003","425539","30.10","31.15","30.10","31.05","0.8000","13"
"6438","迅得","582419","51729272","88.50","89.80","87.80","89.10","1.8000","446"
"6442","光聖","33405","1085536","32.00","33.35","31.75","32.05","0.3500","21"
"6443","元晶","10868672","336638189","31.00","31.85","30.50","30.85","0.3500","4851"
"6449","鈺邦","175181","10267557","58.20","59.90","57.80","58.80","1.2000","146"
"6451","訊芯-KY","752757","79817826","106.50","107.50","104.50","105.50","2.0000","565"
"6456","GIS-KY","2064833","195536254","93.90","95.50","93.80","94.90","2.7000","1470"
"6464","台數科","10112","1100808","109.00","109.50","108.50","108.50","0.5000","13"
"6477","安集","6677424","282095986","43.00","43.50","41.60","41.95","-0.2500","3396"
"6491","晶碩","1265912","611490134","459.50","490.50","459.50","490.50","44.5000","1260"
"6504","南六","1424916","235395266","166.00","168.00","162.50","168.00","2.5000","1278"
"6505","台塑化","2756865","271369101","97.50","100.50","96.50","98.20","0.9000","1460"
"6515","穎崴","196203","47387050","237.50","249.00","235.00","249.00","20.5000","231"
"6525","捷敏-KY","162928","11935811","72.90","73.90","72.60","73.50","1.5000","130"
"6531","愛普","5462008","3317665579","607.00","625.00","592.00","603.00","15.0000","4974"
"6533","晶心科","2215618","842426165","390.00","395.00","372.00","376.00","1.0000","2031"
"6541","泰福-KY","569848","32823475","56.90","58.60","56.40","58.00","1.9000","383"
"6552","易華電","127143","6253843","50.00","50.00","48.60","49.50","0.9000","124"
"6558","興能高","363000","13966550","39.05","39.25","38.05","38.30","0.3000","240"
"6573","虹揚-KY","231094","3564057","15.10","15.70","15.10","15.55","0.7000","148"
"6579","研揚","6000","381800","63.50","63.70","63.50","63.70","0.5000","5"
"6581","鋼聯","31509","2157709","68.10","68.60","68.10","68.50","0.4000","36"
"6582","申豐","2162013","586626299","264.50","278.50","261.50","271.50","12.5000","1907"
"6591","動力-KY","345903","21177374","61.50","61.80","60.40","61.80","1.8000","266"
"6592","和潤企業","1239743","99633437","80.10","81.00","79.80","80.30","0.2000","628"
"6598","ABC-KY","2136638","114409485","55.50","55.50","51.80","52.20","-1.7000","1615"
"6605","帝寶","177388","9651531","55.00","55.00","53.80","55.00","1.3000","146"
"6625","必應","21248","612644","29.75","29.75","28.00","28.80","0.5500","24"
"6641","基士德-KY","8182","554748","68.70","68.70","67.30","67.60","0.6000","11"
"6655","科定","","","","","","","0.0000",""
"6666","羅麗芬-KY","11004","863912","81.00","81.00","77.70","77.90","0.5000","11"
"6668","中揚光","567001","34937917","61.50","62.40","60.30","62.10","2.3000","396"
"6669","緯穎","547329","458478485","830.00","855.00","829.00","835.00","8.0000","595"
"6670","復盛應用","654831","142428551","216.00","220.50","214.00","218.00","4.0000","519"
"6671","三能-KY","24001","1142597","47.20","48.00","47.20","47.50","0.5000","21"
"6672","騰輝電子-KY","932090","83372500","89.00","90.30","88.60","89.10","1.6000","529"
"6674","鋐寶科技","68000","1827850","26.90","27.60","26.50","26.60","0.1500","53"
"6698","旭暉應材","137239","5362836","38.90","40.30","38.50","39.80","0.9000","101"
"6706","惠特","1016441","146228504","144.50","146.00","141.50","145.00","4.0000","789"
"6715","嘉基","40002","4342713","108.50","109.50","108.00","108.00","0.0000","30"
"6743","安普新","333011","35165316","104.00","107.50","104.00","106.00","3.0000","329"
"6754","匯僑設計","87001","3874344","44.50","44.70","44.30","44.55","0.8000","66"
"6756","威鋒電子","262469","59723848","224.50","230.00","224.50","228.00","7.0000","289"
"6768","志強-KY","314102","20386170","64.50","65.40","64.40","65.30","1.3000","120"
"6776","展碁國際","143379","5575456","39.25","39.40","38.25","38.75","-0.0500","141"
"6781","AES-KY","440766","306437083","703.00","714.00","681.00","689.00","-3.0000","527"
"8011","台通","691262","10971211","15.75","16.10","15.55","15.95","0.4500","356"
"8016","矽創","6323271","1498526921","239.00","243.00","230.50","240.00","5.5000","5056"
"8021","尖點","1708021","63550434","36.60","37.70","36.55","37.55","1.5000","979"
"8028","昇陽半導體","471259","20386078","43.20","43.85","42.50","43.85","1.5000","298"
"8033","雷虎","737718","10735401","14.40","14.85","14.25","14.80","0.7500","339"
"8039","台虹","414086","18923707","46.10","46.20","45.40","45.85","0.6500","323"
"8046","南電","15128535","4675063264","300.00","316.50","297.50","315.00","23.0000","11913"
"8070","長華*","3321462","107204372","31.60","32.80","31.50","32.60","1.5000","1664"
"8072","陞泰","37647","933177","23.80","25.45","23.80","25.00","0.7500","57"
"8081","致新","2871244","586052328","202.50","209.50","200.00","201.50","4.0000","2289"
"8101","華冠","137028","381404","2.70","2.80","2.70","2.71","0.0100","42"
"8103","瀚荃","893537","32667874","36.50","36.95","36.00","36.70","0.9000","488"
"8104","錸寶","188215","8918067","47.20","47.80","46.70","47.55","1.0000","144"
"8105","凌巨","2015390","25452638","12.80","12.95","12.40","12.55","0.3500","809"
"8110","華東","2730115","37074180","13.60","13.80","13.40","13.55","0.2500","988"
"8112","至上","3510508","134074637","38.35","38.55","37.80","38.40","0.6000","1881"
"8114","振樺電","12019","844747","70.10","70.80","70.00","70.80","1.5000","13"
"8131","福懋科","314353","12033332","38.00","38.55","38.00","38.30","0.5000","221"
"8150","南茂","3216984","136605836","42.45","43.00","41.85","42.35","0.6500","1865"
"8163","達方","1124058","46549816","41.35","41.80","41.15","41.40","0.7000","680"
"8201","無敵","34285","325637","9.32","9.80","9.32","9.80","0.5000","35"
"8210","勤誠","517530","39486052","75.40","77.40","75.00","76.30","1.8000","426"
"8213","志超","1581197","73463529","46.75","47.00","46.15","46.45","-0.1000","955"
"8215","明基材","1741833","42777686","24.80","25.10","24.25","24.50","0.2000","985"
"8222","寶一","113431","1376938","12.05","12.35","11.90","12.30","0.6000","143"
"8249","菱光","357848","7686351","21.50","21.65","21.30","21.60","0.4500","199"
"8261","富鼎","3199528","185420961","57.00","59.20","56.40","59.10","3.3000","1916"
"8271","宇瞻","979930","40882984","41.65","42.30","41.30","41.85","0.8000","643"
"8341","日友","61087","12804292","213.00","213.00","208.50","209.00","-0.5000","387"
"8367","建新國際","418260","14584968","35.35","35.45","34.00","34.65","0.3500","264"
"8374","羅昇","137390","3492573","25.40","25.80","25.00","25.50","0.5000","90"
"8404","百和興業-KY","3048657","141659866","44.10","47.70","44.05","47.70","4.3000","1635"
"8411","福貞-KY","36348","512109","14.05","14.25","14.00","14.05","0.0000","50"
"8422","可寧衛","245164","41757385","170.50","171.50","169.50","170.00","0.0000","170"
"8427","基勝-KY","13200","665460","50.20","52.10","50.00","50.30","-1.1000","13"
"8429","金麗-KY","1760088","17880173","10.25","10.65","9.92","9.92","-0.0700","675"
"8442","威宏-KY","137000","5221650","38.85","39.35","37.60","38.00","-0.7000","107"
"8443","阿瘦","140930","1523152","10.60","11.00","10.60","10.85","0.2500","129"
"8454","富邦媒","766712","895990600","1215.00","1255.00","1110.00","1160.00","-55.0000","1732"
"8462","柏文","53573","7340330","138.00","138.50","136.00","138.50","2.5000","155"
"8463","潤泰材","126004","4599394","36.00","37.05","35.90","36.95","1.2000","73"
"8464","億豐","595449","238546212","392.00","405.00","392.00","397.00","6.0000","484"
"8466","美吉吉-KY","204375","10655906","52.40","53.40","51.50","53.40","-0.3000","141"
"8467","波力-KY","3000","119300","39.50","40.00","39.50","40.00","0.6500","3"
"8473","山林水","1555025","68827871","42.25","45.80","42.00","44.95","3.2500","1032"
"8478","東哥遊艇","14348","702560","49.20","49.80","48.70","49.60","1.4000","15"
"8480","泰昇-KY","10000","1084000","109.00","109.00","107.50","109.00","0.0000","10"
"8481","政伸","16119","1267851","78.20","79.00","78.20","78.80","1.5000","17"
"8482","商億-KY","108000","7808000","72.00","73.00","72.00","72.10","1.0000","26"
"8488","吉源-KY","4004","60266","15.05","15.10","15.00","15.10","0.1000","5"
"8499","鼎炫-KY","122157","15844492","128.00","131.50","128.00","131.00","4.0000","123"
"8926","台汽電","875448","34095337","39.20","39.25","38.55","38.95","0.0000","532"
"8940","新天地","10888","122989","11.15","11.40","11.15","11.40","0.2500","24"
"8996","高力","135023","5849195","43.40","43.95","42.85","43.30","1.0000","107"
"9103","美德醫療-DR","17696893","488025300","28.90","28.90","27.00","27.00","-3.0000","8921"
"910322","康師傅-DR","86000","2305450","26.70","27.00","26.60","26.60","0.4500","25"
"9105","泰金寶-DR","12042032","52497354","4.31","4.44","4.31","4.33","0.0800","2281"
"910861","神州-DR","431000","4095900","9.53","9.67","9.46","9.49","0.1400","50"
"9110","越南控-DR","118300","338725","2.77","2.95","2.77","2.84","0.0000","48"
"911608","明輝-DR","127001","477913","3.76","3.82","3.72","3.72","-0.0500","44"
"911616","杜康-DR","293764","519799","1.75","1.81","1.73","1.79","0.0100","100"
"911622","泰聚亨-DR","229000","1448730","6.63","6.63","6.20","6.47","0.0000","102"
"911868","同方友友-DR","273000","423150","1.54","1.59","1.53","1.54","0.0100","80"
"912000","晨訊科-DR","1392000","3711650","2.66","2.69","2.64","2.69","0.0600","200"
"912398","友佳-DR","58537","251053","4.39","4.39","4.16","4.27","0.0500","65"
"9136","巨騰-DR","183000","1606670","8.90","8.90","8.74","8.89","0.0200","62"
"9188","精熙-DR","86000","250080","2.97","2.97","2.90","2.90","-0.0100","44"
"9802","鈺齊-KY","460381","50797744","110.50","111.50","109.00","111.00","2.0000","316"
"9902","台火","570222","6955241","12.30","12.35","12.00","12.25","0.3000","248"
"9904","寶成","14352307","517390614","36.15","36.70","35.40","36.10","0.4000","6481"
"9905","大華","387231","9727935","25.00","25.40","24.90","25.20","0.3500","233"
"9906","欣巴巴","74125","2996781","39.90","42.00","39.90","42.00","1.1500","24"
"9907","統一實","4839537","61959176","12.70","13.05","12.60","12.90","0.4500","1382"
"9908","大台北","23254","775733","33.30","33.50","33.25","33.40","0.1500","47"
"9910","豐泰","1237542","266696246","212.00","220.00","209.00","215.00","3.0000","1071"
"9911","櫻花","133100","8562249","64.00","64.80","64.00","64.20","0.2000","163"
"9912","偉聯","61456","550464","8.88","9.00","8.74","9.00","0.2800","36"
"9914","美利達","671373","204282959","308.00","310.00","300.50","304.00","0.0000","629"
"9917","中保科","195027","17870958","91.20","92.10","91.20","91.70","0.5000","222"
"9918","欣天然","15233","591867","38.85","39.00","38.75","38.80","0.1000","36"
"9919","康那香","21755284","818705304","39.00","39.00","36.55","37.80","-1.7000","12362"
"9921","巨大","448647","144521860","327.00","328.00","317.50","318.50","-2.0000","434"
"9924","福興","117018","5126179","43.50","44.00","43.50","43.75","0.3500","108"
"9925","新保","282978","10845298","38.10","38.45","38.10","38.45","0.3500","162"
"9926","新海","1213","57777","47.65","47.65","47.65","47.65","0.1000","5"
"9927","泰銘","459547","13938622","30.35","30.60","30.10","30.35","0.4000","193"
"9928","中視","25077","140445","5.60","5.60","5.60","5.60","0.0000","7"
"9929","秋雨","34254","393845","11.35","11.60","11.35","11.60","0.2500","14"
"9930","中聯資源","81294","3723780","45.55","46.00","45.55","46.00","0.5000","69"
"9931","欣高","3045","122436","40.50","40.50","39.85","39.85","0.0000","8"
"9933","中鼎","1312451","48096324","36.90","37.00","36.40","36.65","0.0000","820"
"9934","成霖","519580","8321044","16.00","16.15","15.90","16.05","0.1000","232"
"9935","慶豐富","471219","10300599","22.10","22.15","21.50","21.85","0.4500","276"
"9937","全國","6028","285532","47.00","47.55","47.00","47.40","0.4000","14"
"9938","百和","752444","68814089","90.80","92.70","90.10","91.60","1.8000","522"
"9939","宏全","687642","48169199","70.40","70.60","69.40","70.20","0.4000","564"
"9940","信義","430341","12969711","30.20","30.45","29.95","30.30","0.2500","341"
"9941","裕融","741607","96669056","130.00","132.00","128.50","131.50","2.0000","579"
"9941A","裕融甲特","53100","2669940","50.40","50.40","50.20","50.40","-0.1000","28"
"9942","茂順","205808","17549903","84.50","86.20","84.20","85.90","2.0000","176"
"9943","好樂迪","179602","11028643","60.50","62.00","60.50","61.50","0.7000","140"
"9944","新麗","811271","17303121","21.60","21.65","21.05","21.45","0.1500","475"
"9945","潤泰新","3876029","199641869","51.50","51.80","51.10","51.70","0.7000","2169"
"9946","三發地產","159944","2319167","14.20","14.60","14.20","14.45","0.2000","102"
"9955","佳龍","481298","8763600","18.45","18.65","18.00","18.15","0.1500","255"
"9958","世紀鋼","1999245","205584531","104.00","104.50","101.50","104.00","2.5000","1399"
