證券代號,證券名稱,成交股數,成交金額,開盤價,最高價,最低價,收盤價,漲跌價差,成交筆數
"0050","元大台灣50","10326420","1368221026","132.90","134.65","132.90","134.40","2.2500","8064"
"0051","元大中型100","70253","3669041","52.40","52.50","51.90","52.05","0.5000","90"
"0052","富邦科技","1106428","134792970","120.45","122.45","120.45","122.00","2.8000","643"
"0053","元大電子","23272","1490966","63.50","64.60","63.45","64.30","1.5500","32"
"0054","元大台商50","34001","1045730","30.69","30.78","30.69","30.77","0.5600","11"
"0055","元大MSCI金融","291066","6103055","20.90","21.08","20.87","20.87","0.0500","99"
"0056","元大高股息","9957924","341288763","34.28","34.34","34.15","34.34","0.2900","5603"
"0057","富邦摩台","30000","2728900","90.00","91.40","90.00","91.25","1.6500","8"
"0061","元大寶滬深","677353","16337145","23.77","24.30","23.70","24.30","0.7000","348"
"006203","元大MSCI台灣","2018","127643","63.10","63.40","63.10","63.40","1.0500","3"
"006204","永豐臺灣加權","24019","2025855","84.10","84.40","84.05","84.40","1.2000","7"
"006205","富邦上証","1756668","68459147","38.22","39.26","38.22","39.26","1.2200","594"
"006206","元大上證50","1030922","40589601","38.30","39.62","38.30","39.62","1.3800","242"
"006207","FH滬深","293000","9239870","31.15","31.78","31.15","31.75","0.9000","83"
"006208","富邦台50","1672276","129182991","76.50","77.60","76.50","77.50","1.4500","2284"
"00625K","富邦上証+R","","","","","","","0.0000",""
"00631L","元大台灣50正2","6202935","715923071","114.05","116.65","113.95","116.45","3.9500","2366"
"00632R","元大台灣50反1","321290894","1911699560","5.98","6.00","5.92","5.92","-0.1000","16919"
"00633L","富邦上証正2","17759013","1273638635","68.55","73.20","68.55","73.20","5.2500","3738"
"00634R","富邦上証反1","2079000","7771160","3.83","3.83","3.70","3.70","-0.1500","213"
"00635U","期元大S&P黃金","862164","21701779","25.20","25.23","25.11","25.18","-0.1100","293"
"00636","國泰中國A50","3892574","109781231","27.54","28.51","27.54","28.50","1.0700","1135"
"00636K","國泰中國A50+U","200","2040","10.20","10.20","10.20","10.20","0.3700","2"
"00637L","元大滬深300正2","111136941","3132580806","27.12","28.93","27.12","28.93","2.0200","18268"
"00638R","元大滬深300反1","1638400","12347564","7.71","7.71","7.44","7.46","-0.2900","312"
"00639","富邦深100","1666994","28978901","17.11","17.48","17.05","17.47","0.4700","483"
"00640L","富邦日本正2","297000","8268400","27.94","27.94","27.81","27.85","0.1200","27"
"00641R","富邦日本反1","531150","5746056","10.83","10.85","10.80","10.83","-0.0400","70"
"00642U","期元大S&P石油","40182222","451611589","11.20","11.27","11.20","11.23","0.3400","5280"
"00643","群益深証中小","1603417","28991291","17.95","18.19","17.83","18.17","0.4600","509"
"00643K","群益深証中小+R","","","","","","","0.0000",""
"00645","富邦日本","78370","1964136","25.09","25.09","25.06","25.06","0.0400","14"
"00646","元大S&P500","294727","10563760","35.88","35.90","35.81","35.81","0.2000","185"
"00647L","元大S&P500正2","46000","2869700","62.40","62.50","62.30","62.50","1.3500","16"
"00648R","元大S&P500反1","1994000","14669550","7.36","7.37","7.35","7.35","-0.0800","182"
"00650L","FH香港正2","1483000","44879839","29.79","30.46","29.60","30.42","0.9200","182"
"00651R","FH香港反1","202000","1378900","6.85","6.85","6.81","6.81","-0.1400","27"
"00652","富邦印度","277395","7150053","25.74","25.83","25.74","25.77","0.1100","114"
"00653L","富邦印度正2","1095027","39992741","36.31","36.60","36.31","36.38","0.2000","255"
"00654R","富邦印度反1","375000","3524580","9.45","9.45","9.38","9.43","-0.0200","104"
"00655L","國泰中國A50正2","8296494","446969537","51.85","55.35","51.70","55.25","3.9500","2185"
"00656R","國泰中國A50反1","394000","2713170","7.00","7.00","6.82","6.82","-0.2800","72"
"00657","國泰日經225","100000","3492000","34.92","34.92","34.92","34.92","0.1500","2"
"00657K","國泰日經225+U","200","2506","12.53","12.53","12.53","12.53","0.0900","2"
"00660","元大歐洲50","3323","96060","28.93","28.93","28.84","28.84","0.1000","5"
"00661","元大日經225","15140","536256","35.42","35.42","35.42","35.42","0.0800","2"
"00662","富邦NASDAQ","346427","16967970","48.94","49.05","48.90","49.05","0.9000","243"
"00663L","國泰臺灣加權正2","47002","4873002","102.65","104.75","102.40","104.50","3.2500","32"
"00664R","國泰臺灣加權反1","12752000","86103650","6.79","6.80","6.72","6.72","-0.1200","1111"
"00665L","富邦恒生國企正2","464000","11213980","24.05","24.40","23.71","24.40","0.7000","86"
"00666R","富邦恒生國企反1","122000","1345670","11.04","11.04","11.01","11.01","-0.1700","5"
"00668","國泰美國道瓊","7348","254839","34.65","34.74","34.65","34.74","0.1400","10"
"00668K","國泰美國道瓊+U","200","2490","12.45","12.45","12.45","12.45","0.2000","2"
"00669R","國泰美國道瓊反1","4189001","33851048","8.08","8.10","8.07","8.08","-0.0500","393"
"00670L","富邦NASDAQ正2","737451","66319134","90.00","90.20","89.75","90.10","3.1000","228"
"00671R","富邦NASDAQ反1","3721000","22069840","5.95","5.95","5.92","5.92","-0.1200","377"
"00673R","期元大S&P原油反1","2493000","42563620","17.11","17.11","17.03","17.10","-0.5500","571"
"00674R","期元大S&P黃金反1","135000","1719870","12.72","12.77","12.72","12.74","0.0600","35"
"00675L","富邦臺灣加權正2","1324152","58908246","44.00","44.90","43.91","44.82","1.4600","670"
"00676R","富邦臺灣加權反1","15641500","57507137","3.70","3.70","3.66","3.67","-0.0500","980"
"00677U","期富邦VIX","131636152","211446409","1.61","1.62","1.60","1.60","-0.0800","2928"
"00678","群益NBI生技","430935","11643373","27.18","27.18","27.00","27.04","-0.1400","44"
"00680L","元大美債20正2","32000","711210","22.22","22.24","22.21","22.21","0.1300","13"
"00681R","元大美債20反1","240000","3437600","14.28","14.33","14.28","14.33","-0.0500","18"
"00682U","期元大美元指數","104450","1863022","17.84","17.85","17.82","17.82","-0.0700","59"
"00683L","期元大美元指正2","1255000","20504450","16.40","16.40","16.32","16.35","-0.0900","249"
"00684R","期元大美元指反1","","","","","","","0.0000",""
"00685L","群益臺灣加權正2","20000","783950","38.73","39.33","38.73","39.33","1.4200","12"
"00686R","群益臺灣加權反1","860000","3454330","4.04","4.04","3.99","3.99","-0.0800","61"
"00688L","國泰20年美債正2","63000","1400090","22.19","22.23","22.19","22.23","0.1400","6"
"00689R","國泰20年美債反1","96000","1444290","15.03","15.05","15.01","15.04","-0.0500","13"
"00690","兆豐藍籌30","217272","6975786","31.78","32.17","31.78","32.16","0.6300","31"
"00692","富邦公司治理","2065765","70868071","34.01","34.41","34.01","34.40","0.5100","1080"
"00693U","期街口S&P黃豆","1571250","36574735","23.14","23.32","23.11","23.30","0.3500","293"
"00700","富邦恒生國企","148000","2802490","18.85","19.02","18.82","19.02","0.2100","18"
"00701","國泰股利精選30","893218","21294814","23.71","23.93","23.71","23.85","0.1600","473"
"00702","國泰標普低波高息","116292","2433082","20.91","20.94","20.91","20.92","0.0700","29"
"00703","台新MSCI中國","137634","3350001","24.24","24.49","24.22","24.49","0.3300","26"
"00706L","期元大S&P日圓正2","16000","261330","16.35","16.35","16.33","16.33","0.0500","4"
"00707R","期元大S&P日圓反1","","","","","","","0.0000",""
"00708L","期元大S&P黃金正2","2507556","72605184","29.07","29.07","28.83","28.93","-0.2800","532"
"00709","富邦歐洲","118505","2836749","23.93","23.97","23.90","23.94","0.0700","13"
"00710B","FH彭博高收益債","494305","9123976","18.49","18.49","18.44","18.45","0.0300","116"
"00711B","FH彭博新興債","128530","2557840","19.95","19.95","19.88","19.90","-0.0500","26"
"00712","FH富時不動產","2112682","30385831","14.37","14.40","14.34","14.39","0.0600","940"
"00713","元大台灣高息低波","43237","1801825","41.75","41.88","41.44","41.55","0.2000","80"
"00714","群益道瓊美國地產","19295","408329","21.14","21.18","21.14","21.14","0.1900","13"
"00715L","期街口布蘭特正2","83148006","621423512","7.45","7.51","7.43","7.46","0.3200","5678"
"00717","富邦美國特別股","593960","9918554","16.72","16.74","16.69","16.73","0.0100","167"
"00728","第一金工業30","466830","12923866","27.52","27.80","27.51","27.75","0.4500","296"
"00730","富邦臺灣優質高息","389250","8125513","20.78","20.92","20.78","20.88","0.1800","182"
"00731","FH富時高息低波","261440","14939552","56.65","57.15","56.65","57.10","0.5500","22"
"00732","國泰RMB短期報酬","200000","7952000","39.76","39.76","39.76","39.76","0.0000","4"
"00733","富邦臺灣中小","812514","32908861","40.46","40.86","40.15","40.42","0.4200","324"
"00735","國泰臺韓科技","99164","3278917","32.71","33.13","32.71","32.92","0.5300","20"
"00736","國泰新興市場","179091","4151584","23.02","23.27","23.00","23.27","0.1800","17"
"00737","國泰AI+Robo","102740","3227099","31.36","31.46","31.36","31.41","0.2100","50"
"00738U","期元大道瓊白銀","1358135","38830501","28.68","28.71","28.50","28.53","-0.1500","372"
"00739","元大MSCI A股","664691","19133428","28.32","28.97","28.32","28.97","0.8100","168"
"00742","新光內需收益","62059","1366280","22.04","22.04","21.98","22.02","0.0200","11"
"00743","國泰中國A150","144478","4334947","29.71","30.14","29.71","30.14","0.7200","20"
"00752","中信中國50","880504","25205474","28.70","28.80","28.39","28.80","0.3800","478"
"00753L","中信中國50正2","711000","25734490","35.39","36.62","35.32","36.62","1.3000","256"
"00757","統一FANG+","953506","43345651","45.40","45.55","45.37","45.54","0.9400","777"
"00762","元大全球AI","160475","5998266","37.39","37.42","37.32","37.42","0.8400","92"
"00763U","期街口道瓊銅","737264","21920316","29.47","29.82","29.47","29.78","0.7600","216"
"00770","國泰北美科技","112537","3909562","34.75","34.75","34.69","34.75","0.6300","22"
"00771","元大US高息特別股","40511","768585","18.99","18.99","18.96","18.97","-0.0500","29"
"00774B","新光中國政金綠債","2073","81110","39.17","39.17","39.17","39.17","-0.0600","4"
"00774C","新光中政金綠債+R","","","","","","","0.0000",""
"00775B","新光投等債15+","2000","81220","40.61","40.61","40.61","40.61","-0.0900","2"
"00783","富邦中証500","705783","15876625","22.26","22.55","22.26","22.50","0.2800","48"
"008201","BP上證50","1200","153640","128.00","128.25","128.00","128.25","0.0000","3"
"00830","國泰費城半導體","2664577","73151940","27.49","27.50","27.41","27.50","0.6000","1032"
"00850","元大臺灣ESG永續","1918420","63921491","33.05","33.48","33.05","33.42","0.5000","976"
"00851","台新全球AI","50200","1503821","29.97","29.98","29.95","29.98","0.5700","10"
"00852L","國泰美國道瓊正2","373800","7740730","20.70","20.73","20.69","20.72","0.1700","69"
"00861","元大全球未來通訊","1453365","41135283","28.27","28.35","28.26","28.31","0.3600","668"
"00865B","國泰US短期公債","271000","9932380","36.68","36.68","36.55","36.68","0.0000","8"
"00875","國泰網路資安","449258","13801366","30.69","30.75","30.69","30.72","0.2800","185"
"00876","元大未來關鍵科技","4094941","115865735","28.13","28.42","28.12","28.32","0.5900","1647"
"00878","國泰永續高股息","7466787","135037879","18.00","18.14","18.00","18.12","0.2200","3082"
"00881","國泰台灣5G+","38286515","659399784","17.05","17.35","17.05","17.28","0.3600","11385"
"00882","中信中國高股息","2635392","42244979","16.02","16.06","16.01","16.04","0.0400","1100"
"00885","富邦越南","7798632","120868390","15.47","15.53","15.47","15.51","0.0800","2780"
"01001T","土銀富邦R1","125000","2249240","17.98","18.03","17.95","18.00","0.0000","120"
"01002T","土銀國泰R1","261160","4774272","18.30","18.35","18.12","18.20","-0.1400","224"
"01003T","兆豐新光R1","32208","613203","19.02","19.07","19.00","19.07","0.0000","18"
"01004T","土銀富邦R2","213000","3525040","16.54","16.64","16.50","16.60","0.0600","113"
"01007T","兆豐國泰R2","61000","1216930","19.62","20.23","19.62","20.23","0.0000","52"
"01009T","王道圓滿R1","27150","249282","9.20","9.20","9.18","9.19","-0.0100","9"
"01010T","京城樂富R1","24000","259880","10.89","10.89","10.77","10.84","-0.0400","20"
"020000","富邦特選蘋果N","49000","359490","7.31","7.35","7.30","7.35","0.1000","4"
"020002","元富新中國N","15000","298620","19.81","19.99","19.81","19.99","0.5200","6"
"020004","兆豐電菁英30N","","","","","","","0.0000",""
"020006","永昌中小300N","","","","","","","0.0000",""
"020007","凱基臺灣500N","","","","","","","0.0000",""
"020008","元大特股高息N","5000","59880","11.97","12.00","11.97","12.00","0.0000","3"
"020011","統一微波高息20N","10000","63140","6.30","6.33","6.30","6.31","0.0500","3"
"020012","富邦行動通訊N","33000","200540","6.08","6.10","6.07","6.07","0.0500","9"
"020015","統一MSCI美低波N","","","","","","","0.0000",""
"020016","統一MSCI美科技N","8000","144700","18.08","18.11","18.08","18.11","0.0000","3"
"020018","統一價值成長30N","41000","611630","14.92","15.07","14.72","14.73","0.0100","12"
"020019","統一特選台灣5GN","139000","1871160","13.33","13.56","13.33","13.50","0.3200","30"
"02001L","富邦蘋果正二N","35000","406130","11.51","11.62","11.50","11.62","0.0000","4"
"02001R","富邦蘋果反一N","2000","5980","3.00","3.00","2.98","2.98","-0.0300","2"
"020020","元大台股領航N","1321000","9182390","6.88","6.98","6.86","6.95","0.0800","297"
"020022","元大電動車N","8264000","47420690","5.61","5.81","5.61","5.74","0.1300","1128"
"1101","台泥","15077611","772387966","51.40","51.60","51.00","51.10","-0.2000","8958"
"1101B","台泥乙特","801","42461","","","","","0.0000","6"
"1102","亞泥","7042707","354288420","50.40","50.70","50.10","50.30","0.0000","3282"
"1103","嘉泥","1450730","31368987","21.80","21.90","21.45","21.55","-0.0500","762"
"1104","環泥","912543","20564771","22.80","22.80","22.30","22.45","-0.1000","472"
"1108","幸福","2101987","29114122","14.05","14.25","13.65","13.70","-0.3000","934"
"1109","信大","961260","24910109","26.20","26.40","25.60","25.70","-0.4500","513"
"1110","東泥","85209","1376435","16.30","16.30","16.00","16.25","0.0000","56"
"1201","味全","1889100","40522613","21.60","21.65","21.35","21.40","0.0000","958"
"1203","味王","98600","3503749","35.70","35.70","35.40","35.70","0.0000","101"
"1210","大成","1955018","110591606","56.90","56.90","56.20","56.50","0.0000","1638"
"1213","大飲","26118","217521","8.37","8.72","8.03","8.72","0.0000","23"
"1215","卜蜂","662781","51536882","77.90","78.10","77.50","77.70","-0.1000","636"
"1216","統一","9216388","675086069","73.30","73.70","73.00","73.20","-0.4000","4438"
"1217","愛之味","32127295","402248279","12.75","12.90","12.10","12.35","-0.4000","9154"
"1218","泰山","2506058","72049490","28.85","29.15","28.55","28.60","-0.2500","1508"
"1219","福壽","2309978","52955150","23.00","23.30","22.60","22.65","-0.3000","887"
"1220","台榮","1264605","20233647","16.05","16.20","15.75","15.95","0.0500","547"
"1225","福懋油","325267","14271530","44.05","44.50","42.80","43.40","-0.8500","276"
"1227","佳格","1456584","75944125","52.30","52.40","52.00","52.10","0.0000","1192"
"1229","聯華","1203834","57480629","47.90","47.95","47.60","47.70","0.1500","988"
"1231","聯華食","939850","55084133","59.00","59.20","58.10","58.60","-0.3000","970"
"1232","大統益","159436","25672620","162.00","163.00","159.50","160.00","-1.5000","379"
"1233","天仁","10750","371849","34.25","34.90","34.25","34.90","0.6000","14"
"1234","黑松","174017","5976767","34.80","35.20","34.80","35.05","0.2500","124"
"1235","興泰","6350","207626","32.60","33.20","32.45","32.45","-0.3500","9"
"1236","宏亞","236212","3817995","16.35","16.55","15.85","15.85","-0.3000","175"
"1256","鮮活果汁-KY","84865","35012433","441.00","450.00","441.00","443.00","3.0000","179"
"1301","台塑","12470874","1274282462","99.20","103.50","99.10","102.50","3.6000","6094"
"1303","南亞","11669441","977735564","81.10","84.70","81.10","84.30","2.6000","6533"
"1304","台聚","13587200","460541590","32.55","34.45","32.55","34.45","3.1000","5150"
"1305","華夏","25297226","887369170","33.35","35.50","33.10","35.50","3.2000","7403"
"1307","三芳","514337","11292415","21.60","22.30","21.60","21.75","0.2500","321"
"1308","亞聚","12741422","383034039","28.50","30.55","28.45","30.55","2.7500","4104"
"1309","台達化","19008848","785150545","39.60","42.45","39.60","41.05","2.0500","9208"
"1310","台苯","13809259","272355866","19.20","20.15","19.15","19.40","0.6500","4946"
"1312","國喬","47809468","1265353757","25.90","27.35","25.70","25.90","0.7500","13765"
"1312A","國喬特","32000","1091000","34.90","34.90","33.95","34.10","0.2500","12"
"1313","聯成","19382853","493985467","25.15","25.70","24.75","25.70","2.3000","4495"
"1314","中石化","148780185","1926450085","12.55","13.25","12.55","12.85","0.4500","28011"
"1315","達新","211025","14853099","70.30","70.90","70.10","70.40","0.1000","160"
"1316","上曜","875509","9740009","11.25","11.25","11.00","11.05","0.0000","264"
"1319","東陽","1831926","59269576","32.15","32.65","31.90","32.35","0.5500","1156"
"1321","大洋","339000","11992450","35.05","35.70","35.05","35.10","0.1000","211"
"1323","永裕","106522","3571106","33.80","33.90","33.30","33.80","0.5000","80"
"1324","地球","181147","1940518","10.60","10.85","10.60","10.70","0.3000","109"
"1325","恆大","5668450","503903064","90.50","90.80","88.20","88.30","-3.0000","4126"
"1326","台化","7619127","652235628","83.70","86.80","83.70","85.40","1.7000","4417"
"1337","再生-KY","1663203","12776029","7.55","7.80","7.53","7.65","0.1500","608"
"1338","廣華-KY","400635","24933704","61.60","62.60","61.50","61.90","0.5000","234"
"1339","昭輝","50000","1894000","37.95","38.40","37.70","37.90","0.2000","37"
"1340","勝悅-KY","271656","2866513","10.55","10.75","10.40","10.55","0.0500","239"
"1341","富林-KY","6012","474723","78.60","79.50","78.60","78.70","0.7000","17"
"1342","八貫","65000","3401500","51.90","53.00","51.70","52.50","0.9000","41"
"1402","遠東新","10131648","315305111","30.70","31.45","30.65","31.20","0.6500","3730"
"1409","新纖","49882992","1071795225","21.70","22.45","20.50","20.80","-0.5500","17239"
"1410","南染","21800","749450","34.80","34.80","34.25","34.70","0.0500","18"
"1413","宏洲","3645670","50615446","14.00","14.80","12.45","12.75","-0.8000","1775"
"1414","東和","8765415","158919618","18.50","19.20","17.10","17.60","-0.7500","3748"
"1416","廣豐","528331","5820168","11.00","11.15","10.90","10.95","0.0000","229"
"1417","嘉裕","11679709","192263719","16.65","17.40","15.50","15.95","-0.6500","4783"
"1418","東華","100","1158","","","","","0.0000","4"
"1419","新紡","32607","1289175","39.90","39.95","39.10","39.85","0.7500","32"
"1423","利華","423069","8839350","21.20","21.25","20.50","20.95","-0.0500","227"
"1432","大魯閣","213057","2977278","14.00","14.20","13.85","13.85","-0.1000","253"
"1434","福懋","2314800","72596851","30.90","31.70","30.80","31.40","0.5000","1181"
"1435","中福","95108","1811805","19.05","19.05","19.05","19.05","1.7000","71"
"1436","華友聯","21445","843926","39.75","39.75","39.10","39.75","0.0500","22"
"1437","勤益控","147500","3655980","25.00","25.00","24.65","24.80","0.0000","85"
"1438","三地開發","113055","3441431","29.50","31.80","29.30","29.65","0.5000","82"
"1439","中和","38019","920206","24.30","24.40","24.10","24.40","-0.1000","34"
"1440","南紡","183971969","5385913279","29.80","31.20","27.00","28.05","-0.3500","66432"
"1441","大東","5066525","70369740","14.35","15.00","12.75","13.50","-0.6500","2453"
"1442","名軒","163495","2771132","17.05","17.10","16.80","16.90","-0.0500","67"
"1443","立益","56030","689403","12.05","12.45","12.05","12.25","0.2500","50"
"1444","力麗","28068987","354394265","12.65","13.15","12.05","12.25","-0.1000","7846"
"1445","大宇","836007","10421784","12.90","13.10","12.10","12.20","-0.6000","330"
"1446","宏和","63881","1816769","28.30","28.75","28.15","28.65","0.4000","51"
"1447","力鵬","43952515","562121690","13.00","13.40","12.15","12.30","-0.2500","11578"
"1449","佳和","221877","3413733","15.90","15.95","15.05","15.30","-0.3000","135"
"1451","年興","10083844","229449848","23.55","24.30","20.65","21.20","-0.9500","4384"
"1452","宏益","46970414","1267604019","26.85","28.65","23.85","24.80","-1.2500","15262"
"1453","大將","643999","6136367","9.60","9.83","9.28","9.35","-0.0800","290"
"1454","台富","646321","6900732","11.00","11.20","10.10","10.40","-0.4000","353"
"1455","集盛","214146575","5670097254","28.70","28.70","23.85","24.60","-1.5000","63020"
"1456","怡華","366442","6467444","17.75","18.30","17.30","17.60","-0.1000","220"
"1457","宜進","12309452","229206807","18.80","19.45","17.80","18.45","-0.2000","4409"
"1459","聯發","10958211","169677444","16.10","16.50","14.30","14.60","-1.2500","3758"
"1460","宏遠","36957550","492094862","14.00","14.00","11.95","13.05","0.3000","12180"
"1463","強盛","928822","13310909","14.80","14.85","13.90","13.95","-0.5000","503"
"1464","得力","827826","14460072","17.70","17.85","17.20","17.35","-0.0500","649"
"1465","偉全","112530","1507829","13.30","13.60","13.15","13.15","0.0000","81"
"1466","聚隆","16545543","311009234","18.40","19.65","17.00","17.45","-0.4500","6237"
"1467","南緯","2566450","46631689","18.80","18.85","17.75","17.90","-0.4000","1090"
"1468","昶和","80000","1034200","13.10","13.15","12.80","12.95","-0.2500","48"
"1470","大統新創","61010","950506","15.55","15.80","15.55","15.65","0.1000","20"
"1471","首利","2317876","23285035","9.80","10.45","9.80","10.10","0.4300","905"
"1472","三洋紡","480001","5039460","10.50","10.55","10.30","10.55","0.3500","38"
"1473","台南","253077","4645916","18.30","18.70","18.05","18.30","0.1500","207"
"1474","弘裕","21225303","376937089","17.95","18.75","16.45","17.20","-0.0500","8770"
"1475","業旺","52233","1789623","34.00","34.90","34.00","34.30","0.3000","39"
"1476","儒鴻","2237589","1446445445","657.00","677.00","625.00","634.00","-23.0000","2248"
"1477","聚陽","4424105","1244896701","283.00","290.50","273.00","276.00","-5.0000","3870"
"1503","士電","159359","7992686","49.90","50.50","49.80","50.40","0.4000","132"
"1504","東元","1580019","50179243","31.25","32.00","31.25","31.80","0.4000","863"
"1506","正道","243866","2379228","9.76","9.90","9.47","9.82","0.1700","112"
"1507","永大","69477","4239819","60.90","61.40","60.90","61.10","0.2000","82"
"1512","瑞利","40395","181169","4.46","4.60","4.46","4.50","0.0200","20"
"1513","中興電","7248420","358425735","48.65","50.10","48.65","49.80","1.4500","3635"
"1514","亞力","1140877","26941662","23.50","23.80","23.50","23.70","0.4000","560"
"1515","力山","2039349","144139985","69.20","72.00","69.20","70.30","0.8000","1431"
"1516","川飛","87276","1646395","20.30","20.35","20.15","20.30","0.2000","24"
"1517","利奇","3337195","83010871","24.70","25.65","24.35","24.65","0.3000","1727"
"1519","華城","984227","41784398","42.65","42.90","42.05","42.20","0.1500","700"
"1521","大億","116241","5035332","44.05","44.05","43.00","43.55","0.0000","97"
"1522","堤維西","501576","10492982","20.95","21.15","20.80","20.80","0.1500","254"
"1524","耿鼎","332369","3312017","10.00","10.05","9.90","9.90","0.0000","175"
"1525","江申","71053","4498665","63.50","63.80","63.00","63.50","0.5000","62"
"1526","日馳","2044885","103026667","48.70","51.80","47.70","51.50","4.0500","1267"
"1527","鑽全","863711","40511738","46.95","47.55","46.50","46.60","-0.3000","585"
"1528","恩德","394064","3936371","9.94","10.10","9.94","9.98","0.0800","148"
"1529","樂士","211731","3574564","16.60","17.35","16.50","17.00","0.4500","104"
"1530","亞崴","54250","1892504","34.60","35.20","34.55","34.85","0.2500","36"
"1531","高林股","210563","3012070","14.10","14.45","14.10","14.40","0.4500","111"
"1532","勤美","821037","27129697","33.50","33.50","32.85","33.00","-0.0500","360"
"1533","車王電","813042","45261109","54.40","57.00","53.70","55.80","2.3000","661"
"1535","中宇","59627","2333348","39.10","39.45","38.75","39.05","-0.2000","50"
"1536","和大","1780150","167114136","91.70","96.50","91.70","92.50","1.0000","1422"
"1537","廣隆","133784","18626838","143.50","145.00","143.50","144.00","1.0000","89"
"1538","正峰","75808","939045","12.45","12.45","12.30","12.45","0.0500","31"
"1539","巨庭","229005","4066788","18.85","18.85","17.50","17.70","-1.0000","147"
"1540","喬福","79353","1256196","15.75","15.95","15.75","15.85","0.1000","64"
"1541","錩泰","88000","4128000","50.20","50.30","49.20","49.85","0.3500","38"
"1558","伸興","116799","19297697","166.00","166.50","164.00","164.50","-0.5000","145"
"1560","中砂","355352","22700433","63.50","64.20","63.40","63.70","0.7000","284"
"1568","倉佑","616656","15744482","25.35","25.85","25.05","25.70","0.6500","379"
"1582","信錦","593915","49143308","81.40","83.30","81.40","82.70","1.7000","450"
"1583","程泰","1000","63900","63.90","63.90","63.90","63.90","1.0000","1"
"1587","吉茂","303620","8272899","27.20","27.45","27.10","27.40","0.4000","205"
"1589","永冠-KY","1205824","87642059","72.70","73.80","72.10","72.20","0.3000","843"
"1590","亞德客-KY","374367","399236055","1045.00","1085.00","1035.00","1075.00","30.0000","428"
"1592","英瑞-KY","1331313","4172418","3.25","3.25","2.92","3.05","0.0700","312"
"1597","直得","758267","76402450","102.00","102.50","99.20","99.50","-1.5000","648"
"1598","岱宇","1360294","120371668","90.50","90.50","86.80","87.50","-1.5000","1029"
"1603","華電","874000","25928850","29.70","30.20","29.20","29.60","-0.0500","431"
"1604","聲寶","1479645","41633086","28.45","28.65","28.40","28.40","0.0500","786"
"1605","華新","40651823","962972106","23.70","24.10","23.30","24.00","0.6000","12768"
"1608","華榮","12222267","292284473","24.45","24.90","23.25","24.00","0.1000","4628"
"1609","大亞","23289368","598306405","26.15","26.25","25.15","25.80","0.1500","9090"
"1611","中電","987726","11008346","11.20","11.30","11.05","11.05","-0.0500","465"
"1612","宏泰","3436480","81859544","24.10","24.45","23.40","23.75","0.3000","1714"
"1614","三洋電","83852","2814841","33.40","33.80","33.40","33.45","0.0500","53"
"1615","大山","473715","17171469","37.60","37.60","35.70","36.25","0.0500","300"
"1616","億泰","1338807","11761461","9.00","9.05","8.51","8.99","0.1400","643"
"1617","榮星","511127","9139558","18.10","18.25","17.60","17.80","0.0000","246"
"1618","合機","1720277","26831487","15.45","15.80","15.40","15.50","0.2000","854"
"1626","艾美特-KY","83691","2047591","24.40","24.50","24.35","24.50","0.1500","49"
"1701","中化","1790375","41199564","23.20","23.20","22.90","22.95","-0.1000","735"
"1702","南僑","1552557","87140859","57.00","57.20","55.30","55.50","-0.1000","963"
"1707","葡萄王","217936","36003404","165.00","166.00","164.50","165.00","0.5000","290"
"1708","東鹼","1233363","32862027","26.85","27.10","26.30","26.50","-0.1000","621"
"1709","和益","2285993","40881217","17.65","18.15","17.65","17.75","0.2000","668"
"1710","東聯","4182156","88890415","21.15","21.60","21.05","21.20","0.3500","1382"
"1711","永光","3091038","55328535","17.95","18.15","17.65","17.75","0.0000","1370"
"1712","興農","751424","16238522","21.50","21.75","21.45","21.65","0.2000","393"
"1713","國化","87012","1874102","21.50","21.85","21.35","21.60","0.2000","50"
"1714","和桐","13942826","155639182","11.20","11.40","11.00","11.00","-0.1500","3573"
"1717","長興","14335141","578895627","40.95","41.25","39.80","39.95","-0.8000","7575"
"1718","中纖","30268177","305727770","10.10","10.40","9.96","9.97","-0.0800","7008"
"1720","生達","920158","35179499","38.75","38.75","38.00","38.20","-0.4000","687"
"1721","三晃","527880","5164513","9.70","9.94","9.67","9.71","0.0400","256"
"1722","台肥","1568288","87273338","55.20","56.10","55.10","55.70","0.7000","800"
"1723","中碳","259678","28101491","107.50","109.00","107.00","108.00","1.5000","245"
"1724","台硝","30716","485398","15.80","15.85","15.80","15.80","0.0000","32"
"1725","元禎","86011","1594053","18.50","18.80","18.40","18.45","0.0500","65"
"1726","永記","18105","1341838","74.70","74.70","73.70","74.20","0.5000","22"
"1727","中華化","200553","2508244","12.30","12.60","12.30","12.40","0.1500","116"
"1730","花仙子","408656","28441059","70.00","70.30","69.20","69.50","-0.5000","488"
"1731","美吾華","1586626","32341561","20.50","20.55","20.30","20.30","-0.2000","766"
"1732","毛寶","3615913","134481681","39.50","39.50","36.30","37.35","-2.3500","2396"
"1733","五鼎","223250","5337766","24.00","24.00","23.80","23.90","0.0000","136"
"1734","杏輝","2633277","81761734","31.80","31.85","30.65","31.05","-0.6000","1704"
"1735","日勝化","69906","1238758","17.50","18.00","17.10","17.65","0.0000","61"
"1736","喬山","1431811","115069776","78.00","82.40","77.00","80.00","2.2000","1149"
"1737","臺鹽","431930","13838944","32.05","32.20","31.90","31.95","-0.2500","343"
"1760","寶齡富錦","4531045","497902346","113.00","113.00","105.50","112.00","0.0000","3539"
"1762","中化生","1546741","98022321","64.00","64.60","62.70","62.90","-1.1000","1092"
"1773","勝一","164923","18611007","113.00","113.00","112.50","113.00","0.0000","159"
"1776","展宇","21000","363250","17.20","17.40","17.20","17.25","0.3000","16"
"1783","和康生","1131286","39090727","34.95","35.50","34.00","35.50","0.1500","704"
"1786","科妍","36240","1823562","50.70","50.70","50.00","50.60","0.1000","38"
"1789","神隆","1731586","44675031","25.85","26.05","25.60","25.65","-0.2000","908"
"1795","美時","5487498","502227054","91.50","93.70","88.50","93.20","1.1000","4002"
"1802","台玻","61725737","1861675735","30.00","31.00","29.50","30.45","0.9000","23643"
"1805","寶徠","194665","2689983","13.95","14.00","13.60","14.00","0.0500","92"
"1806","冠軍","3592678","40064440","11.30","11.60","10.80","11.00","-0.1500","1234"
"1808","潤隆","125561","6503988","51.70","52.00","51.10","52.00","0.7000","79"
"1809","中釉","1959804","26876398","13.90","14.15","13.45","13.50","-0.1000","842"
"1810","和成","3600181","40767381","11.40","11.80","11.05","11.30","-0.2000","1297"
"1817","凱撒衛","115030","4090215","35.70","35.70","35.30","35.45","-0.0500","67"
"1903","士紙","252577","12845322","51.20","51.70","50.40","50.40","-0.8000","199"
"1904","正隆","6277351","264684689","42.95","43.50","41.35","41.70","-0.6500","3817"
"1905","華紙","29450396","676656587","23.10","23.90","22.10","22.55","-0.3500","12414"
"1906","寶隆","616633","11587228","19.20","19.35","18.45","18.60","-0.3500","293"
"1907","永豐餘","14398419","514229361","36.10","36.85","34.60","35.85","0.3500","6428"
"1909","榮成","18367399","413615998","22.95","23.00","22.10","22.45","-0.0500","5964"
"2002","中鋼","252319196","8796372257","35.85","36.10","34.20","34.45","-1.0500","87450"
"2002A","中鋼特","18653","959568","51.40","51.70","51.30","51.70","0.0000","26"
"2006","東和鋼鐵","14622700","674534171","46.90","47.85","45.00","46.15","-0.7000","7162"
"2007","燁興","4752038","60853770","13.30","13.55","12.40","12.75","-0.4000","2103"
"2008","高興昌","537265","8798697","16.60","17.00","16.05","16.20","-0.4000","255"
"2009","第一銅","38361372","2260271827","61.10","61.70","56.60","57.20","-2.4000","20334"
"2010","春源","5943209","116506110","19.80","20.20","19.15","19.60","-0.1000","2595"
"2012","春雨","1152906","29635147","26.00","26.90","25.10","25.30","-0.8000","681"
"2013","中鋼構","1456463","59702922","41.00","41.40","40.60","41.05","0.1500","860"
"2014","中鴻","154990059","6901914206","46.00","46.80","42.80","44.00","-1.0500","61510"
"2015","豐興","998142","72549861","73.00","74.20","71.70","73.00","0.4000","689"
"2017","官田鋼","4746004","91255153","19.60","20.20","18.55","19.35","-0.1500","2362"
"2020","美亞","4881815","148644308","30.65","31.15","30.00","30.75","0.1500","2472"
"2022","聚亨","10521051","131639980","13.00","13.15","12.10","12.30","-0.5000","4314"
"2023","燁輝","41637914","850176898","20.60","21.10","19.75","20.45","0.3000","12735"
"2024","志聯","91859","1475946","16.10","16.20","16.00","16.05","-0.0500","67"
"2025","千興","1169243","4094749","3.75","3.75","3.42","3.49","-0.3100","184"
"2027","大成鋼","40853944","1633184223","40.75","41.15","39.15","39.75","-0.4500","16748"
"2028","威致","2198396","67332781","31.15","31.65","30.10","30.60","-0.3500","1304"
"2029","盛餘","2446541","75442801","31.55","31.85","30.10","30.65","-0.4500","1213"
"2030","彰源","6074021","108168595","18.20","18.40","17.50","17.75","-0.2500","2008"
"2031","新光鋼","20388025","1163837647","59.30","59.90","54.70","56.80","-2.0000","10607"
"2032","新鋼","1455642","26399139","18.45","18.80","17.75","18.05","-0.2500","747"
"2033","佳大","981208","15204618","16.05","16.20","15.05","15.50","-0.3000","563"
"2034","允強","4289884","125169531","29.40","29.75","28.85","28.90","-0.4500","2113"
"2038","海光","22726312","701294897","31.30","32.80","29.20","30.30","-1.2500","10020"
"2049","上銀","1521101","544469548","356.00","362.00","352.50","356.50","7.0000","1481"
"2059","川湖","98717","38657331","393.00","396.00","387.50","390.50","0.5000","112"
"2062","橋椿","263020","7369204","28.80","28.80","27.60","27.60","-0.7000","163"
"2069","運錩","1375480","30596012","22.60","22.85","21.95","22.30","0.0000","650"
"2101","南港","2139928","82765092","38.85","39.20","38.20","38.55","0.1500","659"
"2102","泰豐","24700840","689758956","29.45","29.90","26.40","27.00","-2.0000","8212"
"2103","台橡","21524340","631885328","29.60","30.05","28.70","29.40","0.2000","4777"
"2104","國際中橡","4991035","123012321","24.50","24.95","24.40","24.60","0.3000","1970"
"2105","正新","9288595","427186774","44.55","46.70","44.55","46.30","1.7000","4466"
"2106","建大","2528664","101300131","38.85","40.60","38.85","40.20","1.4000","1484"
"2107","厚生","1490656","35450821","23.65","24.00","23.55","23.85","0.3000","763"
"2108","南帝","7712590","975042778","127.50","129.50","123.50","126.50","0.5000","5365"
"2109","華豐","1639224","31156611","19.70","19.70","18.50","18.50","-0.2000","657"
"2114","鑫永銓","88710","10639954","118.50","121.00","118.50","119.50","1.5000","71"
"2115","六暉-KY","77726","3598706","46.50","46.55","46.05","46.30","0.0000","73"
"2201","裕隆","3827373","152689442","39.70","40.25","39.55","39.55","0.0500","1986"
"2204","中華","1916789","130224351","68.00","68.40","67.50","67.80","0.0000","1077"
"2206","三陽工業","1955621","55171438","28.25","28.40","28.00","28.10","-0.1000","1033"
"2207","和泰車","523216","291110175","535.00","578.00","535.00","560.00","25.0000","671"
"2208","台船","15369525","339835773","22.00","23.00","21.60","22.00","-0.4000","6570"
"2211","長榮鋼","947170","47437217","50.50","50.90","49.80","50.00","-0.2000","763"
"2227","裕日車","72603","19163593","264.00","264.50","263.00","263.50","0.0000","143"
"2228","劍麟","89224","6307860","71.00","71.10","70.10","70.60","0.5000","80"
"2231","為升","850563","171985024","201.00","205.50","198.00","198.50","1.0000","763"
"2233","宇隆","1552959","167617098","105.00","110.00","105.00","108.50","5.0000","990"
"2236","百達-KY","13005","312925","23.70","25.10","23.70","25.10","0.8000","10"
"2239","英利-KY","112054","10240041","91.00","92.00","90.70","91.40","0.3000","100"
"2241","艾姆勒","115112","5946880","51.90","52.20","51.20","51.20","-0.4000","105"
"2243","宏旭-KY","18000","176030","9.92","9.96","9.60","9.84","-0.0600","14"
"2247","汎德永業","102011","22510680","220.00","221.50","220.00","220.50","2.0000","145"
"2301","光寶科","5383442","340522169","62.70","63.70","62.70","63.00","-0.2000","2640"
"2302","麗正","645849","11365114","17.30","17.90","17.30","17.70","0.6000","372"
"2303","聯電","385084250","19814678848","50.20","53.00","49.90","51.90","3.2000","128888"
"2305","全友","1185883","10531816","8.87","8.98","8.74","8.93","0.3200","500"
"2308","台達電","4704636","1357905456","287.00","290.50","286.00","290.00","5.0000","4077"
"2312","金寶","15927901","213009369","13.35","13.55","13.20","13.35","0.2000","4304"
"2313","華通","13171172","483218386","35.70","37.30","35.60","36.70","1.3000","6874"
"2314","台揚","3585814","122686833","33.90","34.90","33.15","34.15","1.0500","1968"
"2316","楠梓電","656145","18778606","28.50","28.90","28.30","28.55","0.3000","348"
"2317","鴻海","51415212","5763067348","111.00","113.00","110.50","112.00","2.5000","24932"
"2321","東訊","7143","51309","7.38","7.38","7.12","7.16","-0.5000","14"
"2323","中環","9557384","96580126","10.05","10.20","10.00","10.05","0.0700","2172"
"2324","仁寶","12845283","299721432","23.40","23.45","23.15","23.35","0.0500","4562"
"2327","國巨","9080430","4327785311","472.00","483.00","468.00","479.00","15.5000","8927"
"2328","廣宇","36300333","1448033862","39.35","41.35","38.55","40.35","1.9500","17028"
"2329","華泰","14389770","243296790","16.50","17.40","16.40","16.90","0.7000","4063"
"2330","台積電","35445350","20525932956","576.00","584.00","573.00","583.00","15.0000","39032"
"2331","精英","5176883","128287865","24.80","25.20","24.55","24.75","0.2000","2306"
"2332","友訊","4343353","83997860","19.05","19.60","19.05","19.20","0.3000","1792"
"2337","旺宏","53818504","2184113611","39.70","41.50","39.50","40.35","1.3000","24021"
"2338","光罩","27615647","2235898795","79.80","83.10","77.10","83.10","7.5000","14229"
"2340","光磊","3651496","93200891","25.50","25.80","25.35","25.35","0.1500","1646"
"2342","茂矽","2807566","88671846","30.95","32.50","30.65","31.50","1.2000","1716"
"2344","華邦電","241006416","7693888142","30.55","32.85","30.20","31.90","2.0000","72359"
"2345","智邦","1668140","509037748","303.00","309.00","302.50","303.00","-4.5000","1635"
"2347","聯強","5771805","339425660","58.40","59.20","58.30","58.90","0.1000","3397"
"2348","海悅","460165","42208729","91.70","92.30","91.00","91.30","0.0000","414"
"2349","錸德","3677980","35156241","9.53","9.64","9.43","9.56","0.1500","1053"
"2351","順德","9608499","873285511","94.60","94.60","87.50","90.00","0.1000","6624"
"2352","佳世達","11454583","343168911","29.45","30.60","29.20","30.00","0.7500","5177"
"2353","宏碁","25032681","786074319","31.40","31.70","31.15","31.35","0.3000","11375"
"2354","鴻準","5888392","377986431","64.10","64.70","63.80","64.30","0.8000","3685"
"2355","敬鵬","2524585","70515437","28.10","28.40","27.50","27.80","-0.3000","1429"
"2356","英業達","8490887","218571516","25.65","25.85","25.55","25.75","0.1000","3611"
"2357","華碩","4656378","1818738650","392.00","395.00","388.50","390.50","0.5000","4388"
"2358","廷鑫","797989","11483027","14.80","14.80","14.20","14.30","0.1000","324"
"2359","所羅門","353494","5975493","16.95","17.00","16.80","16.85","0.0500","187"
"2360","致茂","747588","144063996","190.50","195.00","190.00","192.50","3.5000","571"
"2362","藍天","655246","19621229","29.85","30.15","29.75","30.10","0.2500","383"
"2363","矽統","60820398","1290007340","20.25","21.65","20.20","21.50","1.8000","17773"
"2364","倫飛","113795","373597","3.30","3.30","3.26","3.27","-0.0200","56"
"2365","昆盈","2730479","33800162","12.40","12.60","12.20","12.35","0.1000","1056"
"2367","燿華","4473179","90907709","20.00","20.65","20.00","20.20","0.4000","1804"
"2368","金像電","30015433","1614499916","53.00","55.20","52.50","53.70","1.3000","12377"
"2369","菱生","9113964","151583707","16.50","16.95","16.35","16.60","0.3500","3279"
"2371","大同","10962195","262577275","24.00","24.20","23.70","23.80","-0.0500","2868"
"2373","震旦行","19669","1802258","91.50","91.90","91.10","91.70","0.1000","31"
"2374","佳能","681349","10205446","15.10","15.10","14.85","14.85","0.0000","334"
"2375","凱美","14254573","1519862484","103.00","108.00","102.00","108.00","9.4000","8125"
"2376","技嘉","23782367","2483246153","102.50","109.00","99.60","106.00","6.9000","14503"
"2377","微星","7683942","1291944313","168.00","171.00","165.00","168.50","4.0000","4565"
"2379","瑞昱","3942617","1838861101","457.00","474.50","454.00","469.00","16.5000","3679"
"2380","虹光","1931497","23524392","11.95","12.70","11.70","12.20","0.4000","905"
"2382","廣達","11984689","1056199556","87.90","88.60","87.80","87.90","0.0000","5880"
"2383","台光電","1186672","190693766","159.00","162.00","158.50","161.00","2.5000","872"
"2385","群光","8281602","648047775","77.80","79.20","77.70","77.90","0.5000","3835"
"2387","精元","1511387","84058778","56.00","56.40","55.00","55.70","0.2000","752"
"2388","威盛","2751728","125477236","45.00","46.80","44.70","45.15","1.0500","1766"
"2390","云辰","50817962","1206343549","24.05","24.90","22.80","22.85","-1.0500","20642"
"2392","正崴","1640290","65301206","39.45","40.25","39.35","39.85","0.7500","1059"
"2393","億光","10425394","461850622","44.95","44.95","43.75","44.75","-0.2000","5252"
"2395","研華","2001730","643450697","317.50","326.00","316.00","323.00","3.0000","1295"
"2397","友通","14000","863200","62.50","62.50","61.00","61.80","1.0000","14"
"2399","映泰","14817447","372506050","25.35","26.15","24.40","25.00","1.0000","6651"
"2401","凌陽","54983176","1596237511","27.95","30.40","27.75","29.10","1.2000","23747"
"2402","毅嘉","1596402","26859480","16.50","17.05","16.50","16.75","0.4000","737"
"2404","漢唐","717136","163065283","226.50","229.50","226.00","228.00","2.0000","875"
"2405","浩鑫","2401939","29113177","12.00","12.30","11.95","12.25","0.3000","712"
"2406","國碩","7264085","138354088","19.30","19.60","18.55","18.55","-0.3000","2790"
"2408","南亞科","22335031","1755302833","77.90","79.80","77.50","78.80","2.2000","11171"
"2409","友達","447619546","10416428039","23.15","23.90","22.80","22.85","0.2500","92610"
"2412","中華電","5988587","680435601","113.00","114.00","113.00","114.00","1.0000","2379"
"2413","環科","639659","14453166","22.45","22.90","22.20","22.50","0.5000","368"
"2414","精技","464826","12917269","29.00","29.00","28.50","28.80","0.1000","231"
"2415","錩新","1114686","41879437","38.90","39.00","36.90","37.05","-0.8000","758"
"2417","圓剛","4285593","185798158","44.20","44.25","42.85","43.05","-0.8000","2739"
"2419","仲琦","470964","9795197","20.65","21.10","20.65","20.65","0.1000","266"
"2420","新巨","280105","10211172","36.25","36.70","36.25","36.40","0.2500","174"
"2421","建準","1089783","46673566","43.05","43.40","42.50","42.50","-0.1500","801"
"2423","固緯","73664","1757959","23.75","24.05","23.70","23.70","-0.1000","52"
"2424","隴華","400","9500","","","","","0.0000","1"
"2425","承啟","545129","16849370","30.85","31.45","30.60","30.75","0.2500","358"
"2426","鼎元","3412464","85795873","24.95","25.50","24.80","24.95","0.3000","1626"
"2427","三商電","431068","4876771","11.35","11.40","11.25","11.35","-0.0500","135"
"2428","興勤","413942","66713982","160.00","163.50","159.00","160.50","3.5000","391"
"2429","銘旺科","24078","391017","16.40","16.40","16.10","16.20","-0.2000","19"
"2430","燦坤","1031147","28945455","28.40","28.50","27.80","28.00","-0.3500","635"
"2431","聯昌","1368569","18779047","13.70","13.90","13.55","13.75","0.2500","554"
"2433","互盛電","73593","3676566","52.00","52.30","51.70","52.30","0.6000","39"
"2434","統懋","6699","242934","36.60","36.60","36.50","36.50","-0.3000","13"
"2436","偉詮電","35173605","2272499810","62.70","66.80","62.60","64.30","3.1000","19807"
"2438","翔耀","41669","452334","10.70","11.00","10.70","10.85","0.0000","33"
"2439","美律","1077095","114474300","104.50","107.00","104.50","106.50","2.5000","896"
"2440","太空梭","1000385","17940951","18.30","18.30","17.65","17.80","0.1000","490"
"2441","超豐","2321647","160074971","68.30","69.80","67.50","69.10","1.6000","1569"
"2442","新美齊","735670","7526009","10.35","10.35","10.05","10.15","-0.1000","236"
"2443","億麗","240001","704673","2.80","3.00","2.80","3.00","0.2000","68"
"2444","兆勁","426307","5186150","12.10","12.35","12.05","12.15","0.2500","204"
"2449","京元電子","14104919","591768709","41.35","42.60","41.05","42.05","1.4000","6909"
"2450","神腦","204842","6510479","31.70","32.40","31.60","31.80","0.1000","160"
"2451","創見","3030203","219865156","70.40","74.40","70.40","72.20","2.4000","1882"
"2453","凌群","592014","14926750","25.20","25.45","25.05","25.10","0.0000","338"
"2454","聯發科","8851143","8487332205","955.00","969.00","947.00","952.00","9.0000","9271"
"2455","全新","4287912","447454159","100.50","106.50","100.50","104.50","4.9000","2862"
"2456","奇力新","4433947","419049432","94.10","95.90","93.70","94.50","1.7000","2773"
"2457","飛宏","18390453","561027290","29.05","31.15","28.70","31.15","2.8000","6084"
"2458","義隆","4486824","932855180","209.00","210.50","205.00","205.50","0.5000","3652"
"2459","敦吉","178679","9329505","53.60","53.70","53.20","53.50","0.5000","88"
"2460","建通","2158825","68256642","31.95","32.10","31.20","31.60","0.1000","1133"
"2461","光群雷","2195114","45375069","20.70","20.95","20.35","20.55","0.1500","755"
"2462","良得電","962351","30723869","31.40","32.65","31.05","32.35","0.9500","521"
"2464","盟立","1063472","45326912","42.10","43.10","42.10","42.50","0.5000","728"
"2465","麗臺","5274492","240161741","44.75","46.95","43.20","46.95","4.2500","2590"
"2466","冠西電","112600","3566130","31.20","31.80","31.20","31.80","0.6000","42"
"2467","志聖","1190287","64105386","52.90","54.70","52.80","54.40","2.6000","886"
"2468","華經","270101","3647463","13.85","13.85","13.30","13.60","0.0000","120"
"2471","資通","147057","3858100","26.20","26.50","25.95","26.30","0.1000","112"
"2472","立隆電","1506762","94374557","61.90","63.40","61.50","62.70","1.4000","979"
"2474","可成","3294664","599745214","181.00","183.50","181.00","182.00","0.0000","2660"
"2476","鉅祥","10610305","366183685","33.50","34.90","32.85","34.90","3.1500","3826"
"2477","美隆電","998448","35613374","35.15","36.25","35.15","35.60","0.5500","629"
"2478","大毅","2622993","177695808","66.60","69.00","66.00","67.90","2.9000","1866"
"2480","敦陽科","344438","23842117","69.00","69.60","68.90","68.90","0.2000","285"
"2481","強茂","9234051","441773213","46.85","48.70","46.75","47.85","1.6000","4899"
"2482","連宇","102426","1147176","11.05","11.35","11.05","11.20","0.2000","77"
"2483","百容","124109","2416025","19.50","19.70","19.20","19.45","0.0500","46"
"2484","希華","5550782","149657899","26.15","27.45","26.00","27.20","1.3500","2197"
"2485","兆赫","5276054","100950680","18.55","19.60","18.45","18.90","0.6000","2377"
"2486","一詮","4963123","143043443","29.45","29.45","28.40","28.50","-0.0500","2363"
"2488","漢平","121815","3602387","29.60","29.70","29.30","29.70","0.5500","99"
"2489","瑞軒","21259874","355046048","16.60","17.10","16.20","16.60","0.2000","6021"
"2491","吉祥全","6767571","191007790","28.80","29.75","26.15","29.15","2.1000","3708"
"2492","華新科","8646075","1755478144","200.50","206.50","198.50","204.50","6.0000","6437"
"2493","揚博","407086","14958726","36.45","36.95","36.45","36.90","0.4500","246"
"2495","普安","10446342","212980581","19.75","21.40","19.70","19.80","0.2500","4315"
"2496","卓越","1018","59658","58.60","58.60","58.60","58.60","-0.2000","2"
"2497","怡利電","324305","9545122","29.55","30.00","29.05","29.15","-0.5000","255"
"2498","宏達電","7725918","274750990","35.70","36.25","35.20","35.50","0.2500","3973"
"2501","國建","829815","16226878","19.55","19.70","19.50","19.50","0.0500","310"
"2504","國產","9564460","235508896","24.20","25.10","23.80","25.00","0.9500","3962"
"2505","國揚","618447","18824744","30.10","30.70","30.10","30.35","0.2000","422"
"2506","太設","403826","4108451","10.15","10.20","10.10","10.15","-0.0500","149"
"2509","全坤建","381643","7334313","19.30","19.35","19.10","19.20","0.0500","351"
"2511","太子","2355366","26890859","11.45","11.60","11.30","11.30","-0.1000","702"
"2514","龍邦","444444","7530236","17.05","17.10","16.75","16.80","-0.3000","181"
"2515","中工","10814817","97567630","9.02","9.14","8.91","8.93","-0.0300","2442"
"2516","新建","346265","1930938","5.55","5.65","5.52","5.59","0.0400","170"
"2520","冠德","2862418","106626955","37.50","37.60","37.00","37.05","-0.3000","1554"
"2524","京城","77878","2719352","34.80","35.15","34.45","35.10","0.3500","40"
"2527","宏璟","358100","8194300","23.00","23.05","22.75","22.75","-0.2000","179"
"2528","皇普","144626","3157200","21.75","22.35","21.70","22.35","0.5500","47"
"2530","華建","369345","5120640","13.75","14.00","13.75","13.80","0.0500","222"
"2534","宏盛","1007034","19674085","19.50","19.70","19.40","19.40","-0.1500","488"
"2535","達欣工","1122148","37328319","33.40","33.45","33.10","33.25","0.2000","899"
"2536","宏普","168352","3582324","21.40","21.40","21.15","21.20","0.1000","111"
"2537","聯上發","574612","5220353","9.05","9.13","9.00","9.12","0.1200","242"
"2538","基泰","659664","6374087","9.70","9.71","9.61","9.66","0.0300","324"
"2539","櫻花建","149290","4696224","31.45","31.60","31.35","31.40","0.0500","75"
"2540","愛山林","277115","20853296","74.00","75.70","73.80","74.80","1.6000","60"
"2542","興富發","5473323","232672605","42.60","42.85","42.30","42.30","-0.4000","3072"
"2543","皇昌","78011","589631","7.34","7.79","7.34","7.54","0.2000","47"
"2545","皇翔","923939","36977377","40.15","40.35","39.90","40.00","-0.1500","575"
"2546","根基","72674","3459514","47.40","47.75","47.40","47.60","0.2000","83"
"2547","日勝生","2128542","23091386","10.95","11.00","10.75","10.80","-0.1500","733"
"2548","華固","316946","28943488","91.40","91.70","91.10","91.40","0.1000","291"
"2597","潤弘","306174","43429341","146.00","146.00","140.00","142.00","-2.0000","256"
"2601","益航","32509795","398389223","12.55","12.80","11.85","12.15","-0.2000","8646"
"2603","長榮","650675005","54779103540","89.50","90.50","78.00","82.40","-4.0000","271132"
"2605","新興","54538440","1438280934","27.30","28.30","24.40","26.20","-0.5500","22871"
"2606","裕民","87949936","4995324327","59.70","60.80","52.00","57.50","1.6000","42190"
"2607","榮運","46689758","1037237918","22.30","23.45","20.75","21.90","0.1500","18368"
"2608","嘉里大榮","30831115","1929592684","66.30","66.30","55.10","57.80","-2.5000","18863"
"2609","陽明","592190809","53892304561","96.90","98.20","84.00","91.00","-2.1000","245905"
"2610","華航","64736178","996017928","15.55","15.70","15.15","15.35","0.0000","14308"
"2611","志信","11720183","208443908","18.20","18.95","16.50","17.80","-0.2500","5019"
"2612","中航","12633842","578705502","47.50","49.00","42.45","44.25","-1.7000","5945"
"2613","中櫃","9681831","262823633","28.35","28.60","25.00","27.00","1.0000","5308"
"2614","東森","11439947","198506896","17.55","17.75","17.10","17.40","-0.1500","3921"
"2615","萬海","167451509","20686225321","132.50","135.50","112.50","116.50","-8.5000","78999"
"2616","山隆","249212","8704618","35.55","35.95","35.50","35.70","0.2000","222"
"2617","台航","10507213","379829594","38.55","38.55","34.20","36.00","-1.5500","5895"
"2618","長榮航","33720223","513395945","15.45","15.60","15.00","15.20","-0.0500","9206"
"2630","亞航","911984","16377437","17.90","18.50","17.20","17.55","0.3500","501"
"2633","台灣高鐵","4154681","117551590","28.15","28.50","28.10","28.30","0.2000","2054"
"2634","漢翔","1169086","32151045","27.50","27.75","27.40","27.45","0.0500","617"
"2636","台驊投控","7669280","544643244","74.00","74.30","68.00","70.50","-1.5000","4785"
"2637","慧洋-KY","79338747","5405289209","72.70","73.90","63.20","65.50","-4.5000","41029"
"2642","宅配通","34925179","1993872724","59.60","59.60","53.00","58.60","4.4000","21493"
"2701","萬企","136911","1585145","11.50","11.65","11.50","11.55","0.0500","88"
"2702","華園","203262","3732304","18.60","18.80","18.20","18.60","-0.1000","92"
"2704","國賓","35018","992147","28.60","28.60","27.85","28.20","-0.4000","39"
"2705","六福","152853","2480652","16.50","16.50","16.00","16.25","-0.2000","107"
"2706","第一店","71596","958419","13.35","13.45","13.30","13.30","0.0000","101"
"2707","晶華","447835","59555841","132.50","134.50","131.00","133.50","0.0000","446"
"2712","遠雄來","9220","298340","32.50","32.95","32.00","32.90","0.1000","11"
"2722","夏都","10400","282600","28.50","28.50","27.05","27.05","0.1500","10"
"2723","美食-KY","600442","89926118","151.00","152.50","147.00","150.50","-2.5000","544"
"2727","王品","1521761","191630602","130.00","130.00","123.00","124.00","-5.5000","1809"
"2731","雄獅","281872","22540487","80.40","81.20","78.80","79.60","-0.8000","269"
"2739","寒舍","75000","1718100","22.45","23.45","22.05","23.10","0.3000","54"
"2748","雲品","64674","2519538","38.70","39.45","38.45","39.25","0.5500","50"
"2801","彰銀","8092457","134679239","16.60","16.70","16.55","16.60","-0.1000","2428"
"2809","京城銀","2340602","93000697","40.70","40.90","40.25","40.25","-0.3500","1115"
"2812","台中銀","4545198","51545956","11.30","11.40","11.30","11.35","0.0500","1630"
"2816","旺旺保","1165675","23370860","20.10","20.15","19.95","20.10","0.0000","298"
"2820","華票","1325527","21073003","15.90","15.95","15.85","15.95","0.1500","464"
"2823","中壽","10735606","258169896","23.75","24.25","23.75","24.25","0.5000","2437"
"2832","台產","830674","17022160","20.70","20.75","20.35","20.40","-0.1500","447"
"2834","臺企銀","19391189","182272764","9.39","9.45","9.36","9.42","0.0500","4374"
"2836","高雄銀","637063","6840058","10.75","10.80","10.70","10.70","-0.0500","256"
"2836A","高雄銀甲特","22000","505750","22.95","23.00","22.80","22.80","-0.1000","15"
"2838","聯邦銀","1161251","13335864","11.45","11.55","11.40","11.45","0.0000","376"
"2838A","聯邦銀甲特","41018","2162450","52.60","52.80","52.60","52.80","0.0000","8"
"2841","台開","3574384","23553308","6.13","6.74","6.11","6.74","0.6100","1238"
"2845","遠東銀","3603626","37665992","10.40","10.50","10.35","10.50","0.1000","935"
"2849","安泰銀","89216","1294801","14.55","14.60","14.40","14.60","0.0000","58"
"2850","新產","165101","6275946","39.25","39.90","39.25","39.65","0.3500","81"
"2851","中再保","522985","13081863","24.80","25.10","24.80","25.05","0.2500","286"
"2852","第一保","367001","4787763","13.00","13.15","12.95","13.00","-0.1500","135"
"2855","統一證","3588096","98151366","27.25","27.55","27.20","27.40","0.3000","1478"
"2867","三商壽","4763710","43262775","9.08","9.13","9.05","9.05","0.0500","1123"
"2880","華南金","7848755","141511300","17.95","18.15","17.95","18.00","0.0500","2509"
"2881","富邦金","24084456","1733373440","72.00","72.60","71.70","71.90","-0.1000","9203"
"2881A","富邦特","125638","7805720","62.00","62.20","62.00","62.10","0.1000","33"
"2881B","富邦金乙特","57434","3545961","61.70","62.00","61.70","62.00","0.2000","46"
"2882","國泰金","37077601","2015132559","54.10","54.90","53.80","54.30","0.4000","11649"
"2882A","國泰特","31357","1950081","62.20","62.20","62.10","62.20","0.0000","20"
"2882B","國泰金乙特","21252","1312294","61.50","61.90","61.50","61.90","0.0000","24"
"2883","開發金","59029073","715836469","12.15","12.20","12.05","12.10","0.0500","9884"
"2884","玉山金","18807439","478030242","25.25","25.50","25.25","25.40","0.1500","6071"
"2885","元大金","17484019","439417041","25.00","25.30","25.00","25.05","0.0500","5465"
"2886","兆豐金","16347781","535300594","32.50","32.95","32.50","32.70","0.1000","5529"
"2887","台新金","18940216","277069235","14.55","14.70","14.55","14.65","0.1000","5005"
"2887E","台新戊特","23702","1251703","52.90","52.90","52.80","52.80","0.0000","17"
"2887F","台新戊特二","25321","1305182","51.60","51.70","51.60","51.70","0.0000","25"
"2888","新光金","65565464","616276820","9.35","9.44","9.34","9.44","0.1400","7835"
"2888A","新光金甲特","20305","860673","42.50","42.50","42.35","42.40","0.0500","23"
"2888B","新光金乙特","414228","16965416","41.00","41.05","40.90","40.95","-0.0500","114"
"2889","國票金","4489824","75394856","16.75","16.95","16.75","16.80","0.0500","1698"
"2890","永豐金","21960749","293269758","13.30","13.45","13.25","13.30","0.0500","4607"
"2891","中信金","66633514","1531592351","22.55","23.20","22.50","22.85","0.3500","13660"
"2891B","中信金乙特","16618","1049623","63.20","63.30","63.20","63.30","0.1000","28"
"2891C","中信金丙特","14655","893582","61.00","61.10","60.90","61.10","0.0000","20"
"2892","第一金","12455549","270024451","21.45","21.80","21.45","21.75","0.2500","3320"
"2897","王道銀行","1535276","10641178","6.91","6.96","6.90","6.91","0.0200","427"
"2897A","王道銀甲特","31255","315608","10.10","10.10","10.05","10.10","0.0000","19"
"2901","欣欣","6172","179581","29.15","29.15","29.05","29.10","-0.2000","14"
"2903","遠百","514624","11208432","21.65","21.90","21.65","21.85","0.2500","337"
"2904","匯僑","66000","1924550","29.10","29.35","29.05","29.20","0.3000","53"
"2905","三商","1259164","27515041","21.75","22.10","21.65","21.65","-0.0500","513"
"2906","高林","741507","11501576","15.50","15.70","15.30","15.60","0.2000","242"
"2908","特力","162161","4060041","25.95","26.15","25.85","26.05","0.1000","82"
"2910","統領","11001","349081","32.30","32.30","30.65","31.90","0.4000","10"
"2911","麗嬰房","330843","2536113","7.68","7.75","7.60","7.70","0.0200","228"
"2912","統一超","4175584","1087259138","263.00","264.50","261.00","264.50","0.0000","3141"
"2913","農林","6374454","119651473","18.90","19.10","18.55","18.60","-0.4500","2287"
"2915","潤泰全","2226112","184727957","83.10","83.80","82.40","82.90","0.2000","1305"
"2923","鼎固-KY","51350","1435660","27.45","28.50","27.45","28.45","0.6000","49"
"2929","淘帝-KY","515876","7322754","13.40","14.40","13.40","14.40","1.1500","212"
"2936","客思達-KY","20000","447300","21.95","22.70","21.95","22.45","0.2000","18"
"2939","凱羿-KY","23154","720980","30.15","31.95","30.10","31.65","0.0000","23"
"3002","歐格","111100","1326605","11.85","12.05","11.85","11.95","0.0500","58"
"3003","健和興","2337571","156352322","66.20","67.80","65.70","66.60","1.6000","1673"
"3004","豐達科","83380","4365566","52.10","53.40","51.40","52.30","0.2000","73"
"3005","神基","1136758","57565076","50.60","50.90","50.20","50.80","0.9000","829"
"3006","晶豪科","58286232","7271352585","120.00","128.50","119.50","128.50","11.5000","28858"
"3008","大立光","353934","1047712235","2965.00","2985.00","2940.00","2940.00","5.0000","1606"
"3010","華立","731236","56331745","76.40","77.70","76.30","77.10","1.1000","572"
"3011","今皓","355316","2770264","7.75","8.00","7.52","7.85","0.2500","160"
"3013","晟銘電","294891","3877483","12.90","13.30","12.90","13.15","0.2500","179"
"3014","聯陽","12917880","1531264488","117.00","122.50","115.50","116.00","1.0000","8243"
"3015","全漢","984193","42172534","42.30","43.20","42.30","42.70","0.4500","631"
"3016","嘉晶","7654886","510441766","64.40","69.00","63.30","66.30","3.5000","4838"
"3017","奇鋐","11831126","805003626","67.10","69.20","66.50","68.00","1.3000","6615"
"3018","同開","41218","668939","16.00","16.45","16.00","16.20","0.0000","107"
"3019","亞光","3595266","282518744","78.60","79.80","77.60","78.20","0.8000","2347"
"3021","鴻名","330221","6920029","21.85","21.85","20.70","20.75","-0.2000","219"
"3022","威強電","380324","19053243","49.90","50.70","49.85","49.85","0.7500","286"
"3023","信邦","838269","218034356","253.00","263.00","252.00","260.00","8.5000","909"
"3024","憶聲","2322198","31197485","13.75","13.75","13.25","13.35","0.2000","881"
"3025","星通","972846","25503133","26.45","26.90","25.75","25.90","-0.2000","587"
"3026","禾伸堂","3188699","416072939","129.00","132.00","128.50","130.50","3.0000","2383"
"3027","盛達","1645187","37730044","22.95","23.30","22.70","22.80","0.2000","827"
"3028","增你強","815377","22945794","28.30","28.30","28.05","28.10","0.0500","474"
"3029","零壹","996146","45716826","45.80","46.25","45.60","45.65","0.1500","704"
"3030","德律","592308","33701005","56.80","57.30","56.40","56.70","0.3000","434"
"3031","佰鴻","841539","14862087","17.75","17.95","17.40","17.65","0.3000","365"
"3032","偉訓","325190","13502766","41.40","42.00","41.10","41.25","0.0000","263"
"3033","威健","4097545","93367487","22.60","23.00","22.55","22.85","0.3500","1664"
"3034","聯詠","14959723","7465984706","500.00","507.00","491.00","491.00","3.5000","13463"
"3035","智原","23879945","1576407089","62.80","67.50","62.50","67.50","6.1000","12377"
"3036","文曄","2589521","135877780","51.80","53.20","51.80","52.30","1.0000","1717"
"3036A","文曄甲特","78310","3685791","47.10","47.20","47.00","47.05","-0.0500","46"
"3037","欣興","45726511","4861326629","105.00","109.00","103.00","105.50","2.0000","23764"
"3038","全台","1380302","27065446","19.75","19.85","19.35","19.55","0.3500","639"
"3040","遠見","187696","8974599","48.00","48.10","47.60","47.80","0.0000","154"
"3041","揚智","3346791","85846391","25.20","26.30","25.00","25.40","0.5500","1644"
"3042","晶技","14090043","1387747289","95.70","101.50","94.50","99.30","5.2000","8545"
"3043","科風","209879","832845","3.91","4.00","3.91","3.95","0.0400","75"
"3044","健鼎","1066114","137066121","128.50","129.00","127.50","128.50","0.0000","780"
"3045","台灣大","2372136","237449644","99.70","100.50","99.50","100.00","0.0000","1366"
"3046","建碁","251724","5673047","23.35","23.35","21.90","22.80","0.2000","155"
"3047","訊舟","1433717","15983366","11.25","11.30","11.05","11.10","0.1000","531"
"3048","益登","2764797","95547072","34.30","34.95","34.25","34.40","0.3500","1500"
"3049","和鑫","9875035","120561036","12.05","12.50","12.05","12.10","0.2000","2326"
"3050","鈺德","689364","10744546","15.55","15.80","15.45","15.45","0.1500","330"
"3051","力特","660031","5305885","8.15","8.20","7.90","7.98","-0.0300","200"
"3052","夆典","670419","7964344","11.85","11.95","11.85","11.90","0.1500","231"
"3054","立萬利","20673","447519","22.00","22.00","21.55","21.70","0.1500","16"
"3055","蔚華科","257495","7380961","27.85","29.25","27.55","28.80","1.5000","417"
"3056","總太","404443","15925512","39.60","39.65","39.10","39.35","0.0500","265"
"3057","喬鼎","1538651","25093203","15.75","16.90","15.70","16.05","0.3000","786"
"3058","立德","5541474","87580241","15.50","16.35","15.20","15.45","0.1500","2264"
"3059","華晶科","6209089","209129796","33.30","34.40","33.10","33.45","0.7500","3403"
"3060","銘異","18682532","477887089","24.55","26.40","24.15","26.40","2.4000","7364"
"3062","建漢","1981811","33946842","16.80","17.45","16.80","17.00","0.3500","911"
"3090","日電貿","1653841","87414873","52.50","53.40","52.10","52.50","0.8000","1174"
"3092","鴻碩","1497137","96629864","63.60","65.80","63.50","64.50","1.1000","987"
"3094","聯傑","5458968","185925363","33.45","34.85","32.95","33.30","1.0000","3031"
"3130","一零四","2144","356759","166.00","166.00","166.00","166.00","0.0000","11"
"3138","耀登","2694563","508657798","181.00","194.50","180.00","194.50","17.5000","2682"
"3149","正達","6707853","230015770","32.80","35.20","32.05","35.20","3.2000","3274"
"3164","景岳","251844","6148339","24.85","24.85","24.30","24.50","0.0000","158"
"3167","大量","159104","10122666","64.00","64.40","63.20","63.70","0.7000","112"
"3189","景碩","15041638","1536567630","97.50","105.50","96.40","104.50","8.5000","9444"
"3209","全科","834073","23608049","28.15","28.50","28.10","28.25","0.2500","467"
"3229","晟鈦","48001","293046","6.21","6.21","6.00","6.05","-0.1600","18"
"3231","緯創","12209105","361407285","29.35","29.80","29.35","29.55","0.2500","5150"
"3257","虹冠電","429666","31921577","73.00","75.20","72.80","74.10","2.0000","329"
"3266","昇陽","52000","650150","12.25","12.65","12.25","12.65","0.2500","33"
"3296","勝德","188000","3823150","20.25","20.90","20.10","20.35","-0.2500","104"
"3305","昇貿","1462402","61235141","41.55","42.60","41.25","41.55","0.0500","862"
"3308","聯德","88176","745083","8.47","8.73","8.22","8.41","-0.0500","60"
"3311","閎暉","155664","5322788","33.95","34.55","33.85","34.55","0.8500","129"
"3312","弘憶股","1120518","22005396","19.55","19.85","19.40","19.65","0.4000","541"
"3321","同泰","609440","7692013","12.50","12.80","12.45","12.70","0.3000","249"
"3338","泰碩","633272","29244695","46.20","46.70","45.70","46.60","0.8000","492"
"3346","麗清","1296746","56477583","43.30","44.30","42.90","43.30","0.4500","842"
"3356","奇偶","545893","15252711","28.05","28.35","27.55","27.65","0.1500","362"
"3376","新日興","731856","78233708","107.50","107.50","106.50","106.50","0.5000","593"
"3380","明泰","1971670","54055440","27.25","27.80","27.15","27.25","0.5000","1195"
"3383","新世紀","33115","165563","5.09","5.09","4.75","4.75","0.0000","26"
"3406","玉晶光","4696032","2149754524","449.00","467.50","448.00","455.00","12.5000","4563"
"3413","京鼎","3271555","747089191","227.50","232.00","222.00","227.50","8.0000","2465"
"3416","融程電","104183","7602357","74.20","74.20","72.40","72.50","0.6000","29"
"3419","譁裕","1138684","21504339","18.95","19.20","18.55","18.70","0.0000","480"
"3432","台端","188010","2442981","12.90","13.10","12.85","13.05","0.2000","69"
"3437","榮創","3600873","106224702","29.55","29.95","29.00","29.35","0.5000","1419"
"3443","創意","3415128","1192661619","355.50","359.00","345.00","347.50","-4.5000","3354"
"3450","聯鈞","667168","37493766","55.80","56.90","55.70","56.00","0.7000","485"
"3454","晶睿","66125","5083799","78.30","78.30","76.20","76.40","-0.1000","69"
"3481","群創","682947575","15401764856","22.30","23.20","22.00","22.25","0.4500","137366"
"3494","誠研","543780","1872944","3.33","3.64","3.33","3.50","0.1700","176"
"3501","維熹","132085","6480000","48.80","49.25","48.80","49.00","0.1500","128"
"3504","揚明光","2120522","157587334","77.50","78.20","73.00","73.20","-2.8000","1569"
"3515","華擎","992926","157710400","157.00","161.00","156.00","159.00","4.0000","822"
"3518","柏騰","211031","5448064","25.85","26.35","25.50","25.85","0.3500","152"
"3528","安馳","44000","2020900","46.30","46.30","45.80","46.05","0.2000","37"
"3530","晶相光","2524585","260040489","101.00","106.00","99.10","103.50","3.7000","1714"
"3532","台勝科","5284181","898608801","158.50","171.50","157.00","171.50","15.5000","2113"
"3533","嘉澤","1164905","658044116","559.00","574.00","558.00","559.00","5.0000","1275"
"3535","晶彩科","311094","5188653","16.50","16.90","16.50","16.60","0.2500","157"
"3536","誠創","39528","314965","7.99","8.10","7.75","7.93","-0.0700","27"
"3543","州巧","201190","5198180","27.30","27.45","27.05","27.05","0.0500","68"
"3545","敦泰","94226679","18948059935","194.00","208.00","193.50","199.50","9.5000","62353"
"3550","聯穎","446569","8057028","18.10","18.20","17.90","18.10","0.1000","242"
"3557","嘉威","148729","12464041","83.30","84.80","83.30","83.30","0.1000","123"
"3563","牧德","182953","43048513","233.50","237.50","233.50","233.50","1.5000","231"
"3576","聯合再生","36056066","486681176","13.45","13.80","13.25","13.30","0.1000","9727"
"3583","辛耘","464452","27886755","59.40","60.50","59.20","60.50","1.8000","320"
"3588","通嘉","1629919","112218139","67.60","70.70","66.90","68.00","2.0000","1164"
"3591","艾笛森","290332","5629130","19.05","19.80","19.05","19.25","0.4000","208"
"3593","力銘","53687","771407","14.80","14.80","14.25","14.45","0.0000","55"
"3596","智易","1911257","179042922","93.70","94.50","93.00","93.10","-0.1000","1243"
"3605","宏致","1515087","64963225","43.00","43.40","42.40","42.45","0.4000","824"
"3607","谷崧","2672580","39828328","14.10","15.10","14.05","15.00","1.2500","1258"
"3617","碩天","43000","3538400","82.30","82.70","81.30","82.10","0.0000","35"
"3622","洋華","757592","24724036","32.20","33.20","31.90","32.40","0.7000","509"
"3645","達邁","520953","23211766","43.90","45.10","43.75","44.45","1.0500","401"
"3653","健策","3300032","931167854","274.00","288.00","272.50","285.00","12.5000","2722"
"3661","世芯-KY","8658438","4359266864","487.50","519.00","487.00","509.00","29.0000","8713"
"3665","貿聯-KY","3618469","847698146","233.00","240.50","230.50","232.00","-3.0000","2673"
"3669","圓展","2179935","182674860","85.50","85.70","83.00","83.80","-1.0000","1528"
"3673","TPK-KY","4501432","204897524","45.80","45.85","45.20","45.35","0.0000","2435"
"3679","新至陞","352097","46347760","130.00","134.50","129.50","131.00","1.5000","279"
"3682","亞太電","18338831","157078958","8.39","8.73","8.35","8.62","0.3000","2859"
"3686","達能","1119027","17783342","15.60","16.30","15.50","15.90","0.5000","601"
"3694","海華","579271","13101613","22.50","23.00","22.30","22.50","0.2000","384"
"3701","大眾控","5937","85391","14.20","14.55","14.20","14.45","0.0000","14"
"3702","大聯大","4239570","211005853","49.45","50.00","49.30","50.00","0.7000","2376"
"3702A","大聯大甲特","85095","4216752","49.60","49.60","49.50","49.55","0.0000","51"
"3703","欣陸","2747024","68602964","25.10","25.50","24.70","24.85","-0.1000","1221"
"3704","合勤控","3654539","108384594","29.70","30.20","29.10","29.50","0.4000","2134"
"3705","永信","350465","15052776","43.05","43.05","42.85","42.95","0.0000","245"
"3706","神達","4650577","131156292","28.10","28.35","28.00","28.25","0.3500","1886"
"3708","上緯投控","1285960","149644297","117.50","119.50","113.50","115.00","-1.5000","845"
"3711","日月光投控","17820029","1927895274","108.00","109.00","107.00","108.50","2.0000","7393"
"3712","永崴投控","519296","14361041","27.95","28.00","27.25","27.70","0.1500","335"
"3714","富采","5582179","396657702","71.00","71.60","70.50","70.80","-0.1000","3184"
"4104","佳醫","168361","9579806","56.90","57.10","56.70","56.80","0.0000","191"
"4106","雃博","4030710","147338224","37.55","38.00","35.70","36.05","-1.2000","2521"
"4108","懷特","1418989","36224662","25.70","25.95","25.20","25.30","0.1500","742"
"4119","旭富","286621","24399829","84.20","85.90","84.20","84.50","0.0000","283"
"4133","亞諾法","10455523","753452024","75.50","75.50","70.00","70.10","-5.4000","7362"
"4137","麗豐-KY","176442","37291784","210.00","212.50","209.50","211.50","2.0000","171"
"4141","龍燈-KY","281251","3288634","11.85","11.85","11.60","11.60","-0.0500","237"
"4142","國光生","17279885","931101175","55.50","55.50","52.90","53.20","-2.3000","10178"
"4148","全宇生技-KY","8000","277300","34.65","34.70","34.65","34.65","0.1500","6"
"4155","訊映","278815","6735957","24.30","24.55","23.65","23.65","-0.3500","179"
"4164","承業醫","246176","8741455","35.50","35.90","35.35","35.40","0.1000","202"
"4190","佐登-KY","125405","9647690","76.10","77.70","76.10","76.80","0.0000","93"
"4306","炎洲","5432137","96155631","17.40","18.00","17.40","17.55","0.2500","1999"
"4414","如興","6193888","60700906","9.87","10.10","9.60","9.61","-0.0700","1926"
"4426","利勤","579879","14196362","24.75","25.25","24.05","24.10","-0.5000","347"
"4438","廣越","94174","11422632","121.00","123.50","120.00","121.50","0.5000","90"
"4439","冠星-KY","27000","3983500","149.50","149.50","146.00","146.00","-2.5000","27"
"4526","東台","591528","9116941","15.50","15.70","15.15","15.60","0.2000","407"
"4532","瑞智","1096938","22110105","20.15","20.40","19.80","20.00","-0.1000","457"
"4536","拓凱","153011","24803801","164.00","164.50","159.50","161.00","-0.5000","149"
"4540","全球傳動","493070","25270677","50.80","51.80","50.80","51.00","1.0000","352"
"4545","銘鈺","187001","4980226","26.20","27.50","26.10","26.45","0.6000","130"
"4551","智伸科","240396","41617095","174.50","175.00","171.50","171.50","-1.0000","261"
"4552","力達-KY","73800","2193358","29.70","30.00","29.55","29.95","0.4500","64"
"4555","氣立","53003","2716853","51.30","51.70","50.60","51.20","-0.1000","37"
"4557","永新-KY","9577","606043","64.00","64.00","63.00","63.80","0.3000","18"
"4560","強信-KY","160000","6647250","41.65","41.70","41.40","41.45","-0.3000","46"
"4562","穎漢","79067","1559313","19.85","20.50","19.10","20.50","0.8000","50"
"4564","元翎","4283519","163150303","37.90","39.50","37.10","39.45","2.0500","1693"
"4566","時碩工業","306000","14404550","47.20","47.90","46.60","46.90","0.4000","246"
"4571","鈞興-KY","95300","12635000","132.50","134.00","132.00","134.00","3.0000","75"
"4572","駐龍","84185","7870704","94.70","94.70","93.00","93.10","0.7000","67"
"4576","大銀微系統","521526","66029326","127.00","130.00","124.00","124.00","-1.0000","454"
"4581","光隆精密-KY","4000","147200","37.70","37.70","36.45","36.60","-1.0000","4"
"4720","德淵","435195","6510899","15.20","15.20","14.80","14.80","-0.1000","206"
"4722","國精化","244000","8092237","32.80","33.30","32.80","33.20","0.4500","180"
"4737","華廣","25288","1823786","71.80","72.60","71.50","71.50","-0.3000","30"
"4739","康普","1346728","96771115","72.30","73.60","70.20","70.60","0.6000","911"
"4746","台耀","47900774","4314947021","94.30","96.50","81.40","84.50","-5.4000","28523"
"4755","三福化","45312","2788749","61.50","62.00","61.20","61.80","0.3000","32"
"4763","材料-KY","164523","17437969","107.00","107.50","105.00","105.00","-1.0000","166"
"4764","雙鍵","9000","524400","59.50","59.50","57.60","58.90","1.9000","9"
"4766","南寶","18037","2684513","148.50","149.50","148.50","148.50","1.5000","18"
"4807","日成-KY","33103","788637","24.00","24.20","23.50","23.55","-0.5000","24"
"4904","遠傳","2165821","139208308","64.10","64.50","64.10","64.50","0.3000","1342"
"4906","正文","4163203","121659199","29.35","29.45","28.95","29.00","0.0000","1790"
"4912","聯德控股-KY","632755","113838422","179.00","184.00","176.00","178.00","2.0000","493"
"4915","致伸","2812214","147235598","51.60","52.90","51.20","52.80","1.4000","1814"
"4916","事欣科","142258","3129984","21.70","22.25","21.70","22.20","0.4000","96"
"4919","新唐","35462566","2468050348","68.00","71.30","67.50","68.20","1.4000","20834"
"4927","泰鼎-KY","1973727","108140803","53.60","55.80","53.60","55.20","1.5000","1321"
"4930","燦星網","439213","10580325","24.15","24.40","23.85","24.05","-0.0500","258"
"4934","太極","1264106","30020495","23.30","24.15","23.30","23.55","0.6000","607"
"4935","茂林-KY","645473","59029660","90.80","93.30","90.20","91.30","1.9000","534"
"4938","和碩","11686005","850529400","72.90","73.20","72.40","72.90","0.2000","5981"
"4942","嘉彰","764847","32227568","41.80","42.50","41.60","42.30","0.8000","392"
"4943","康控-KY","676655","39467080","57.20","59.10","56.90","58.40","1.8000","539"
"4952","凌通","750467","37831986","49.95","51.30","49.50","50.30","1.7000","566"
"4956","光鋐","1020575","22606672","22.10","22.50","21.90","22.05","0.5500","570"
"4958","臻鼎-KY","4337265","409192352","93.30","94.80","93.30","94.70","1.0000","2820"
"4960","誠美材","26000127","320591416","12.25","12.55","12.05","12.40","0.3500","5582"
"4961","天鈺","21442257","6393190978","287.00","303.50","286.00","303.50","27.5000","12405"
"4967","十銓","13135243","735939824","53.70","57.50","53.50","56.60","3.8000","7431"
"4968","立積","2278794","1130070690","481.00","505.00","481.00","498.50","20.0000","2401"
"4976","佳凌","12137781","905268043","70.90","77.70","70.90","73.70","3.0000","6973"
"4977","眾達-KY","301246","27757277","92.30","93.30","91.20","92.20","0.8000","273"
"4989","榮科","2195360","84838874","38.50","39.70","37.35","38.15","0.6000","1254"
"4994","傳奇","64213","4177859","65.30","65.30","64.60","65.10","0.1000","64"
"4999","鑫禾","280473","13664790","48.40","49.00","48.40","48.70","0.5500","217"
"5007","三星","55827","3383732","60.90","61.40","60.30","60.40","-0.4000","47"
"5203","訊連","300962","24757247","83.30","83.40","81.60","81.70","-0.9000","259"
"5215","科嘉-KY","469143","52293213","110.00","113.50","109.00","112.00","3.5000","350"
"5225","東科-KY","31003","577304","18.50","18.90","18.40","18.65","-0.0500","25"
"5234","達興材料","84383","7382516","86.50","87.90","86.50","87.80","0.5000","74"
"5243","乙盛-KY","4961307","305206976","61.60","62.80","60.60","60.80","1.1000","3277"
"5258","虹堡","636811","13740808","22.00","22.60","21.20","21.40","-0.5500","300"
"5269","祥碩","1308935","1765360110","1310.00","1400.00","1290.00","1355.00","15.0000","1734"
"5283","禾聯碩","204632","24903256","120.50","124.00","120.00","120.50","1.0000","185"
"5284","jpp-KY","60753","2613602","42.45","43.45","42.45","43.25","0.9500","39"
"5285","界霖","1376352","95663284","72.80","72.80","67.40","68.50","2.3000","881"
"5288","豐祥-KY","141050","19895050","136.00","143.50","136.00","141.50","5.5000","99"
"5388","中磊","886731","57303116","64.50","65.00","64.20","64.80","0.5000","636"
"5434","崇越","682996","87358244","129.50","131.00","128.00","130.00","1.5000","513"
"5469","瀚宇博","4570448","201963471","43.75","44.60","43.70","44.10","0.6000","2291"
"5471","松翰","5130661","474196656","91.20","94.00","91.00","92.20","2.1000","3739"
"5484","慧友","81649","1143530","14.15","14.20","13.95","14.10","0.1500","40"
"5515","建國","293783","3831755","13.00","13.10","13.00","13.10","0.1000","208"
"5519","隆大","1288632","28291798","22.10","22.25","21.80","21.85","-0.1500","679"
"5521","工信","1972453","18756173","9.53","9.59","9.41","9.41","-0.0200","732"
"5522","遠雄","596036","32707657","54.80","55.10","54.60","55.00","0.2000","365"
"5525","順天","91000","2258150","24.90","25.00","24.70","24.70","-0.1000","65"
"5531","鄉林","2605326","30747147","11.70","12.15","11.55","11.55","-0.0500","1056"
"5533","皇鼎","81897","1320825","16.15","16.25","16.00","16.15","0.0000","36"
"5534","長虹","220336","17250142","78.20","78.50","78.10","78.20","0.0000","235"
"5538","東明-KY","82000","3482200","43.40","43.40","42.00","42.75","-0.1000","57"
"5546","永固-KY","164100","12398030","76.30","76.40","75.00","76.00","-0.3000","83"
"5607","遠雄港","4007252","127661389","30.80","32.60","30.70","32.60","2.9500","1782"
"5608","四維航","85023128","2868107906","35.20","36.40","30.20","33.00","-0.2500","37119"
"5706","鳳凰","197673","7030170","35.10","36.20","35.05","35.20","-0.4000","149"
"5871","中租-KY","2695646","552871233","205.50","207.00","204.00","204.00","-5.0000","1762"
"5871A","中租-KY甲特","479061","47091815","99.20","99.30","99.10","99.10","-0.1000","127"
"5876","上海商銀","8406208","378603610","44.45","45.40","44.35","45.20","0.8000","3087"
"5880","合庫金","10316035","213313817","20.65","20.75","20.55","20.70","0.0500","3146"
"5906","台南-KY","7692","330409","43.50","44.45","42.65","43.20","0.3000","14"
"5907","大洋-KY","239001","4544219","19.00","19.10","18.90","19.10","0.1000","150"
"6005","群益證","7969956","133857140","16.75","16.90","16.70","16.80","0.1500","2422"
"6024","群益期","365294","15778161","43.35","43.50","43.00","43.10","-0.1000","315"
"6108","競國","216365","4112337","19.00","19.30","18.85","18.85","0.1000","132"
"6112","聚碩","142988","5865529","40.95","41.15","40.90","41.00","0.3500","118"
"6115","鎰勝","262587","10704916","43.20","44.35","43.20","43.30","0.1500","96"
"6116","彩晶","318698876","6623412348","20.15","21.65","20.00","20.80","1.1000","74139"
"6117","迎廣","10394","171799","16.15","16.90","16.15","16.55","0.3500","14"
"6120","達運","2387764","32248851","13.25","13.80","13.25","13.40","0.2000","1020"
"6128","上福","48121","1196437","24.90","25.00","24.75","24.95","0.2000","38"
"6133","金橋","101100","933344","9.11","9.30","9.11","9.26","0.0200","61"
"6136","富爾特","175220","3032002","17.25","17.40","17.20","17.20","-0.0500","114"
"6139","亞翔","495289","14041594","28.10","28.60","28.10","28.20","0.1500","298"
"6141","柏承","603712","16591241","27.20","28.00","26.85","27.65","0.9500","387"
"6142","友勁","1132965","13638634","12.20","12.25","11.85","11.90","-0.2500","499"
"6152","百一","528699","5385505","10.20","10.40","10.10","10.15","0.0500","259"
"6153","嘉聯益","4796784","140385147","29.30","29.65","28.90","29.10","0.1000","2335"
"6155","鈞寶","476050","12177787","25.15","26.00","25.15","25.40","0.3500","272"
"6164","華興","666314","6540199","10.00","10.00","9.71","9.71","-0.0500","270"
"6165","浪凡","328764","10912061","33.00","34.00","32.70","33.10","0.5000","242"
"6166","凌華","163204","9563579","58.40","58.90","58.30","58.50","0.5000","107"
"6168","宏齊","2170942","43150565","19.70","20.15","19.60","19.85","0.4500","836"
"6172","互億","117998","4162553","35.80","37.35","34.80","37.15","2.2500","56"
"6176","瑞儀","2230212","262287553","117.00","119.00","116.50","117.50","1.5000","1323"
"6177","達麗","509131","15017220","28.80","29.95","28.80","29.55","0.7500","236"
"6183","關貿","111619","5490429","49.25","49.95","48.55","49.30","0.0500","86"
"6184","大豐電","170286","7296176","45.00","45.25","45.00","45.15","0.1500","75"
"6189","豐藝","318654","12654592","39.45","39.80","39.45","39.65","0.2000","223"
"6191","精成科","18692818","586461923","30.40","31.90","30.35","31.50","1.5500","8256"
"6192","巨路","77266","5449319","70.70","70.90","70.10","70.20","-0.3000","71"
"6196","帆宣","723587","72184414","98.70","101.00","97.30","100.00","3.6000","630"
"6197","佳必琪","330386","12353948","37.15","37.60","37.15","37.55","0.6000","255"
"6201","亞弘電","30140","1384951","45.70","46.20","45.70","46.20","0.5000","29"
"6202","盛群","4395393","411900806","90.70","96.60","90.50","93.20","3.3000","3164"
"6205","詮欣","99101","3062371","31.10","31.10","30.65","30.70","0.1000","75"
"6206","飛捷","295315","18193024","61.30","62.60","61.10","61.90","0.7000","230"
"6209","今國光","2001797","65916571","33.00","33.45","32.35","32.60","0.2500","1045"
"6213","聯茂","1467527","184311100","124.00","127.50","123.50","124.50","2.0000","955"
"6214","精誠","463626","40242856","86.50","87.10","86.40","86.60","0.2000","351"
"6215","和椿","814181","17784416","21.95","22.20","21.55","21.65","0.2500","418"
"6216","居易","50199","1262147","25.00","25.20","25.00","25.20","0.2000","47"
"6224","聚鼎","997172","110531689","109.00","113.50","108.50","110.00","2.5000","823"
"6225","天瀚","31421","115087","3.39","4.00","3.39","4.00","0.3000","15"
"6226","光鼎","1110038","10103505","9.12","9.20","8.97","9.03","0.0900","357"
"6230","尼得科超眾","161524","34792203","217.00","217.00","213.50","216.00","1.0000","129"
"6235","華孚","673904","12373856","18.30","18.65","18.05","18.20","0.1500","302"
"6239","力成","3860946","394936905","101.00","103.00","100.50","103.00","3.0000","1770"
"6243","迅杰","887023","14937022","16.45","17.20","16.40","17.00","0.6000","534"
"6251","定穎","2942222","54030246","18.35","18.60","18.15","18.20","0.2500","1180"
"6257","矽格","4156802","205807620","49.00","50.00","48.90","49.45","0.8000","2454"
"6269","台郡","2592564","299334886","116.00","117.00","114.00","115.00","-0.5000","1626"
"6271","同欣電","2130149","367505605","170.00","176.00","169.00","172.50","4.0000","1765"
"6277","宏正","174882","14244170","83.00","83.90","82.70","82.70","0.1000","120"
"6278","台表科","4318525","484654334","110.50","113.50","110.50","112.50","1.0000","2654"
"6281","全國電","103591","7984552","81.00","81.40","81.00","81.40","0.4000","45"
"6282","康舒","2758881","71420358","25.90","26.10","25.55","25.75","0.0000","1451"
"6283","淳安","2585617","117223818","44.00","46.50","44.00","45.35","1.7500","1680"
"6285","啟碁","1106452","71771950","64.20","65.20","64.10","65.00","1.3000","959"
"6288","聯嘉","1158225","30547656","25.90","26.80","25.80","26.35","0.8000","602"
"6289","華上","16709","50524","3.39","3.39","2.95","3.13","0.0000","18"
"6405","悅城","175001","4597074","26.65","26.85","25.80","26.30","0.0000","89"
"6409","旭隼","73886","84740730","1150.00","1160.00","1120.00","1155.00","5.0000","122"
"6412","群電","267423","18052425","66.90","67.90","66.90","67.90","1.0000","249"
"6414","樺漢","1181180","243469032","203.00","211.50","200.50","205.50","8.0000","1102"
"6415","矽力-KY","945995","3352783225","3675.00","3675.00","3415.00","3490.00","145.0000","1157"
"6416","瑞祺電通","1787246","207571131","114.50","119.00","112.50","115.00","2.5000","1373"
"6426","統新","163693","13551854","81.10","84.80","81.10","83.30","2.8000","157"
"6431","光麗-KY","9000","278550","31.05","31.50","30.50","30.75","-0.3500","8"
"6438","迅得","797080","73633046","90.80","93.30","90.50","92.20","2.8000","614"
"6442","光聖","33800","1108397","31.90","33.70","31.90","32.50","-0.1500","16"
"6443","元晶","25236458","830631615","32.70","33.85","31.95","32.45","0.7500","11852"
"6449","鈺邦","256347","15255823","58.70","60.40","58.70","59.10","0.3000","181"
"6451","訊芯-KY","935304","102265852","109.00","112.00","107.50","108.50","1.5000","805"
"6456","GIS-KY","3216094","319715077","99.80","100.50","98.20","99.10","1.0000","2449"
"6464","台數科","42588","4212145","109.00","109.00","108.50","109.00","1.0000","13"
"6477","安集","5545185","244228753","43.35","45.20","43.10","43.80","0.6500","3192"
"6491","晶碩","779018","379816398","487.00","503.00","473.50","484.00","5.5000","814"
"6504","南六","631486","104021207","166.50","167.00","164.00","164.00","-2.5000","638"
"6505","台塑化","2506311","249144312","97.50","100.50","97.30","99.50","2.0000","1734"
"6515","穎崴","115407","30481865","251.00","274.00","251.00","274.00","24.5000","204"
"6525","捷敏-KY","260609","19836973","75.60","76.70","75.40","76.00","0.8000","225"
"6531","愛普","6882084","4607110329","639.00","696.00","638.00","690.00","56.0000","6355"
"6533","晶心科","3218915","1347455886","404.00","432.50","403.50","420.00","21.0000","3206"
"6541","泰福-KY","705698","39491512","56.80","57.30","55.30","55.60","-1.2000","457"
"6552","易華電","270822","13914106","50.00","52.20","50.00","51.10","1.2000","237"
"6558","興能高","274550","10750975","39.00","40.00","38.60","38.90","0.4000","205"
"6573","虹揚-KY","206279","3317443","16.25","16.25","15.90","16.10","0.0000","118"
"6579","研揚","12004","783068","64.90","66.30","64.90","66.30","1.8000","14"
"6581","鋼聯","30000","2065500","69.00","69.50","68.50","69.20","0.9000","28"
"6582","申豐","1036907","284007461","274.00","278.00","268.00","275.50","5.0000","1019"
"6591","動力-KY","598398","38191374","62.90","64.60","62.60","63.60","1.5000","437"
"6592","和潤企業","1286958","105045596","80.80","82.10","80.80","81.60","1.4000","593"
"6598","ABC-KY","2035395","100666551","52.00","52.00","48.50","48.50","-3.4000","1630"
"6605","帝寶","265558","14802495","55.50","56.50","55.40","55.60","0.1000","228"
"6625","必應","25002","683139","27.35","27.70","27.20","27.20","-0.4500","27"
"6641","基士德-KY","32061","2163290","67.30","67.80","67.30","67.60","0.3000","28"
"6655","科定","38131","2751931","72.20","73.50","72.00","72.00","0.5000","19"
"6666","羅麗芬-KY","7000","551200","78.50","78.90","78.50","78.90","1.6000","7"
"6668","中揚光","2255016","147289129","64.10","67.90","62.80","64.40","2.0000","1640"
"6669","緯穎","1053624","926332834","851.00","906.00","843.00","893.00","45.0000","1275"
"6670","復盛應用","509686","111201903","226.00","226.00","213.00","215.00","-6.0000","415"
"6671","三能-KY","3000","141150","47.05","47.05","47.05","47.05","0.0000","2"
"6672","騰輝電子-KY","2066537","196891267","94.90","96.70","94.00","94.80","1.3000","1369"
"6674","鋐寶科技","122004","3406063","27.85","28.60","27.40","28.00","0.9000","88"
"6698","旭暉應材","170461","6855280","40.20","40.55","39.95","39.95","-0.0500","122"
"6706","惠特","1576664","242509732","152.00","156.50","150.50","153.00","3.0000","1339"
"6715","嘉基","63194","6801358","110.00","110.00","105.50","108.50","0.5000","57"
"6743","安普新","981386","116453763","112.00","121.00","112.00","121.00","11.0000","845"
"6754","匯僑設計","51016","2273612","44.50","44.65","44.40","44.55","0.0500","49"
"6756","威鋒電子","559675","136658989","238.50","252.00","238.50","242.00","8.0000","552"
"6768","志強-KY","1362173","98741856","67.00","73.70","67.00","73.70","6.7000","572"
"6776","展碁國際","142275","5500198","38.45","39.00","38.40","38.80","0.4500","132"
"6781","AES-KY","862779","639139916","698.00","756.00","692.00","756.00","68.0000","1005"
"8011","台通","1084970","18120460","16.50","16.95","16.40","16.65","0.5000","554"
"8016","矽創","14489694","3959960475","268.50","283.00","263.00","270.00","9.0000","11179"
"8021","尖點","5875253","235133038","39.30","41.25","39.30","39.50","0.7500","3401"
"8028","昇陽半導體","578500","26329723","44.85","46.25","44.60","45.50","1.1500","418"
"8033","雷虎","735349","10940880","15.05","15.05","14.75","14.90","0.0500","369"
"8039","台虹","1318999","61897891","46.10","47.45","46.05","46.75","1.0000","692"
"8046","南電","13806973","4539273972","327.00","333.50","323.00","323.00","0.5000","10733"
"8070","長華*","2290385","77117014","33.30","34.10","33.15","33.80","0.8500","1415"
"8072","陞泰","34981","885261","25.90","25.90","24.95","24.95","-0.1000","57"
"8081","致新","3339792","719990187","210.00","220.50","210.00","214.50","8.5000","2909"
"8101","華冠","22603","59750","2.61","2.70","2.61","2.70","0.0000","14"
"8103","瀚荃","2182373","85572678","38.75","39.65","38.70","39.25","0.9500","1219"
"8104","錸寶","360598","17706798","48.95","49.85","48.40","48.75","0.2500","264"
"8105","凌巨","3906518","52271272","13.30","13.70","13.05","13.20","0.0500","1484"
"8110","華東","6666799","96253856","14.10","14.80","14.05","14.55","0.7000","2349"
"8112","至上","3766968","147034620","38.85","39.35","38.65","39.00","0.6000","2306"
"8114","振樺電","57290","4028787","70.90","70.90","69.70","70.00","-0.8000","66"
"8131","福懋科","375485","14678600","38.85","39.35","38.60","39.20","0.7500","275"
"8150","南茂","9029689","400470018","43.50","45.00","43.10","44.95","2.1500","5570"
"8163","達方","1962113","83044069","42.00","42.80","41.80","42.25","0.7000","1282"
"8201","無敵","35252","348503","9.67","9.97","9.67","9.91","0.3000","24"
"8210","勤誠","202511","15700767","76.50","78.20","76.50","77.50","0.2000","191"
"8213","志超","1624200","76621655","46.60","47.50","46.60","47.00","0.6000","935"
"8215","明基材","3702253","93470177","25.00","25.65","24.85","25.15","0.4000","1794"
"8222","寶一","88982","1110035","12.55","12.60","12.35","12.50","0.1000","155"
"8249","菱光","257927","5629775","21.90","21.95","21.75","21.80","0.0500","175"
"8261","富鼎","6873211","430877932","61.80","64.50","60.90","62.00","1.8000","4476"
"8271","宇瞻","3075416","137455818","43.70","45.50","43.60","44.55","1.4000","2018"
"8341","日友","89770","18980105","210.00","212.50","210.00","211.50","2.0000","264"
"8367","建新國際","710515","24597882","36.80","36.80","33.15","34.10","-1.4000","390"
"8374","羅昇","94020","2404464","25.60","25.75","25.35","25.60","0.2500","67"
"8404","百和興業-KY","7754298","376825007","51.10","52.00","47.00","47.00","-5.2000","4515"
"8411","福貞-KY","53839","756400","14.10","14.20","14.00","14.00","-0.1500","66"
"8422","可寧衛","285248","47720152","171.00","172.00","170.00","170.50","0.0000","257"
"8427","基勝-KY","18000","899250","50.20","50.80","49.60","50.80","0.6000","14"
"8429","金麗-KY","996222","10255850","10.45","10.60","10.10","10.25","-0.0500","484"
"8442","威宏-KY","37001","1419688","38.00","38.70","38.00","38.15","-0.3500","32"
"8443","阿瘦","88823","986292","11.00","11.45","10.90","11.45","0.5500","72"
"8454","富邦媒","546584","655100795","1230.00","1260.00","1140.00","1195.00","-25.0000","1134"
"8462","柏文","85804","11835964","139.50","139.50","136.50","138.00","0.0000","234"
"8463","潤泰材","60000","2189950","37.00","37.00","36.20","36.70","0.0000","42"
"8464","億豐","423057","172832437","403.00","418.50","400.00","410.00","11.0000","437"
"8466","美吉吉-KY","63001","3286852","52.50","52.50","52.00","52.30","-0.4000","47"
"8467","波力-KY","4000","165100","41.35","41.40","41.00","41.00","0.4000","4"
"8473","山林水","618003","27246891","45.50","45.50","43.20","43.50","-1.0000","479"
"8478","東哥遊艇","45091","2266122","50.50","50.80","49.80","50.50","0.0000","32"
"8480","泰昇-KY","4000","437200","110.50","112.50","110.50","112.50","-1.0000","5"
"8481","政伸","41013","3298647","80.10","80.70","80.10","80.70","0.5000","39"
"8482","商億-KY","126000","9159300","72.50","73.20","72.50","73.00","0.6000","36"
"8488","吉源-KY","2000","31100","15.65","15.65","15.45","15.45","0.3000","2"
"8499","鼎炫-KY","106002","14175483","133.00","135.50","132.00","134.00","2.0000","124"
"8926","台汽電","661669","25655838","38.75","39.00","38.60","38.65","-0.1000","450"
"8940","新天地","26158","301569","11.55","11.55","11.40","11.50","-0.1000","78"
"8996","高力","290864","13189447","45.00","45.90","44.80","44.90","0.6000","197"
"9103","美德醫療-DR","12519403","306727392","25.30","25.45","23.50","25.20","0.1000","6036"
"910322","康師傅-DR","9000","240800","27.00","27.00","26.50","26.70","-0.3500","8"
"9105","泰金寶-DR","13738204","60445030","4.39","4.48","4.31","4.33","0.0000","2496"
"910861","神州-DR","145000","1379310","9.65","9.65","9.44","9.44","-0.1600","25"
"9110","越南控-DR","185485","535133","2.92","2.92","2.85","2.90","0.0200","75"
"911608","明輝-DR","182000","664740","3.70","3.70","3.63","3.70","-0.0200","35"
"911616","杜康-DR","617285","1104676","1.78","1.81","1.77","1.77","-0.0100","102"
"911622","泰聚亨-DR","303000","1830200","6.25","6.25","5.99","6.00","-0.1700","99"
"911868","同方友友-DR","541001","802591","1.50","1.50","1.46","1.46","-0.0400","131"
"912000","晨訊科-DR","1935200","5102861","2.65","2.66","2.62","2.65","0.0000","258"
"912398","友佳-DR","71151","307092","4.41","4.41","4.30","4.31","0.0200","69"
"9136","巨騰-DR","87000","767260","8.85","8.87","8.76","8.80","0.0000","51"
"9188","精熙-DR","62000","180000","2.91","2.91","2.88","2.91","0.0100","26"
"9802","鈺齊-KY","957874","112615265","119.00","120.00","115.50","117.00","-1.0000","623"
"9902","台火","1167745","14806572","13.00","13.05","12.35","12.60","-0.3000","468"
"9904","寶成","19225089","715093684","37.50","37.95","36.55","37.00","0.2000","8433"
"9905","大華","242337","6157822","25.40","25.50","25.35","25.50","0.1000","170"
"9906","欣巴巴","37437","1603619","42.55","43.50","42.20","42.65","0.2500","34"
"9907","統一實","4252883","54612628","13.10","13.15","12.60","12.80","-0.1500","1480"
"9908","大台北","82717","2798445","33.50","33.95","33.50","33.90","0.3500","96"
"9910","豐泰","2132662","489727013","222.50","232.00","222.00","232.00","10.0000","1827"
"9911","櫻花","981634","63971505","65.10","66.50","64.30","66.50","1.5000","585"
"9912","偉聯","28804","257167","9.00","9.00","8.77","8.98","-0.0200","46"
"9914","美利達","540760","163478991","306.00","306.00","300.00","301.50","-4.5000","646"
"9917","中保科","317385","29087095","91.20","92.00","91.20","92.00","0.7000","347"
"9918","欣天然","17247","671044","39.00","39.00","38.65","39.00","0.1000","31"
"9919","康那香","14377158","514423260","36.60","37.10","35.05","35.45","-1.4000","7801"
"9921","巨大","736513","236644019","324.00","328.00","317.00","321.50","-2.5000","709"
"9924","福興","96797","4299228","44.25","44.55","44.25","44.50","0.2500","96"
"9925","新保","328548","12118424","38.45","38.50","38.10","38.30","-0.1500","146"
"9926","新海","2234","106156","47.95","47.95","47.85","47.85","0.2500","4"
"9927","泰銘","399933","12089767","30.00","30.70","30.00","30.20","-0.0500","266"
"9928","中視","2003","11615","5.80","5.80","5.80","5.80","0.2000","4"
"9929","秋雨","11370","134678","11.80","12.05","11.70","11.90","0.0500","12"
"9930","中聯資源","124644","5633190","45.90","46.00","45.65","45.90","0.0000","87"
"9931","欣高","1","40","","","","","0.0000","1"
"9933","中鼎","887701","32917944","36.85","37.20","36.80","37.15","0.3000","579"
"9934","成霖","576289","9361986","16.15","16.35","16.05","16.25","0.2000","239"
"9935","慶豐富","630402","14318552","22.30","23.05","22.30","22.50","0.3000","334"
"9937","全國","34299","1616352","47.00","47.50","46.85","47.50","0.1500","33"
"9938","百和","1672643","157035802","95.00","95.40","92.30","94.10","-1.0000","1285"
"9939","宏全","923623","65188160","70.20","71.10","69.90","71.00","0.9000","624"
"9940","信義","741948","22334972","30.15","30.25","30.00","30.00","-0.1000","394"
"9941","裕融","376320","49514560","132.00","132.50","131.00","131.50","0.0000","322"
"9941A","裕融甲特","2813","140694","50.30","50.40","50.30","50.40","0.0000","9"
"9942","茂順","210572","18774371","88.40","89.80","88.00","88.90","1.1000","167"
"9943","好樂迪","202529","12528398","61.80","62.40","61.60","61.70","0.0000","177"
"9944","新麗","1057895","23014801","22.00","22.00","21.40","21.60","0.1500","441"
"9945","潤泰新","3556364","183823830","51.80","51.90","51.50","51.70","0.2000","2064"
"9946","三發地產","324157","4810862","14.55","15.00","14.50","14.85","0.3000","126"
"9955","佳龍","427105","7839999","18.75","18.80","18.05","18.20","-0.3000","288"
"9958","世紀鋼","2497594","259346136","104.50","105.00","102.50","103.50","0.0000","1587"
