證券代號,證券名稱,成交股數,成交金額,開盤價,最高價,最低價,收盤價,漲跌價差,成交筆數
"0050","元大台灣50","5137777","708745556","137.95","138.45","137.50","137.60","-0.1000","5273"
"0051","元大中型100","103672","5730038","55.35","55.40","55.10","55.35","0.2500","76"
"0052","富邦科技","942187","117732678","124.85","125.35","124.50","124.50","0.4000","366"
"0053","元大電子","77233","5081506","65.90","65.90","65.65","65.90","0.2500","15"
"0054","元大台商50","4397","138117","31.43","31.43","31.40","31.40","0.1000","7"
"0055","元大MSCI金融","114440","2447717","21.40","21.45","21.35","21.38","0.0000","66"
"0056","元大高股息","5748869","200983296","35.10","35.13","34.90","34.95","-0.0100","4410"
"0057","富邦摩台","24020","2255078","93.65","94.15","93.50","93.50","0.1000","8"
"0061","元大寶滬深","135721","3302773","24.35","24.37","24.31","24.32","0.0700","74"
"006203","元大MSCI台灣","5239","342034","65.35","65.35","65.25","65.25","0.2500","19"
"006204","永豐臺灣加權","22285","1969611","88.35","88.40","88.25","88.40","0.4500","17"
"006205","富邦上証","1247612","49157674","39.38","39.55","39.30","39.40","0.0500","187"
"006206","元大上證50","144599","5720788","39.70","39.70","39.48","39.49","-0.0100","49"
"006207","FH滬深","166000","5311840","32.01","32.05","31.90","32.00","-0.0400","37"
"006208","富邦台50","1162449","92016014","79.10","79.45","79.00","79.10","0.2500","1172"
"00625K","富邦上証+R","","","","","","","0.0000",""
"00631L","元大台灣50正2","3586748","447817382","124.60","125.95","123.90","124.90","1.9000","1295"
"00632R","元大台灣50反1","167319622","956175043","5.73","5.74","5.69","5.71","-0.0400","8882"
"00633L","富邦上証正2","4429000","322888150","72.85","73.40","72.40","72.95","0.8500","1104"
"00634R","富邦上証反1","460000","1694340","3.69","3.69","3.68","3.69","-0.0100","23"
"00635U","期元大S&P黃金","442139","11297287","25.63","25.63","25.50","25.53","0.1100","194"
"00636","國泰中國A50","1677164","47904146","28.61","28.63","28.45","28.55","0.0500","310"
"00636K","國泰中國A50+U","200","2070","10.35","10.35","10.35","10.35","0.0500","2"
"00637L","元大滬深300正2","32598091","942783666","28.85","29.11","28.71","28.92","0.2700","6005"
"00638R","元大滬深300反1","1013000","7493010","7.40","7.42","7.39","7.39","-0.0600","47"
"00639","富邦深100","783552","13691685","17.50","17.52","17.40","17.51","0.0300","188"
"00640L","富邦日本正2","380000","11029860","29.20","29.20","28.82","28.97","0.4700","89"
"00641R","富邦日本反1","183000","1932710","10.53","10.60","10.53","10.58","-0.0700","60"
"00642U","期元大S&P石油","25078321","294415706","11.69","11.78","11.69","11.76","0.2400","3908"
"00643","群益深証中小","510918","9401064","18.39","18.44","18.33","18.40","0.0500","173"
"00643K","群益深証中小+R","","","","","","","0.0000",""
"00645","富邦日本","134808","3459208","25.72","25.75","25.62","25.65","0.2300","34"
"00646","元大S&P500","120744","4309417","35.72","35.72","35.65","35.68","0.0500","163"
"00647L","元大S&P500正2","21000","1307700","62.30","62.35","62.20","62.25","0.3000","12"
"00648R","元大S&P500反1","572000","4194180","7.33","7.34","7.32","7.33","-0.0200","75"
"00650L","FH香港正2","1460000","45462490","31.22","31.50","31.03","31.08","-0.2400","110"
"00651R","FH香港反1","270000","1813120","6.69","6.74","6.69","6.74","0.0400","19"
"00652","富邦印度","94444","2464448","26.14","26.16","26.06","26.07","-0.0700","93"
"00653L","富邦印度正2","525000","20032830","38.03","38.29","38.03","38.10","0.7700","197"
"00654R","富邦印度反1","318000","2928620","9.24","9.24","9.20","9.23","-0.0900","84"
"00655L","國泰中國A50正2","2833000","156543000","55.15","55.65","54.90","55.20","0.5000","808"
"00656R","國泰中國A50反1","114000","773520","6.79","6.79","6.77","6.79","-0.0200","11"
"00657","國泰日經225","101410","3584697","35.35","35.35","35.30","35.30","0.0600","5"
"00657K","國泰日經225+U","200","2560","12.80","12.80","12.80","12.80","0.0700","2"
"00660","元大歐洲50","113000","3309110","29.27","29.31","29.27","29.31","0.1400","23"
"00661","元大日經225","2000","72090","36.05","36.05","36.04","36.04","0.3600","2"
"00662","富邦NASDAQ","211270","10265192","48.60","48.67","48.54","48.66","0.3100","167"
"00663L","國泰臺灣加權正2","222000","24890100","112.50","112.70","111.70","112.60","1.5000","14"
"00664R","國泰臺灣加權反1","7635000","49436040","6.48","6.50","6.44","6.47","-0.0400","594"
"00665L","富邦恒生國企正2","34000","855480","25.24","25.29","25.11","25.11","-0.0700","27"
"00666R","富邦恒生國企反1","71000","764700","10.77","10.80","10.77","10.80","0.0400","3"
"00668","國泰美國道瓊","6613","229512","34.82","34.82","34.64","34.74","0.1600","14"
"00668K","國泰美國道瓊+U","200","2504","12.52","12.52","12.52","12.52","0.0200","2"
"00669R","國泰美國道瓊反1","7078200","56846342","8.02","8.04","8.01","8.03","-0.0100","226"
"00670L","富邦NASDAQ正2","285552","25761010","90.45","90.45","90.15","90.35","0.7500","76"
"00671R","富邦NASDAQ反1","2627000","15536580","5.93","5.93","5.91","5.93","-0.0100","160"
"00673R","期元大S&P原油反1","2035900","33167286","16.38","16.38","16.22","16.27","-0.3300","491"
"00674R","期元大S&P黃金反1","71000","890930","12.52","12.56","12.52","12.56","-0.0400","17"
"00675L","富邦臺灣加權正2","575556","27772398","48.17","48.68","47.90","48.28","0.7600","358"
"00676R","富邦臺灣加權反1","10826000","38211230","3.54","3.55","3.52","3.52","-0.0400","618"
"00678","群益NBI生技","332201","8948934","27.00","27.00","26.91","26.94","0.1000","14"
"00680L","元大美債20正2","23000","515120","22.40","22.41","22.38","22.39","0.1900","10"
"00681R","元大美債20反1","133000","1893940","14.25","14.25","14.23","14.23","-0.0600","9"
"00682U","期元大美元指數","64000","1144300","17.88","17.89","17.86","17.88","0.0200","23"
"00683L","期元大美元指正2","2405001","39457666","16.37","16.45","16.36","16.45","0.0600","259"
"00684R","期元大美元指反1","2000","38780","19.39","19.39","19.39","19.39","-0.0200","1"
"00685L","群益臺灣加權正2","18000","759790","42.23","42.46","42.10","42.46","0.7100","7"
"00686R","群益臺灣加權反1","147000","565540","3.86","3.86","3.84","3.86","-0.0200","37"
"00688L","國泰20年美債正2","63000","1411160","22.39","22.43","22.39","22.40","0.1800","7"
"00689R","國泰20年美債反1","93000","1390700","14.97","14.97","14.93","14.95","-0.0700","11"
"00690","兆豐藍籌30","243013","7977573","32.90","32.93","32.71","32.71","-0.0300","32"
"00692","富邦公司治理","2373414","84015908","35.41","35.55","35.26","35.39","0.1900","1223"
"00693U","期街口S&P黃豆","818511","19566806","23.84","23.97","23.83","23.94","0.5000","307"
"00700","富邦恒生國企","105010","2020370","19.23","19.24","19.23","19.24","-0.0200","7"
"00701","國泰股利精選30","408059","9928374","24.40","24.44","24.27","24.30","-0.0400","360"
"00702","國泰標普低波高息","118685","2465356","20.93","20.93","20.74","20.77","0.1500","23"
"00703","台新MSCI中國","107099","2684934","25.09","25.09","25.03","25.05","-0.1100","23"
"00706L","期元大S&P日圓正2","22000","352750","16.03","16.05","16.03","16.03","0.0000","11"
"00707R","期元大S&P日圓反1","1000","19730","19.73","19.73","19.73","19.73","0.0000","1"
"00708L","期元大S&P黃金正2","769090","22902390","29.86","29.89","29.69","29.69","0.2300","223"
"00709","富邦歐洲","106240","2544960","23.94","24.00","23.94","23.97","0.0400","13"
"00710B","FH彭博高收益債","561098","10280248","18.34","18.35","18.31","18.33","-0.0200","236"
"00711B","FH彭博新興債","128050","2549336","19.95","19.95","19.89","19.92","0.0200","12"
"00712","FH富時不動產","3322706","48387162","14.51","14.58","14.51","14.57","0.0700","1399"
"00713","元大台灣高息低波","91101","3947758","43.39","43.58","43.14","43.22","0.0600","96"
"00714","群益道瓊美國地產","26178","569990","21.85","21.85","21.75","21.75","0.2400","27"
"00715L","期街口布蘭特正2","61973697","504159880","8.08","8.20","8.07","8.15","0.2400","5868"
"00717","富邦美國特別股","700975","11722608","16.68","16.74","16.68","16.72","0.0500","159"
"00728","第一金工業30","352442","10039216","28.46","28.58","28.40","28.49","0.1900","234"
"00730","富邦臺灣優質高息","288786","6176727","21.38","21.45","21.34","21.39","0.0500","139"
"00731","FH富時高息低波","264141","15349133","58.10","58.40","58.10","58.10","0.0000","14"
"00732","國泰RMB短期報酬","100000","3970000","39.70","39.70","39.70","39.70","0.0500","2"
"00733","富邦臺灣中小","671109","29510101","43.91","44.09","43.68","44.00","0.3200","381"
"00735","國泰臺韓科技","110139","3732402","33.91","33.98","33.82","33.92","0.3000","12"
"00736","國泰新興市場","108769","2608478","24.00","24.11","23.98","23.98","0.0500","8"
"00737","國泰AI+Robo","235540","7589510","32.24","32.26","32.21","32.21","0.3600","167"
"00738U","期元大道瓊白銀","1214336","35370639","29.18","29.20","29.04","29.07","0.3500","334"
"00739","元大MSCI A股","210779","6158534","29.47","29.47","29.15","29.24","0.0600","57"
"00742","新光內需收益","75607","1705790","22.63","22.63","22.53","22.57","-0.0400","23"
"00743","國泰中國A150","132100","3965628","30.07","30.08","29.88","30.00","-0.0800","23"
"00752","中信中國50","862560","25535344","29.70","29.72","29.53","29.56","-0.1400","462"
"00753L","中信中國50正2","310087","12004778","38.86","39.09","38.50","38.63","-0.1300","122"
"00757","統一FANG+","905186","41312043","45.60","45.68","45.58","45.66","0.1200","591"
"00762","元大全球AI","280599","10711493","38.22","38.22","38.13","38.15","0.3800","86"
"00763U","期街口道瓊銅","1002020","29938594","29.88","30.02","29.83","29.83","-0.2600","215"
"00770","國泰北美科技","236519","8163505","34.57","34.57","34.45","34.48","0.0900","16"
"00771","元大US高息特別股","69462","1319587","18.99","19.02","18.98","18.98","0.0400","33"
"00774B","新光中國政金綠債","2601","101817","39.15","39.15","39.15","39.15","-0.0500","3"
"00774C","新光中政金綠債+R","","","","","","","0.0000",""
"00775B","新光投等債15+","2000","81200","40.60","40.60","40.60","40.60","0.1700","2"
"00783","富邦中証500","604224","13775004","22.68","22.88","22.66","22.85","0.1500","30"
"008201","BP上證50","","","","","","","0.0000",""
"00830","國泰費城半導體","1447842","40342197","27.85","27.89","27.82","27.86","0.2600","821"
"00850","元大臺灣ESG永續","1198203","41099920","34.27","34.45","34.16","34.31","0.1700","783"
"00851","台新全球AI","14000","421570","30.13","30.13","30.09","30.10","0.0700","6"
"00852L","國泰美國道瓊正2","280000","5836430","20.91","20.91","20.82","20.83","0.0400","25"
"00861","元大全球未來通訊","1772436","50616995","28.45","28.62","28.45","28.59","0.3500","499"
"00865B","國泰US短期公債","100000","3642000","36.42","36.42","36.42","36.42","-0.0300","2"
"00875","國泰網路資安","567026","17559382","30.99","31.00","30.94","30.95","0.3300","177"
"00876","元大未來關鍵科技","2510635","72352904","28.75","28.86","28.72","28.80","0.2000","578"
"00878","國泰永續高股息","3881984","71536577","18.45","18.49","18.39","18.42","0.0100","1840"
"00881","國泰台灣5G+","22733968","399142741","17.55","17.63","17.50","17.55","0.1000","6228"
"00882","中信中國高股息","2153448","34648794","16.09","16.12","16.07","16.09","0.0000","821"
"00885","富邦越南","8087466","126326114","15.60","15.65","15.58","15.64","0.0700","2000"
"00891","中信關鍵半導體","17269925","266820546","15.48","15.51","15.36","15.49","0.1400","5273"
"01001T","土銀富邦R1","32000","576510","18.02","18.02","18.00","18.02","0.0000","9"
"01002T","土銀國泰R1","356821","6398919","18.00","18.00","17.92","17.97","-0.0300","53"
"01003T","兆豐新光R1","205494","3926658","19.10","19.12","19.07","19.07","0.0600","28"
"01004T","土銀富邦R2","183000","2983490","16.31","16.33","16.20","16.30","-0.0300","26"
"01007T","兆豐國泰R2","11000","220400","20.05","20.05","20.02","20.04","-0.0200","6"
"01009T","王道圓滿R1","93157","863587","9.80","9.80","9.11","9.13","0.0000","24"
"01010T","京城樂富R1","32000","347600","10.85","10.90","10.83","10.90","0.0600","12"
"020000","富邦特選蘋果N","4000","29960","7.49","7.49","7.49","7.49","-0.0600","2"
"020002","元富新中國N","","","","","","","0.0000",""
"020004","兆豐電菁英30N","","","","","","","0.0000",""
"020006","永昌中小300N","","","","","","","0.0000",""
"020007","凱基臺灣500N","","","","","","","0.0000",""
"020008","元大特股高息N","","","","","","","0.0000",""
"020011","統一微波高息20N","15000","97090","6.49","6.49","6.44","6.44","-0.0300","6"
"020012","富邦行動通訊N","8000","49280","6.16","6.16","6.16","6.16","-0.0200","2"
"020015","統一MSCI美低波N","","","","","","","0.0000",""
"020016","統一MSCI美科技N","3000","54360","18.12","18.12","18.12","18.12","0.0000","2"
"020018","統一價值成長30N","76000","1268360","16.64","16.80","16.60","16.69","0.2300","22"
"020019","統一特選台灣5GN","99000","1366240","13.77","13.85","13.75","13.81","0.2300","16"
"02001L","富邦蘋果正二N","2000","24080","12.04","12.04","12.04","12.04","-0.1500","1"
"02001R","富邦蘋果反一N","","","","","","","0.0000",""
"020020","元大台股領航N","1381000","9989670","7.21","7.25","7.20","7.22","0.0200","333"
"020022","元大電動車N","3924000","23230900","5.95","5.99","5.87","5.93","0.0100","526"
"1101","台泥","23863470","1242256578","52.00","52.40","51.80","52.30","0.3000","10596"
"1101B","台泥乙特","626","33531","","","","","0.0000","6"
"1102","亞泥","13118648","679517381","52.40","52.50","51.40","51.80","-0.1000","5825"
"1103","嘉泥","2153979","49393514","22.75","23.10","22.70","23.00","0.3000","957"
"1104","環泥","798922","18806704","23.25","23.80","23.25","23.60","0.3500","411"
"1108","幸福","2444586","35790343","14.40","14.85","14.35","14.85","0.5000","1122"
"1109","信大","436514","11838376","27.05","27.30","26.90","27.20","0.3000","262"
"1110","東泥","59503","944174","15.85","15.95","15.80","15.90","0.0500","55"
"1201","味全","2684977","59626428","22.05","22.35","22.05","22.05","0.1000","1198"
"1203","味王","34308","1224090","35.70","35.75","35.65","35.70","0.0000","43"
"1210","大成","1367023","79875626","58.50","59.00","58.20","58.40","0.0000","1107"
"1213","大飲","57011","516057","9.00","9.13","8.89","9.13","0.2300","20"
"1215","卜蜂","519191","41665014","80.50","80.50","80.00","80.40","0.1000","506"
"1216","統一","2001895","148492254","74.50","74.60","73.90","74.10","-0.4000","1391"
"1217","愛之味","32724489","412863505","12.30","12.80","12.25","12.75","0.4500","7531"
"1218","泰山","2052027","61422232","30.05","30.30","29.70","29.80","0.1000","1144"
"1219","福壽","2302337","56457391","24.60","25.00","24.30","24.55","0.4000","1040"
"1220","台榮","1255916","21842301","17.20","17.65","17.05","17.40","0.3000","595"
"1225","福懋油","604382","28693241","47.40","48.50","46.85","47.15","0.6000","430"
"1227","佳格","1039639","56224032","54.40","54.50","53.90","54.20","-0.2000","786"
"1229","聯華","952663","46219918","48.60","48.70","48.35","48.50","-0.1000","843"
"1231","聯華食","276986","16904763","61.60","61.60","60.70","60.80","-0.4000","338"
"1232","大統益","149314","24355013","162.00","164.50","162.00","163.50","1.5000","267"
"1233","天仁","6600","229273","35.00","35.00","34.60","34.95","0.3000","14"
"1234","黑松","245478","8627662","35.10","35.40","34.95","35.25","0.2000","120"
"1235","興泰","4200","142537","34.00","34.00","33.80","33.80","-0.2000","7"
"1236","宏亞","151557","2345437","15.50","15.55","15.35","15.50","0.2000","126"
"1256","鮮活果汁-KY","23426","10858922","461.00","465.50","461.00","462.50","-2.5000","372"
"1301","台塑","6601619","697533668","106.00","106.50","105.00","106.00","0.0000","3071"
"1303","南亞","9518355","829917708","87.10","88.10","86.30","86.90","0.3000","5670"
"1304","台聚","58783321","2301804018","38.95","40.25","38.35","39.00","1.3000","25204"
"1305","華夏","15468485","574249955","37.10","37.80","36.65","37.10","0.5000","6860"
"1307","三芳","514062","11697807","22.80","22.95","22.60","22.75","0.3500","254"
"1308","亞聚","22159128","756409632","34.20","35.00","33.55","33.80","0.4000","9736"
"1309","台達化","12783446","561214131","43.35","44.60","43.05","44.25","1.3000","6116"
"1310","台苯","16192750","342077064","20.55","21.50","20.35","21.10","0.7500","4746"
"1312","國喬","44703785","1266163792","27.90","28.70","27.60","28.50","0.9000","12670"
"1312A","國喬特","36000","1233550","34.30","34.30","34.15","34.25","-0.0500","14"
"1313","聯成","57203856","1648695515","29.00","29.40","28.35","28.50","0.3000","18931"
"1314","中石化","160401143","2328701574","14.65","14.75","14.25","14.35","0.1000","32127"
"1315","達新","68543","5015347","73.10","73.70","73.00","73.00","-0.3000","81"
"1316","上曜","344418","3907272","11.30","11.45","11.30","11.35","-0.0500","138"
"1319","東陽","693550","23622462","34.20","34.30","33.95","33.95","-0.2000","556"
"1321","大洋","340050","12399227","36.50","36.65","36.25","36.55","0.2500","185"
"1323","永裕","155457","5327834","34.30","34.40","34.20","34.40","0.0000","94"
"1324","地球","140057","1561428","11.20","11.25","11.05","11.15","0.1000","82"
"1325","恆大","2840452","264701118","92.60","93.80","92.50","93.20","1.0000","2074"
"1326","台化","6902452","612561909","89.20","89.70","88.20","88.50","-0.4000","4054"
"1337","再生-KY","1582367","12948947","8.08","8.26","8.08","8.24","0.2100","651"
"1338","廣華-KY","468676","30551929","64.90","66.00","64.50","64.80","0.1000","319"
"1339","昭輝","67103","2539142","37.65","38.00","37.65","37.95","0.0500","47"
"1340","勝悅-KY","579917","6549330","11.05","11.45","11.05","11.35","0.3500","444"
"1341","富林-KY","11000","872500","79.00","80.00","79.00","79.10","0.6000","10"
"1342","八貫","58100","3025630","52.20","52.30","51.60","52.00","0.0000","53"
"1402","遠東新","8149798","263941605","32.10","32.80","32.10","32.45","0.4000","3403"
"1409","新纖","70035214","1634801807","22.75","23.90","22.70","23.30","0.6000","21708"
"1410","南染","227035","8031736","34.75","36.50","34.75","35.30","0.4500","85"
"1413","宏洲","3580471","45932471","11.85","12.90","11.85","12.90","1.1500","1036"
"1414","東和","15680042","299200564","17.90","19.50","17.90","19.50","1.7500","4439"
"1416","廣豐","1216462","14013360","11.25","11.80","11.20","11.75","0.5500","413"
"1417","嘉裕","10087279","173129954","16.60","17.65","16.55","17.10","0.5000","3542"
"1418","東華","11005","124906","11.35","11.35","11.35","11.35","0.1000","6"
"1419","新紡","58614","2326389","39.80","39.90","39.40","39.50","0.1000","45"
"1423","利華","163374","3542557","21.40","21.90","21.40","21.60","0.3000","134"
"1432","大魯閣","130425","1819390","13.85","14.00","13.85","13.95","0.1000","396"
"1434","福懋","1834686","58036200","31.50","31.80","31.50","31.60","0.1000","961"
"1435","中福","65546","1321715","20.70","20.70","20.00","20.20","0.2000","47"
"1436","華友聯","27000","1073250","39.90","39.95","39.50","39.90","0.0000","26"
"1437","勤益控","156850","3934050","25.10","25.25","25.00","25.25","0.1500","81"
"1438","三地開發","9467","294204","31.20","31.40","31.00","31.40","0.2000","14"
"1439","中和","116002","2789248","23.95","24.35","23.90","24.10","0.1500","69"
"1440","南紡","88724737","2711138761","29.00","31.20","28.95","31.20","2.8000","28377"
"1441","大東","2404406","29619864","11.35","12.50","11.35","12.50","1.1000","869"
"1442","名軒","142642","2453548","17.20","17.30","17.10","17.15","-0.0500","58"
"1443","立益","735415","10361184","13.40","14.10","13.40","14.10","1.2500","229"
"1444","力麗","41118168","545884216","13.00","13.60","12.95","13.35","0.5500","10789"
"1445","大宇","382981","4811103","12.30","12.85","12.30","12.50","0.2500","164"
"1446","宏和","393874","12169049","29.20","31.70","29.05","31.70","2.8500","295"
"1447","力鵬","48269724","648437858","13.10","13.70","13.05","13.70","0.9000","12665"
"1449","佳和","611236","10547745","16.35","17.80","16.15","17.80","1.6000","328"
"1451","年興","2017580","44598429","21.80","22.60","21.65","22.00","0.4000","959"
"1452","宏益","7770928","204124656","25.00","26.80","24.85","26.80","2.4000","2514"
"1453","大將","590069","5567733","9.20","9.68","9.20","9.56","0.3800","280"
"1454","台富","628641","6724212","10.50","10.80","10.45","10.70","0.2500","214"
"1455","集盛","124219702","3451016430","26.20","28.30","25.95","28.30","2.5500","28259"
"1456","怡華","209557","3661748","17.20","17.75","17.20","17.40","0.2500","103"
"1457","宜進","25393848","497175591","18.70","20.05","18.60","20.05","1.8000","8092"
"1459","聯發","6883242","105274777","14.40","15.50","14.40","15.50","1.4000","2023"
"1460","宏遠","12857131","156222044","11.30","12.50","11.30","12.30","0.8000","4323"
"1463","強盛","5389980","83246492","14.70","15.95","14.35","15.95","1.4500","1907"
"1464","得力","1513577","26964838","17.40","18.05","17.35","17.90","0.5500","772"
"1465","偉全","693353","9370491","12.90","13.80","12.90","13.60","0.7500","268"
"1466","聚隆","8228678","172772111","20.45","21.60","20.20","20.70","0.7000","3599"
"1467","南緯","2159903","38942011","17.60","18.25","17.60","17.90","0.3500","841"
"1468","昶和","82000","1021500","12.10","12.90","12.05","12.60","0.5000","54"
"1470","大統新創","37000","611200","16.20","16.70","16.15","16.65","0.4000","20"
"1471","首利","1382267","15094893","11.40","11.40","10.60","10.80","-0.1500","581"
"1472","三洋紡","26943","283323","10.50","10.60","10.50","10.50","-0.0500","16"
"1473","台南","263744","4828934","18.05","18.50","18.05","18.20","0.2000","174"
"1474","弘裕","15950815","289821826","17.40","18.80","17.30","18.60","1.5000","6075"
"1475","業旺","430289","18338728","41.90","43.65","41.00","43.50","3.8000","345"
"1476","儒鴻","836717","545081653","651.00","668.00","643.00","649.00","-6.0000","882"
"1477","聚陽","7317494","1997828148","277.00","278.00","269.00","274.50","-9.0000","6099"
"1503","士電","311599","16298521","52.60","52.80","52.00","52.40","0.4000","225"
"1504","東元","1199566","39980959","33.40","33.50","33.20","33.30","-0.1000","772"
"1506","正道","449589","4481209","9.86","10.15","9.82","9.90","0.1000","211"
"1507","永大","48665","3029398","62.10","62.50","62.10","62.50","-0.1000","50"
"1512","瑞利","62532","281667","4.50","4.51","4.50","4.51","0.0300","18"
"1513","中興電","4389061","222888956","51.00","51.50","50.50","50.70","-0.3000","2619"
"1514","亞力","746214","18328814","24.30","24.70","24.30","24.50","0.2000","427"
"1515","力山","1929758","151709921","80.10","80.40","78.10","78.30","-1.4000","1394"
"1516","川飛","187803","4055076","21.20","21.95","21.15","21.65","0.4500","113"
"1517","利奇","9078328","245213515","26.05","28.05","26.05","26.75","1.0000","4487"
"1519","華城","446100","19665576","44.40","44.40","43.85","43.90","0.1000","342"
"1521","大億","84175","3820300","45.20","45.95","44.85","45.80","0.6000","68"
"1522","堤維西","715894","15552081","21.95","22.10","21.50","21.70","-0.3000","343"
"1524","耿鼎","323291","3252414","10.05","10.15","10.00","10.05","0.0500","164"
"1525","江申","189301","13078151","69.50","70.50","68.40","69.10","-0.4000","172"
"1526","日馳","311839","15694512","49.80","50.90","49.80","50.10","0.4000","251"
"1527","鑽全","463841","22776806","49.20","49.40","48.70","49.10","0.1500","347"
"1528","恩德","347440","3432655","9.84","9.95","9.82","9.85","0.0100","134"
"1529","樂士","176680","2982013","16.85","17.00","16.75","16.85","-0.0500","63"
"1530","亞崴","14488","518418","35.80","35.80","35.70","35.70","-0.0500","25"
"1531","高林股","214799","3189510","14.85","14.90","14.80","14.85","0.0000","93"
"1532","勤美","269839","9114952","34.30","34.30","33.60","33.70","0.0500","195"
"1533","車王電","179315","10127159","56.70","57.00","55.90","56.20","-0.3000","164"
"1535","中宇","65031","2524397","38.85","39.00","38.60","38.60","-0.1500","45"
"1536","和大","460758","43676418","95.00","95.20","94.30","94.40","-0.4000","438"
"1537","廣隆","100125","14599021","146.50","146.50","145.50","145.50","-1.0000","94"
"1538","正峰","5302","63822","12.15","12.25","12.15","12.25","-0.2000","8"
"1539","巨庭","67000","1188850","17.45","17.90","17.45","17.90","0.4500","53"
"1540","喬福","181789","2904664","16.10","16.10","15.90","16.00","0.0000","124"
"1541","錩泰","60010","2945692","49.00","49.95","48.90","49.65","0.7000","31"
"1558","伸興","52527","8719396","165.00","167.00","165.00","167.00","1.5000","101"
"1560","中砂","368833","24008747","65.00","65.50","64.80","65.00","0.3000","234"
"1568","倉佑","375100","9762688","25.80","26.40","25.65","26.00","0.5000","236"
"1582","信錦","181006","15184435","83.70","84.20","83.60","84.10","0.4000","129"
"1583","程泰","4002","253426","63.50","63.50","63.20","63.30","0.0000","4"
"1587","吉茂","133174","3770008","28.25","28.50","28.10","28.35","0.0500","89"
"1589","永冠-KY","572382","42139265","74.10","74.20","73.30","73.30","-0.3000","397"
"1590","亞德客-KY","355523","347932608","983.00","992.00","970.00","971.00","-7.0000","482"
"1592","英瑞-KY","937665","2660861","2.90","2.90","2.76","2.90","-0.0500","183"
"1597","直得","456309","47939067","106.50","107.00","104.00","104.50","-1.0000","405"
"1598","岱宇","773247","73222611","95.70","95.80","94.00","94.50","-0.3000","567"
"1603","華電","1308242","40355779","30.45","31.20","30.35","30.85","0.7000","629"
"1604","聲寶","794694","23660290","29.65","29.90","29.65","29.75","0.1500","503"
"1605","華新","30487500","813875271","27.00","27.00","26.50","26.65","-0.0500","10520"
"1608","華榮","12810980","369024600","29.20","29.20","28.20","29.05","0.4000","5315"
"1609","大亞","19191311","571915895","29.80","30.20","29.50","29.65","0.0000","8168"
"1611","中電","1034617","11997737","11.55","11.70","11.45","11.70","0.2500","408"
"1612","宏泰","3586554","95490692","26.50","27.00","26.15","26.85","0.7000","1800"
"1614","三洋電","30176","1016311","33.70","33.85","33.55","33.70","0.1500","32"
"1615","大山","564665","22777229","40.50","40.90","39.90","40.70","0.5500","368"
"1616","億泰","1558620","15617973","10.05","10.25","9.95","9.99","-0.0600","663"
"1617","榮星","287630","5510931","19.60","19.60","19.00","19.15","0.0500","191"
"1618","合機","1286023","21008969","16.20","16.50","16.15","16.35","0.2500","576"
"1626","艾美特-KY","47488","1172613","24.30","25.10","24.30","24.55","0.2000","43"
"1701","中化","1237514","28835143","23.40","23.40","23.20","23.30","-0.0500","509"
"1702","南僑","1212460","68460184","57.00","57.10","56.00","56.00","-0.9000","769"
"1707","葡萄王","180705","30669577","170.00","170.50","169.00","169.50","-0.5000","220"
"1708","東鹼","974339","27678985","28.10","28.80","28.10","28.35","0.2500","569"
"1709","和益","5009203","97509539","19.35","19.60","19.25","19.55","0.3000","1604"
"1710","東聯","4066398","93338666","23.00","23.35","22.70","22.75","0.0000","1497"
"1711","永光","11277066","223755735","19.80","20.05","19.50","19.75","0.3000","4072"
"1712","興農","874755","19305315","21.95","22.20","21.95","22.05","0.1500","470"
"1713","國化","158796","3602077","22.60","22.75","22.60","22.70","0.0000","77"
"1714","和桐","33506382","411170702","12.15","12.50","12.05","12.20","0.2500","8824"
"1717","長興","15909986","656017645","40.80","42.00","40.40","41.85","1.4500","7948"
"1718","中纖","192102033","2306398703","11.80","12.40","11.55","11.85","0.5000","39848"
"1720","生達","520224","20220684","38.80","38.95","38.70","38.90","0.1000","309"
"1721","三晃","420681","4273504","10.10","10.25","10.10","10.15","0.1000","234"
"1722","台肥","2556317","145867412","56.80","57.50","56.50","57.30","0.7000","1027"
"1723","中碳","377559","41648520","110.00","111.50","109.50","110.50","1.5000","303"
"1724","台硝","55108","871005","15.85","15.85","15.80","15.80","0.0000","28"
"1725","元禎","145050","2911656","20.35","20.50","19.90","20.10","-0.2000","96"
"1726","永記","25024","1862176","74.00","74.50","74.00","74.50","0.3000","18"
"1727","中華化","811287","11600548","14.05","14.45","13.95","14.30","0.2500","419"
"1730","花仙子","157664","10932600","69.50","69.70","69.00","69.20","0.0000","174"
"1731","美吾華","952987","19888869","21.15","21.15","20.75","20.75","-0.2000","579"
"1732","毛寶","2833264","103687551","36.70","37.70","36.00","36.20","-0.5000","1695"
"1733","五鼎","247015","5938240","24.00","24.10","23.95","24.05","0.0500","146"
"1734","杏輝","641465","19392803","30.35","30.45","30.10","30.25","0.2000","478"
"1735","日勝化","24000","441100","18.20","18.65","18.20","18.60","0.0000","24"
"1736","喬山","321850","25785792","80.40","81.70","79.50","80.00","-0.4000","277"
"1737","臺鹽","479375","15461728","32.10","32.45","32.05","32.45","0.3000","335"
"1760","寶齡富錦","2344949","243325968","101.00","108.00","101.00","108.00","8.4000","1893"
"1762","中化生","1477556","96002386","64.50","65.80","64.10","65.50","1.1000","1039"
"1773","勝一","66789","7564611","113.00","113.50","113.00","113.50","0.5000","68"
"1776","展宇","52000","932150","18.15","18.15","17.90","17.95","0.0500","16"
"1783","和康生","830881","30415081","36.15","37.00","36.05","36.85","0.8000","511"
"1786","科妍","67261","3557312","53.30","53.70","52.30","52.30","-1.0000","67"
"1789","神隆","1413493","39013232","27.80","27.95","27.35","27.50","-0.2500","863"
"1795","美時","2608162","232861634","90.50","91.10","88.20","88.80","-1.6000","1861"
"1802","台玻","110489029","4062766720","36.40","37.95","36.00","36.40","1.1000","48022"
"1805","寶徠","154514","2127986","13.85","13.85","13.70","13.70","-0.1000","68"
"1806","冠軍","6299878","80568792","12.10","13.00","12.00","13.00","1.1500","1492"
"1808","潤隆","190453","11101602","58.50","58.60","57.70","58.20","-0.3000","146"
"1809","中釉","6726143","102571328","15.25","15.70","14.95","15.00","0.1500","2562"
"1810","和成","3932579","47321974","11.65","12.35","11.60","11.95","0.3500","1608"
"1817","凱撒衛","117262","4329516","36.85","37.15","36.50","37.05","0.3000","67"
"1903","士紙","1784563","102156609","55.00","59.00","54.20","57.60","3.4000","1180"
"1904","正隆","52057642","2442648431","45.45","48.90","44.85","46.40","1.6500","27427"
"1905","華紙","157196983","4450404767","26.80","28.95","26.75","28.95","2.6000","59728"
"1906","寶隆","4323962","90732973","20.25","21.70","20.15","21.00","1.1000","2117"
"1907","永豐餘","76496728","3535721734","44.25","47.30","44.00","47.30","4.3000","33088"
"1909","榮成","94778122","2484613020","25.25","27.15","25.25","26.30","1.3000","36758"
"2002","中鋼","322183566","12600694516","39.75","39.85","38.60","38.80","-0.7000","95755"
"2002A","中鋼特","5361","276933","51.50","51.70","51.50","51.70","0.0000","10"
"2006","東和鋼鐵","44407361","2357270565","52.80","54.70","52.00","52.50","0.6000","20266"
"2007","燁興","8733602","134849734","15.35","15.80","15.15","15.40","-0.1000","3344"
"2008","高興昌","3715994","75600854","20.05","20.80","19.90","20.10","0.2000","1597"
"2009","第一銅","36215620","2509460667","70.30","71.50","68.30","68.60","-0.4000","19074"
"2010","春源","21227191","481783152","23.00","23.20","22.30","22.75","0.4500","9130"
"2012","春雨","1717040","49312801","28.80","29.40","28.25","28.45","-0.3000","895"
"2013","中鋼構","1371670","59834405","44.20","44.20","43.30","43.35","-0.3500","884"
"2014","中鴻","34744750","1807871686","53.40","53.40","51.50","51.60","-1.1000","17636"
"2015","豐興","1623850","126390365","79.40","79.40","76.80","77.90","-0.3000","1124"
"2017","官田鋼","11992693","290713913","24.50","25.10","23.75","24.30","0.0500","5459"
"2020","美亞","6778783","241541214","35.75","36.20","35.35","35.65","-0.2500","3096"
"2022","聚亨","13773163","212485590","15.65","15.90","15.15","15.35","-0.2000","5662"
"2023","燁輝","57276528","1406755944","24.70","25.10","24.15","24.45","-0.0500","20527"
"2024","志聯","225324","4235359","19.50","19.50","18.55","18.55","-0.3500","151"
"2025","千興","1276630","5104532","4.00","4.00","3.99","3.99","0.1100","207"
"2027","大成鋼","78399084","3867269689","49.80","50.40","48.80","48.80","-0.2500","32659"
"2028","威致","45071455","2116131296","46.80","48.80","44.60","45.50","0.9000","22168"
"2029","盛餘","33044563","1353716124","42.20","42.95","39.35","40.25","0.8500","14671"
"2030","彰源","28590843","639727665","22.80","22.85","21.90","22.60","-0.2500","9322"
"2031","新光鋼","23046322","1543870200","68.70","69.00","65.50","66.70","-0.3000","11528"
"2032","新鋼","2371404","50430391","21.80","21.80","20.90","21.00","-0.2000","1177"
"2033","佳大","1672795","31427534","18.90","19.25","18.55","18.70","-0.0500","812"
"2034","允強","9571766","306900534","32.80","32.90","31.65","31.80","-0.6500","4245"
"2038","海光","92059469","4379426965","47.80","49.20","45.35","46.60","0.9000","42769"
"2049","上銀","1208927","455266201","380.00","383.00","374.00","376.50","0.0000","1029"
"2059","川湖","80498","31027909","389.00","392.00","382.00","386.50","-2.5000","81"
"2062","橋椿","118161","3475641","29.80","30.00","29.20","29.20","-0.1000","83"
"2069","運錩","2076744","53133722","25.55","26.05","25.25","25.75","0.0000","1052"
"2101","南港","1099465","42474602","38.60","38.90","38.40","38.50","0.0000","510"
"2102","泰豐","2383159","66807682","27.70","28.40","27.70","27.95","-0.1000","932"
"2103","台橡","74943782","2563684365","32.60","34.80","32.20","34.60","2.0000","13520"
"2104","國際中橡","6496967","173357095","26.75","26.95","26.50","26.60","-0.0500","2831"
"2105","正新","3458852","166408636","48.40","48.65","47.85","48.00","-0.2000","1900"
"2106","建大","577720","23577754","40.90","41.00","40.55","40.75","-0.1000","350"
"2107","厚生","1031710","25731212","24.65","25.15","24.65","24.90","0.2500","472"
"2108","南帝","8680013","1220779488","139.50","143.00","139.00","139.50","0.5000","6431"
"2109","華豐","1562308","30731603","19.15","20.00","19.15","19.80","0.6500","616"
"2114","鑫永銓","57105","6908705","120.50","121.50","120.50","121.00","0.5000","47"
"2115","六暉-KY","21348","999975","46.70","47.00","46.65","47.00","0.1000","21"
"2201","裕隆","3390215","136351761","40.45","40.50","40.00","40.10","0.0000","1657"
"2204","中華","2518549","182420331","72.30","73.00","72.10","72.30","0.5000","1547"
"2206","三陽工業","1875187","54640065","29.00","29.40","28.85","29.25","0.4500","972"
"2207","和泰車","113540","65057447","580.00","580.00","567.00","576.00","2.0000","187"
"2208","台船","23168746","552147467","23.40","24.15","23.40","24.00","0.6000","9300"
"2211","長榮鋼","1219578","66940404","55.00","55.20","54.60","55.00","0.5000","865"
"2227","裕日車","27495","7424767","269.00","271.00","269.00","270.00","1.0000","89"
"2228","劍麟","143037","10115440","70.80","71.20","70.50","70.80","0.0000","120"
"2231","為升","513019","102352156","198.00","203.00","197.00","198.00","0.0000","422"
"2233","宇隆","552968","63947825","114.50","117.00","114.50","114.50","0.5000","457"
"2236","百達-KY","14124","344024","24.50","24.50","24.30","24.30","-0.1000","11"
"2239","英利-KY","150100","13766500","92.50","93.50","91.00","91.10","-1.3000","132"
"2241","艾姆勒","60221","3197513","52.90","53.40","52.90","53.10","0.2000","52"
"2243","宏旭-KY","58450","582335","9.90","10.25","9.90","10.05","-0.0500","41"
"2247","汎德永業","55216","12236818","221.50","222.00","221.00","221.50","0.0000","99"
"2250","IKKA-KY","2452635","409314357","161.00","177.00","156.50","177.00","14.0000","1932"
"2301","光寶科","2705734","177485541","66.00","66.10","65.30","65.60","-0.6000","1673"
"2302","麗正","397859","7099334","17.80","18.05","17.65","17.85","0.0500","231"
"2303","聯電","380138640","20495504319","52.80","55.30","52.30","55.00","3.0000","124928"
"2305","全友","897872","8408881","9.38","9.45","9.30","9.32","-0.0600","288"
"2308","台達電","9396892","2789626981","298.50","299.50","295.00","297.00","-1.5000","4210"
"2312","金寶","9132508","128077620","14.00","14.15","13.85","14.00","0.1000","2431"
"2313","華通","5812190","225227479","38.95","39.00","38.40","38.90","0.1500","2400"
"2314","台揚","10529668","424645681","39.35","41.40","38.90","40.75","1.1500","5357"
"2316","楠梓電","265780","7857746","29.65","29.70","29.40","29.65","0.3000","240"
"2317","鴻海","24092372","2687851339","113.00","113.00","110.50","111.00","-1.0000","12120"
"2321","東訊","10321","73247","7.49","7.49","7.00","7.01","0.0100","19"
"2323","中環","5919069","61710093","10.50","10.55","10.30","10.40","0.0000","1346"
"2324","仁寶","11790943","273913652","23.25","23.40","23.15","23.40","0.3000","4306"
"2327","國巨","3588727","1765874237","489.50","496.50","486.00","494.50","8.5000","3735"
"2328","廣宇","5779117","226639550","39.25","39.70","38.75","39.50","0.5000","2814"
"2329","華泰","11118245","204416482","18.30","18.55","18.15","18.55","0.2500","3769"
"2330","台積電","31703679","18939839664","600.00","600.00","596.00","596.00","1.0000","20749"
"2331","精英","2211476","53332954","23.90","24.45","23.90","24.00","0.2500","1078"
"2332","友訊","2429197","48175466","19.80","20.05","19.70","19.75","-0.0500","1019"
"2337","旺宏","32938023","1424439162","43.50","43.65","42.85","43.25","0.0000","12687"
"2338","光罩","20958819","1772871212","85.00","86.00","83.20","84.20","2.4000","11837"
"2340","光磊","4675737","126461618","27.40","27.45","26.80","26.80","-0.4000","1992"
"2342","茂矽","1346912","44377063","32.45","33.30","32.45","32.85","0.6000","834"
"2344","華邦電","85289510","2951377347","34.40","34.95","34.00","34.75","0.8500","29732"
"2345","智邦","1792335","525320483","295.00","297.00","290.50","293.00","-4.0000","1707"
"2347","聯強","7816399","472245852","62.00","62.00","59.80","60.10","-0.4000","3600"
"2348","海悅","244688","23602298","97.00","97.00","95.60","96.50","1.0000","221"
"2349","錸德","3676815","37549138","10.20","10.40","10.10","10.15","0.0500","1058"
"2351","順德","4302904","406701607","96.00","97.40","92.70","93.80","-2.2000","3068"
"2352","佳世達","8098023","249808001","30.50","31.15","30.45","31.00","0.5000","3499"
"2353","宏碁","18165932","580603454","31.75","32.30","31.55","32.15","0.6000","8374"
"2354","鴻準","6264660","409353781","66.10","66.30","64.90","65.10","-0.8000","4785"
"2355","敬鵬","1118715","33276944","29.50","30.20","29.40","29.70","0.2000","561"
"2356","英業達","3505035","91539117","26.30","26.30","26.05","26.15","0.1000","1615"
"2357","華碩","3440477","1346407694","393.00","395.00","389.50","392.00","-1.5000","3555"
"2358","廷鑫","663152","9728420","14.75","14.95","14.55","14.60","-0.1000","338"
"2359","所羅門","279452","4822385","17.15","17.45","17.15","17.25","0.1000","161"
"2360","致茂","932581","179316358","189.50","194.50","188.50","194.50","6.0000","665"
"2362","藍天","509531","15282981","30.10","30.10","29.85","30.10","0.0500","243"
"2363","矽統","19344180","421173399","21.65","22.10","21.35","21.90","0.4000","6678"
"2364","倫飛","216358","685424","3.18","3.18","3.15","3.15","-0.0100","52"
"2365","昆盈","1154271","14729565","12.80","12.90","12.70","12.75","0.0500","432"
"2367","燿華","3836364","83393499","21.55","21.95","21.45","21.75","0.4000","1549"
"2368","金像電","14236704","818455144","58.00","58.30","56.80","57.60","0.2000","7409"
"2369","菱生","4853851","87501711","17.90","18.25","17.70","18.00","0.2000","1705"
"2371","大同","4783003","119555522","25.15","25.15","24.85","25.10","0.1000","1734"
"2373","震旦行","28741","2659914","93.00","93.40","92.10","92.10","-0.9000","46"
"2374","佳能","584908","9017983","15.40","15.55","15.35","15.50","0.1500","253"
"2375","凱美","4372911","445903015","101.00","104.50","99.10","104.00","4.0000","3218"
"2376","技嘉","6047546","680354337","111.50","114.00","110.50","114.00","4.0000","3823"
"2377","微星","6217127","1077618759","171.50","175.00","169.00","175.00","5.0000","3883"
"2379","瑞昱","1436960","715728217","492.00","503.00","492.00","500.00","8.5000","1401"
"2380","虹光","1418455","18427153","13.30","13.35","12.85","12.95","-0.2500","731"
"2382","廣達","12673182","1112196741","88.20","88.60","87.40","87.80","-0.6000","8667"
"2383","台光電","1301445","207434946","160.50","161.00","158.50","159.50","-0.5000","1004"
"2385","群光","5144967","404468058","78.00","79.20","77.70","79.00","0.8000","3539"
"2387","精元","3731647","216031100","56.50","59.70","56.00","58.90","3.4000","2234"
"2388","威盛","1939863","98970661","51.10","51.90","50.20","50.90","0.0000","1340"
"2390","云辰","13605011","329438722","23.90","24.60","23.85","24.15","0.3500","5836"
"2392","正崴","698675","28554509","40.65","41.05","40.65","40.85","0.2000","465"
"2393","億光","6017816","286739991","47.15","48.00","47.05","47.65","0.8000","3556"
"2395","研華","1337841","430607917","323.50","326.50","320.00","320.00","-4.0000","1144"
"2397","友通","11842","750393","63.80","63.80","63.00","63.00","-0.5000","19"
"2399","映泰","13113566","382077077","29.60","29.80","28.60","29.35","0.4500","6445"
"2401","凌陽","14118376","424566575","30.15","30.50","29.60","30.10","0.5500","6058"
"2402","毅嘉","804343","14169726","17.70","17.75","17.35","17.60","0.2000","357"
"2404","漢唐","1370732","328195643","237.50","241.50","237.00","241.00","5.0000","1468"
"2405","浩鑫","1854612","24373565","13.00","13.25","13.00","13.05","0.0500","677"
"2406","國碩","2666773","51370636","19.25","19.65","18.90","19.15","0.1000","1139"
"2408","南亞科","19272126","1606416685","82.00","84.50","81.80","83.60","2.0000","10162"
"2409","友達","399709193","9977380461","25.30","25.45","24.30","24.85","-0.1000","94263"
"2412","中華電","3620647","411892811","114.00","114.50","113.00","114.00","0.0000","1942"
"2413","環科","206101","4746187","22.75","23.30","22.70","23.10","0.4000","155"
"2414","精技","130087","3790914","29.30","29.30","29.00","29.20","-0.1000","120"
"2415","錩新","1462247","58530130","38.65","41.15","38.30","41.15","2.1000","943"
"2417","圓剛","1518441","67451860","44.25","44.80","44.00","44.40","0.2000","937"
"2419","仲琦","405624","8517278","21.10","21.35","20.85","20.95","-0.1000","226"
"2420","新巨","92747","3448382","37.05","37.25","37.05","37.20","0.1500","68"
"2421","建準","683512","30827446","45.35","45.40","44.55","45.00","0.0000","523"
"2423","固緯","144048","3448605","24.00","24.05","23.80","23.95","0.0000","117"
"2424","隴華","742","17828","","","","","0.0000","8"
"2425","承啟","594313","18964821","31.75","32.55","31.50","31.60","0.1000","328"
"2426","鼎元","5786873","157429882","26.60","27.65","26.55","27.30","0.9500","3006"
"2427","三商電","504046","5713668","11.45","11.45","11.30","11.30","-0.1500","182"
"2428","興勤","209073","33691382","162.00","162.50","160.00","160.50","-1.5000","210"
"2429","銘旺科","33002","532981","16.10","16.20","16.10","16.20","0.1000","23"
"2430","燦坤","3143253","94912614","29.50","30.80","29.15","30.55","1.3500","1646"
"2431","聯昌","1502593","22476553","15.00","15.15","14.75","14.90","0.0500","543"
"2433","互盛電","34433","1836195","53.40","53.40","53.10","53.40","0.0000","39"
"2434","統懋","39483","1491032","37.00","38.10","37.00","37.50","0.1500","36"
"2436","偉詮電","12247074","889462780","73.00","73.80","71.30","72.90","0.9000","7419"
"2438","翔耀","47651","521616","10.80","11.00","10.80","11.00","0.1000","33"
"2439","美律","560261","59528236","107.00","107.50","105.50","105.50","-1.0000","516"
"2440","太空梭","526608","10016136","19.05","19.25","18.80","19.05","0.0500","345"
"2441","超豐","6485769","477169702","74.10","75.60","72.50","73.20","-0.8000","3742"
"2442","新美齊","839666","8680432","10.30","10.45","10.25","10.35","0.1500","257"
"2443","億麗","75500","223222","2.99","3.00","2.90","2.98","0.0300","32"
"2444","兆勁","171011","2135519","12.50","12.65","12.40","12.40","0.0000","118"
"2449","京元電子","31309962","1312668445","41.80","42.50","41.20","42.20","-1.0000","15867"
"2450","神腦","102218","3392387","33.40","33.40","33.00","33.15","-0.2500","88"
"2451","創見","846591","61686785","73.40","73.40","72.40","72.80","0.6000","703"
"2453","凌群","788665","20732682","25.70","26.55","25.65","26.55","0.8500","487"
"2454","聯發科","5997351","5861387770","968.00","984.00","965.00","981.00","22.0000","6020"
"2455","全新","1177842","134636097","115.00","115.50","113.00","114.50","1.0000","977"
"2456","奇力新","1697594","167936318","99.10","99.70","98.30","98.50","-0.1000","1190"
"2457","飛宏","22559330","825852268","36.20","37.85","35.65","36.20","0.8000","10853"
"2458","義隆","1770656","366746487","206.50","208.50","204.00","208.50","3.0000","1230"
"2459","敦吉","41153","2216327","53.80","54.00","53.80","53.90","0.0000","42"
"2460","建通","1868698","67795494","36.05","36.80","35.70","36.05","0.0000","1070"
"2461","光群雷","964128","21286781","21.90","22.40","21.90","22.05","-0.1000","374"
"2462","良得電","500716","16289290","32.90","33.10","32.00","32.80","0.0500","282"
"2464","盟立","1407968","63576191","45.70","45.90","44.90","45.05","-0.5500","1015"
"2465","麗臺","11579686","778958654","63.50","71.50","63.50","71.50","6.5000","7807"
"2466","冠西電","91000","2972100","32.60","32.80","32.50","32.80","0.2000","58"
"2467","志聖","366555","19760484","53.70","54.30","53.60","53.90","0.3000","257"
"2468","華經","118200","1632230","13.70","13.90","13.70","13.90","0.2000","78"
"2471","資通","71049","1873665","26.30","26.45","26.30","26.35","0.1000","52"
"2472","立隆電","714470","46173977","64.60","65.30","63.90","64.50","-0.1000","526"
"2474","可成","1387940","254959233","183.00","185.00","183.00","183.00","0.0000","1180"
"2476","鉅祥","2334224","84417186","36.30","36.75","35.95","36.00","-0.3000","1277"
"2477","美隆電","1501159","49725652","33.55","33.70","32.80","32.95","-0.7500","965"
"2478","大毅","558513","38673182","69.70","70.00","68.20","69.40","0.4000","431"
"2480","敦陽科","271747","19041562","69.90","70.40","69.80","70.00","-0.1000","221"
"2481","強茂","7631526","407715050","53.40","54.40","52.70","53.50","0.6000","4327"
"2482","連宇","118278","1330510","11.20","11.30","11.15","11.30","0.1000","117"
"2483","百容","66000","1330200","19.85","20.45","19.85","20.45","0.1500","38"
"2484","希華","2265968","64684177","28.55","28.80","28.35","28.50","0.3000","992"
"2485","兆赫","2115442","41372644","19.50","19.80","19.30","19.45","0.0500","755"
"2486","一詮","2825919","83654785","30.00","30.15","29.15","29.35","-0.3500","1210"
"2488","漢平","82342","2473476","29.90","30.10","29.90","29.95","-0.0500","67"
"2489","瑞軒","7240355","130175069","17.85","18.20","17.80","17.85","0.1000","2531"
"2491","吉祥全","1393613","41528824","28.75","30.60","28.75","30.60","2.4500","839"
"2492","華新科","2315997","477040366","206.00","208.00","204.00","206.00","1.5000","1729"
"2493","揚博","237806","8982425","37.80","37.90","37.65","37.80","0.0000","160"
"2495","普安","16166638","377164748","23.10","24.00","22.90","23.25","1.1500","7499"
"2496","卓越","28406","1639367","58.00","58.00","57.50","57.60","-0.4000","26"
"2497","怡利電","205407","6051604","29.30","29.90","29.05","29.25","-0.0500","147"
"2498","宏達電","6118749","226005234","36.60","37.40","36.40","37.25","0.8500","3060"
"2501","國建","536731","10669399","20.00","20.00","19.80","19.90","-0.0500","216"
"2504","國產","2759866","70804505","25.50","25.95","25.45","25.55","0.1500","1216"
"2505","國揚","759014","23491547","31.30","31.30","30.75","30.90","-0.2500","453"
"2506","太設","295913","3058439","10.30","10.40","10.30","10.35","0.1000","170"
"2509","全坤建","390699","7623907","19.50","19.60","19.40","19.60","0.1500","236"
"2511","太子","1259676","15237588","12.20","12.25","12.00","12.10","-0.0500","450"
"2514","龍邦","429508","7758681","18.25","18.30","17.95","17.95","-0.2000","270"
"2515","中工","16054901","150301152","9.30","9.50","9.23","9.36","0.1800","4374"
"2516","新建","640741","3977272","6.16","6.31","6.13","6.28","0.0800","250"
"2520","冠德","3538960","133422479","38.10","38.20","37.50","37.70","-0.3500","1720"
"2524","京城","32437","1122988","34.60","35.00","34.50","34.60","0.0000","33"
"2527","宏璟","280813","6373086","22.80","22.80","22.55","22.80","0.1500","144"
"2528","皇普","158101","3488691","22.25","22.25","21.90","21.90","-0.2500","49"
"2530","華建","693406","9555029","13.85","13.85","13.70","13.70","-0.0500","143"
"2534","宏盛","1106476","22846218","20.70","20.80","20.40","20.60","0.0500","536"
"2535","達欣工","885704","29660527","33.80","33.80","33.40","33.45","-0.1000","636"
"2536","宏普","81095","1776225","21.75","22.10","21.75","21.95","0.1000","69"
"2537","聯上發","244702","2284524","9.30","9.38","9.30","9.33","0.0700","109"
"2538","基泰","772596","7723470","10.00","10.05","9.98","9.98","-0.0200","208"
"2539","櫻花建","116224","3665093","31.55","31.55","31.45","31.50","0.0000","68"
"2540","愛山林","14109","1023357","73.50","73.50","72.10","73.00","-0.5000","17"
"2542","興富發","3454664","144735324","42.05","42.15","41.80","41.85","-0.1500","2290"
"2543","皇昌","141241","1098030","7.75","7.85","7.65","7.74","0.0600","75"
"2545","皇翔","934610","39471130","42.25","42.45","42.00","42.20","0.1000","446"
"2546","根基","99805","4778818","48.10","48.10","47.80","47.85","-0.1500","71"
"2547","日勝生","2321758","26263703","11.15","11.50","11.10","11.40","0.3000","680"
"2548","華固","945068","88537781","94.00","94.00","93.30","93.40","-0.6000","475"
"2597","潤弘","61374","8673146","140.50","142.00","140.50","142.00","1.5000","63"
"2601","益航","36098203","522750103","14.30","14.80","14.20","14.40","0.0000","11450"
"2603","長榮","561492548","65330004183","114.00","121.00","112.50","119.00","8.5000","185050"
"2605","新興","30771482","885818751","28.50","29.30","28.25","28.75","0.0000","13032"
"2606","裕民","35599281","2211987790","62.40","63.30","61.00","61.30","-0.3000","18672"
"2607","榮運","72061521","1721750645","23.00","24.55","22.85","23.80","1.1000","24355"
"2608","嘉里大榮","29667514","2126742227","73.00","73.50","70.50","71.20","1.3000","18483"
"2609","陽明","471284102","53875505840","113.50","117.50","111.00","112.50","1.5000","171940"
"2610","華航","172162649","3517594340","20.00","20.50","20.00","20.50","1.8500","30614"
"2611","志信","6347219","114820605","18.00","18.40","17.75","18.00","0.3500","2442"
"2612","中航","5433895","257542806","46.95","48.50","46.50","47.50","0.5500","3171"
"2613","中櫃","2594958","72908251","28.15","28.60","27.65","28.00","0.4000","1389"
"2614","東森","16326413","293099738","18.05","18.25","17.75","17.85","-0.2000","5961"
"2615","萬海","16481522","2682726792","164.50","166.00","159.00","161.00","1.0000","10718"
"2616","山隆","241804","8866583","36.35","36.80","36.35","36.80","0.5000","247"
"2617","台航","64529778","3039330430","47.40","48.60","45.00","46.00","-0.2000","30452"
"2618","長榮航","103293472","2070138795","20.00","20.05","19.90","20.05","1.8000","24543"
"2630","亞航","1286112","24844828","18.30","19.55","18.30","19.55","1.7500","517"
"2633","台灣高鐵","4064842","122317588","30.10","30.35","29.90","30.15","-0.0500","2040"
"2634","漢翔","15504620","458718368","28.30","30.25","28.30","29.90","2.0000","7253"
"2636","台驊投控","15683689","2047471792","125.00","136.00","125.00","132.00","8.0000","10195"
"2637","慧洋-KY","155121613","12202087487","78.50","80.80","76.50","76.70","-0.3000","73467"
"2642","宅配通","3585813","293593364","84.70","84.70","80.50","82.90","-5.8000","2419"
"2701","萬企","811585","9908589","11.90","12.45","11.90","12.35","0.4000","250"
"2702","華園","1628805","32918973","18.75","20.60","18.75","20.60","1.8500","787"
"2704","國賓","135471","3794330","27.75","28.40","27.75","27.75","0.2000","120"
"2705","六福","423173","7249776","17.00","17.40","17.00","17.20","0.2000","160"
"2706","第一店","550723","7865831","14.00","14.40","14.00","14.30","0.3500","388"
"2707","晶華","679322","97541431","142.00","145.50","141.50","142.50","0.5000","539"
"2712","遠雄來","8000","272000","34.10","34.10","33.80","33.80","0.3000","8"
"2722","夏都","29493","850953","28.50","29.10","28.50","28.80","0.0000","25"
"2723","美食-KY","1403186","247734157","180.50","181.50","173.00","175.00","-5.5000","1254"
"2727","王品","1715875","241918584","140.50","144.00","139.00","139.50","-1.0000","1864"
"2731","雄獅","2074761","188667889","87.70","93.00","87.70","90.00","2.2000","1583"
"2739","寒舍","169031","4143124","24.15","25.00","24.15","24.20","0.1000","148"
"2748","雲品","46765","1909802","40.50","41.00","40.50","40.95","0.8500","56"
"2801","彰銀","6132184","104033616","17.00","17.05","16.90","16.95","0.0500","1498"
"2809","京城銀","8859358","357132223","39.80","40.45","39.80","40.40","0.0000","3218"
"2812","台中銀","2729562","31538510","11.55","11.60","11.50","11.55","0.0500","1104"
"2816","旺旺保","269547","5545154","20.60","20.65","20.50","20.60","0.1000","107"
"2820","華票","1452967","23350454","16.10","16.10","16.00","16.10","0.0000","511"
"2823","中壽","3969604","99135192","25.10","25.15","24.90","24.90","-0.2000","1335"
"2832","台產","615229","13125366","21.20","21.45","21.20","21.45","0.3000","397"
"2834","臺企銀","13452196","129965146","9.65","9.69","9.64","9.65","0.0000","2704"
"2836","高雄銀","554248","6177890","11.20","11.25","11.05","11.15","0.0500","167"
"2836A","高雄銀甲特","59000","1352250","22.95","23.00","22.90","22.95","0.0500","17"
"2838","聯邦銀","311837","3670284","11.75","11.80","11.75","11.75","-0.0500","177"
"2838A","聯邦銀甲特","6000","317400","52.90","52.90","52.90","52.90","-0.1000","2"
"2841","台開","492990","3440617","7.10","7.10","6.96","6.99","-0.0100","190"
"2845","遠東銀","1665798","17730840","10.65","10.70","10.60","10.65","0.0000","392"
"2849","安泰銀","60484","888741","14.65","14.75","14.65","14.65","0.0000","37"
"2850","新產","124425","4973231","40.00","40.05","39.85","40.05","0.1500","81"
"2851","中再保","352835","9228156","26.30","26.35","26.05","26.15","-0.1500","201"
"2852","第一保","225746","2943658","13.00","13.15","13.00","13.05","0.0000","87"
"2855","統一證","2633713","75797444","28.75","28.90","28.65","28.75","0.0500","944"
"2867","三商壽","4014277","38956931","9.81","9.81","9.66","9.72","0.0200","1092"
"2880","華南金","5185364","95364019","18.45","18.50","18.30","18.40","0.0000","1733"
"2881","富邦金","26997722","1995597977","75.00","75.10","73.30","73.60","-0.9000","10925"
"2881A","富邦特","38559","2403372","62.40","62.40","62.30","62.40","0.0000","23"
"2881B","富邦金乙特","15963","991360","62.10","62.20","62.00","62.20","0.1000","29"
"2882","國泰金","20051611","1125317686","56.70","56.80","55.70","55.80","-0.5000","8001"
"2882A","國泰特","22499","1400885","62.30","62.40","62.30","62.40","0.0000","17"
"2882B","國泰金乙特","5473","338619","61.80","62.00","61.80","62.00","-0.2000","15"
"2883","開發金","40178932","510313177","12.85","12.85","12.60","12.70","-0.0500","7906"
"2884","玉山金","13634925","353480759","26.00","26.00","25.85","25.95","-0.0500","5133"
"2885","元大金","26480408","692463875","26.05","26.55","25.90","26.00","0.0500","7273"
"2886","兆豐金","16759297","552848057","33.00","33.15","32.90","33.00","-0.1500","4452"
"2887","台新金","31709225","481948882","15.25","15.25","15.15","15.25","0.1000","6387"
"2887E","台新戊特","43667","2313333","53.00","53.00","52.90","53.00","0.1000","32"
"2887F","台新戊特二","11121","573406","51.60","51.60","51.50","51.60","0.0000","12"
"2888","新光金","58353691","586434499","10.10","10.15","9.99","10.05","0.0000","7262"
"2888A","新光金甲特","13049","555588","42.60","42.60","42.55","42.55","0.0500","25"
"2888B","新光金乙特","73628","3016921","40.95","41.05","40.95","41.00","0.0500","50"
"2889","國票金","2322703","39835671","17.20","17.25","17.10","17.15","-0.0500","1177"
"2890","永豐金","14064528","192036226","13.65","13.70","13.60","13.70","0.0500","3684"
"2891","中信金","18208856","416484686","23.00","23.05","22.75","22.90","-0.0500","5274"
"2891B","中信金乙特","6384","402867","63.20","63.30","62.90","63.20","0.0000","15"
"2891C","中信金丙特","8425","514760","61.10","61.10","61.10","61.10","0.0000","19"
"2892","第一金","6479836","144224951","22.35","22.35","22.20","22.25","-0.0500","2908"
"2897","王道銀行","6750987","46869531","7.13","7.15","7.10","7.12","0.0200","438"
"2897A","王道銀甲特","87195","885055","10.15","10.15","10.15","10.15","0.0500","19"
"2901","欣欣","53005","1548745","29.15","29.55","29.00","29.30","0.3500","47"
"2903","遠百","673645","15581998","23.00","23.30","23.00","23.20","0.1000","441"
"2904","匯僑","223596","6690222","29.75","30.10","29.75","29.95","0.3500","119"
"2905","三商","1458410","33738562","23.10","23.45","22.85","23.00","-0.1000","763"
"2906","高林","619772","9705156","15.55","15.75","15.50","15.55","0.0000","239"
"2908","特力","188957","5184627","27.75","27.75","27.15","27.40","-0.3000","90"
"2910","統領","1000","33500","33.50","33.50","33.50","33.50","1.1000","1"
"2911","麗嬰房","24787664","251540379","10.15","10.15","10.05","10.15","0.8800","5819"
"2912","統一超","717378","191519676","268.50","268.50","265.50","266.50","-2.0000","873"
"2913","農林","18738416","394466721","20.50","21.70","20.45","20.95","0.6500","5678"
"2915","潤泰全","1825978","153089332","83.40","84.40","83.40","84.30","0.9000","1147"
"2923","鼎固-KY","31000","888350","28.45","29.00","28.30","28.30","0.3000","22"
"2929","淘帝-KY","8657617","160344034","19.45","19.45","17.50","18.20","0.5000","3626"
"2936","客思達-KY","19000","441000","23.50","24.30","22.90","22.90","0.1500","18"
"2939","凱羿-KY","95000","3221600","34.00","34.05","33.65","34.00","-0.0500","20"
"3002","歐格","148008","1779647","12.05","12.15","11.90","12.10","0.1500","79"
"3003","健和興","2044941","151684594","74.00","75.00","73.30","73.90","-0.3000","1313"
"3004","豐達科","1598437","101913617","60.70","64.60","60.60","64.60","5.8000","1081"
"3005","神基","1756179","89765692","51.80","51.90","50.60","51.00","-0.8000","1186"
"3006","晶豪科","21316449","2888900670","137.00","138.00","133.00","135.50","1.0000","13155"
"3008","大立光","167975","516909685","3095.00","3095.00","3065.00","3065.00","-5.0000","1137"
"3010","華立","402990","31324769","78.20","78.20","77.50","77.60","0.0000","286"
"3011","今皓","142241","1144148","8.10","8.13","8.00","8.01","-0.0400","76"
"3013","晟銘電","227103","3055609","13.60","13.60","13.30","13.45","0.1500","112"
"3014","聯陽","3797014","447568338","117.50","119.50","115.50","119.00","3.0000","2455"
"3015","全漢","356852","15994559","44.95","45.20","44.25","44.85","0.1500","236"
"3016","嘉晶","6858172","470209117","67.60","70.30","67.10","68.10","1.3000","4362"
"3017","奇鋐","6081035","438758014","72.30","72.80","71.40","72.70","1.1000","3146"
"3018","同開","112720","1841818","16.50","16.50","16.25","16.30","-0.3000","159"
"3019","亞光","1823449","148891684","81.00","82.30","80.90","81.90","1.3000","1206"
"3021","鴻名","404498","8965901","22.45","22.70","21.80","22.10","-0.5000","272"
"3022","威強電","178551","9111248","51.10","51.30","50.50","51.30","0.2000","164"
"3023","信邦","160909","42398439","264.00","265.00","263.00","263.00","-1.0000","219"
"3024","憶聲","1063261","14358259","13.55","13.65","13.40","13.50","-0.0500","451"
"3025","星通","547093","14000395","25.70","25.85","25.25","25.60","0.1000","325"
"3026","禾伸堂","1264072","164936098","131.00","131.50","129.50","131.00","0.5000","804"
"3027","盛達","847332","19801037","23.35","23.75","23.20","23.20","-0.1500","456"
"3028","增你強","433445","12274739","28.40","28.40","28.25","28.30","-0.1000","297"
"3029","零壹","867556","40862074","47.30","47.30","46.95","47.00","-0.2000","622"
"3030","德律","437447","25056714","57.40","57.50","57.20","57.20","0.0000","260"
"3031","佰鴻","526542","9827583","18.45","18.85","18.45","18.70","0.3000","258"
"3032","偉訓","133018","5550095","42.00","42.00","41.55","41.70","-0.1500","109"
"3033","威健","3046539","73166342","24.10","24.30","23.85","23.95","-0.1000","1495"
"3034","聯詠","8803717","4389096079","503.00","505.00","489.00","505.00","7.0000","8250"
"3035","智原","14105703","995233974","69.50","71.60","69.20","70.80","1.8000","8421"
"3036","文曄","1059687","58528164","55.80","55.90","54.80","55.20","-0.3000","734"
"3036A","文曄甲特","18000","859150","47.70","47.75","47.70","47.75","0.0500","13"
"3037","欣興","62919433","7426727241","113.00","121.50","112.00","121.50","11.0000","29660"
"3038","全台","1274343","26803856","21.20","21.25","20.90","21.00","-0.0500","584"
"3040","遠見","397100","20015629","50.00","50.80","49.90","50.60","0.6500","250"
"3041","揚智","1520125","41294996","27.00","27.45","26.70","27.20","0.3000","723"
"3042","晶技","8825011","946405901","107.50","108.50","106.00","107.50","2.0000","5259"
"3043","科風","309210","1203723","4.01","4.07","3.64","4.07","0.0600","77"
"3044","健鼎","2319731","298378039","129.50","129.50","127.00","128.50","-1.5000","1650"
"3045","台灣大","1810065","182121055","100.50","101.00","100.00","100.50","-0.5000","1196"
"3046","建碁","65880","1600125","24.40","24.60","23.80","24.55","0.1500","52"
"3047","訊舟","806486","9290117","11.70","11.70","11.40","11.45","-0.0500","297"
"3048","益登","819305","28779657","35.30","35.35","34.90","35.05","0.0000","476"
"3049","和鑫","20784187","270987764","13.00","13.20","12.80","12.95","0.1500","2857"
"3050","鈺德","396026","6126418","15.60","15.65","15.30","15.35","-0.0500","223"
"3051","力特","585047","4876347","8.29","8.47","8.22","8.35","0.0600","196"
"3052","夆典","931744","11937383","12.85","12.95","12.70","12.90","0.0500","313"
"3054","立萬利","20202","452015","22.65","22.65","22.15","22.50","-0.7000","18"
"3055","蔚華科","133862","3806183","28.40","28.75","28.25","28.50","0.1000","226"
"3056","總太","181192","7104078","39.40","39.40","39.05","39.20","-0.1500","150"
"3057","喬鼎","723833","12057300","16.90","17.00","16.30","16.50","-0.4000","428"
"3058","立德","7826438","128242040","16.20","16.60","16.00","16.10","-0.2500","1714"
"3059","華晶科","2737094","97877666","35.80","36.30","35.35","35.60","0.1500","1519"
"3060","銘異","32261615","972694057","30.70","31.65","29.15","30.55","0.2000","14008"
"3062","建漢","1078662","19220798","17.90","18.10","17.65","17.80","0.1500","497"
"3090","日電貿","640924","34203318","53.20","53.70","53.00","53.20","0.2000","445"
"3092","鴻碩","882390","59900964","68.00","68.80","67.50","67.60","-0.4000","614"
"3094","聯傑","1413071","48449538","33.55","34.70","33.55","34.60","1.1500","838"
"3130","一零四","5429","905008","170.50","170.50","165.00","166.00","-0.5000","27"
"3138","耀登","682287","132469080","198.00","198.00","192.00","193.50","-1.0000","728"
"3149","正達","1927320","66216000","34.35","35.00","33.70","34.30","0.1500","1050"
"3164","景岳","109535","2703312","24.55","24.90","24.55","24.60","0.0500","73"
"3167","大量","498319","33845331","67.50","69.20","66.20","68.80","3.2000","387"
"3189","景碩","29310082","3335279168","110.50","119.00","108.50","118.50","10.0000","17232"
"3209","全科","467575","13316965","28.55","28.60","28.40","28.50","0.0000","239"
"3229","晟鈦","34000","210610","6.15","6.25","6.15","6.21","0.0000","16"
"3231","緯創","8757601","273889818","31.40","31.60","31.15","31.25","-0.1000","4036"
"3257","虹冠電","179617","13424488","74.60","75.40","74.20","74.70","0.1000","156"
"3266","昇陽","42202","524364","12.35","12.50","12.25","12.40","0.0000","28"
"3296","勝德","386030","7927607","20.25","20.75","20.25","20.60","0.3500","209"
"3305","昇貿","4315882","205268034","47.90","48.25","46.50","47.70","0.9000","2347"
"3308","聯德","71059","616405","8.79","8.80","8.57","8.69","-0.1100","55"
"3311","閎暉","161111","5489872","34.70","34.70","33.80","34.00","-0.3500","121"
"3312","弘憶股","603039","12348685","20.35","20.70","20.20","20.50","0.2500","341"
"3321","同泰","278484","3656284","13.10","13.25","12.90","13.20","0.1000","148"
"3338","泰碩","359388","17768229","49.25","49.90","49.05","49.40","-0.2000","281"
"3346","麗清","522421","23090081","44.45","44.75","43.85","43.90","-0.1500","385"
"3356","奇偶","184765","5253618","28.30","28.65","28.20","28.55","0.4000","141"
"3376","新日興","466200","52797419","113.50","114.00","112.50","113.00","0.0000","410"
"3380","明泰","2325189","67238227","29.25","29.25","28.60","28.85","-0.1000","1406"
"3383","新世紀","80234","368471","4.50","4.60","4.50","4.60","0.0000","12"
"3406","玉晶光","3334540","1640325595","496.00","502.00","485.00","488.50","-4.5000","3280"
"3413","京鼎","1394327","322460083","230.00","234.00","228.00","232.00","4.0000","1273"
"3416","融程電","36748","2724333","74.40","74.40","74.00","74.20","0.2000","36"
"3419","譁裕","578931","11275543","19.35","19.70","19.30","19.40","0.1000","290"
"3432","台端","124000","1600100","12.90","12.95","12.85","12.90","0.0000","51"
"3437","榮創","1298001","38900494","29.80","30.35","29.60","29.95","0.3500","712"
"3443","創意","845293","295829894","349.00","354.50","345.00","352.00","0.0000","845"
"3450","聯鈞","330864","19271924","58.30","59.00","57.50","58.00","0.3000","272"
"3454","晶睿","55363","4339835","77.90","79.50","77.80","78.90","1.1000","73"
"3481","群創","443029094","10306951187","23.40","23.75","22.65","23.30","0.1500","104533"
"3494","誠研","262000","878200","3.36","3.44","3.30","3.44","0.0700","73"
"3501","維熹","113340","5706137","50.50","50.60","50.00","50.60","0.0000","87"
"3504","揚明光","447362","34521271","76.70","78.30","76.20","76.60","0.3000","348"
"3515","華擎","552511","91391045","166.50","167.00","164.00","165.50","-0.5000","467"
"3518","柏騰","54023","1470340","27.30","27.45","27.05","27.30","0.1000","39"
"3528","安馳","27208","1260191","46.50","46.50","46.10","46.20","-0.3000","24"
"3530","晶相光","22523608","3140570888","133.00","146.00","132.50","138.00","5.0000","14103"
"3532","台勝科","2769885","480527581","169.50","178.50","167.50","176.00","8.5000","2187"
"3533","嘉澤","832794","471953576","574.00","579.00","554.00","573.00","-1.0000","979"
"3535","晶彩科","221132","3796464","17.10","17.30","17.00","17.20","0.0500","110"
"3536","誠創","145491","1262300","8.30","8.91","8.30","8.91","0.6100","63"
"3543","州巧","55151","1540713","28.00","28.10","27.75","27.90","0.0500","37"
"3545","敦泰","69537585","15663416548","223.00","233.50","214.50","230.00","14.0000","49325"
"3550","聯穎","254451","4624413","18.25","18.35","18.05","18.25","0.0000","171"
"3557","嘉威","107868","8977351","83.70","83.70","82.70","83.50","0.0000","83"
"3563","牧德","83394","19878493","240.00","241.00","235.00","239.50","1.5000","105"
"3576","聯合再生","14091754","188993499","13.45","13.60","13.30","13.30","-0.1500","4320"
"3583","辛耘","417100","25815600","61.80","63.20","61.30","61.40","0.2000","299"
"3588","通嘉","3475027","299988392","87.00","88.20","84.80","85.00","0.7000","2481"
"3591","艾笛森","325252","6536922","19.85","20.35","19.85","19.90","0.2500","203"
"3593","力銘","129073","1885951","14.25","15.15","14.20","14.30","0.1000","85"
"3596","智易","3121436","310823490","100.00","101.00","98.00","100.00","2.5000","2516"
"3605","宏致","2374514","110532391","46.40","47.10","46.00","46.35","0.0000","1385"
"3607","谷崧","274400","4041760","14.90","14.90","14.60","14.70","0.0000","155"
"3617","碩天","12197","1007605","82.70","82.70","82.30","82.70","0.4000","16"
"3622","洋華","415445","13916968","33.40","34.00","33.15","33.40","0.2000","281"
"3645","達邁","365987","17029573","46.70","47.20","45.80","46.85","0.1500","266"
"3653","健策","2031021","575924452","279.00","290.50","278.00","282.00","4.0000","1615"
"3661","世芯-KY","6212933","3530720183","568.00","583.00","552.00","567.00","9.0000","6305"
"3665","貿聯-KY","862433","206202714","240.50","242.00","238.00","238.00","-2.0000","768"
"3669","圓展","1259620","109595048","87.00","87.90","85.80","87.40","0.8000","864"
"3673","TPK-KY","1691137","79593255","47.00","47.50","46.70","47.10","0.4500","1021"
"3679","新至陞","133901","18303296","136.00","137.50","136.00","136.00","0.0000","129"
"3682","亞太電","19141506","174005638","8.93","9.22","8.86","9.17","0.3200","3409"
"3686","達能","507956","7882949","15.50","15.75","15.30","15.40","0.0000","283"
"3694","海華","324195","7679379","23.75","24.00","23.50","23.55","-0.2000","207"
"3701","大眾控","1298","18371","","","","","0.0000","23"
"3702","大聯大","2208435","112992340","51.80","51.80","50.70","51.30","-0.5000","1476"
"3702A","大聯大甲特","145350","7267394","50.00","50.00","50.00","50.00","0.0000","30"
"3703","欣陸","1452201","36349984","25.15","25.25","24.90","25.00","-0.1000","815"
"3704","合勤控","3426764","105831104","30.50","31.30","30.25","30.85","0.5000","1621"
"3705","永信","280580","12262637","43.60","43.90","43.55","43.70","0.1500","229"
"3706","神達","4444612","126353781","28.25","28.65","28.10","28.65","0.4500","1577"
"3708","上緯投控","1398095","160545109","116.00","117.50","113.50","114.50","-3.0000","1268"
"3711","日月光投控","8171305","910714328","112.00","112.50","110.50","112.00","1.0000","4296"
"3712","永崴投控","341707","10043682","29.15","29.60","29.15","29.30","0.2000","220"
"3714","富采","4853564","373014948","76.50","77.90","76.20","76.50","0.2000","2641"
"4104","佳醫","175130","10047891","57.50","57.70","57.10","57.30","-0.3000","155"
"4106","雃博","16627015","816724996","48.25","50.40","47.80","48.10","-0.1500","10446"
"4108","懷特","512830","12813750","24.90","25.20","24.85","25.00","0.2000","314"
"4119","旭富","207706","18059523","86.50","87.40","86.10","87.10","0.8000","201"
"4133","亞諾法","9159925","589226950","62.00","66.60","61.60","66.60","6.0000","6062"
"4137","麗豐-KY","91261","19320849","212.00","213.00","210.50","212.00","1.5000","88"
"4141","龍燈-KY","122552","1494826","12.10","12.35","12.10","12.15","0.1000","126"
"4142","國光生","4512905","241304620","53.90","54.20","53.10","53.30","-0.5000","2702"
"4148","全宇生技-KY","20000","683650","34.20","34.20","34.10","34.20","0.0000","15"
"4155","訊映","163038","4090245","25.20","25.30","24.95","25.10","0.1000","102"
"4164","承業醫","156537","5840177","37.50","37.50","37.15","37.25","-0.5500","137"
"4190","佐登-KY","106341","8287164","78.80","78.90","77.50","78.20","-0.6000","103"
"4306","炎洲","9169495","175263845","19.20","19.30","18.90","19.00","0.1000","3020"
"4414","如興","8409636","86284550","9.95","10.45","9.95","10.20","0.2900","2379"
"4426","利勤","566155","14359449","24.75","25.90","24.60","25.30","0.7000","306"
"4438","廣越","69590","9223664","131.50","134.00","131.00","132.00","0.0000","70"
"4439","冠星-KY","16099","2390152","148.50","149.00","147.00","147.00","-1.0000","18"
"4526","東台","271862","4245288","15.65","15.75","15.55","15.65","0.0500","202"
"4532","瑞智","525206","10843517","20.50","20.75","20.50","20.60","0.1000","326"
"4536","拓凱","472219","78057510","166.50","167.00","162.00","164.00","-2.5000","143"
"4540","全球傳動","147010","7682427","52.50","53.10","51.90","52.10","-0.1000","135"
"4545","銘鈺","103004","2867960","28.50","28.50","27.60","27.65","-0.3500","75"
"4551","智伸科","119800","20568154","175.50","175.50","170.50","171.50","-2.0000","137"
"4552","力達-KY","86683","2697362","31.05","31.35","30.90","31.00","-0.0500","63"
"4555","氣立","26000","1404800","54.40","54.50","53.60","54.00","0.1000","17"
"4557","永新-KY","7668","489441","63.80","63.90","63.80","63.90","0.1000","8"
"4560","強信-KY","155016","6459118","41.90","41.90","41.30","41.70","-0.2500","77"
"4562","穎漢","85000","1709000","20.55","20.55","19.90","20.20","-0.1000","72"
"4564","元翎","3942280","169494124","42.55","44.40","42.25","42.60","0.2000","2047"
"4566","時碩工業","133003","6347442","47.35","48.15","47.20","47.55","0.2000","102"
"4571","鈞興-KY","82010","11253375","136.00","138.50","135.00","137.50","0.5000","55"
"4572","駐龍","519786","54770205","101.00","106.50","100.50","106.50","9.5000","389"
"4576","大銀微系統","111744","13899024","124.50","125.50","123.00","124.50","1.0000","109"
"4581","光隆精密-KY","13006","477270","36.65","36.95","36.60","36.70","-0.1000","9"
"4720","德淵","2476221","38378606","15.20","15.65","15.20","15.45","0.2000","519"
"4722","國精化","182958","6215791","33.95","34.15","33.85","34.05","0.1000","143"
"4737","華廣","18300","1308609","71.20","72.40","70.90","71.70","0.5000","20"
"4739","康普","637532","49949990","79.70","79.80","77.70","78.20","-0.8000","522"
"4746","台耀","2585704","237694768","91.00","93.80","91.00","91.50","-0.5000","1918"
"4755","三福化","4211","265889","63.30","63.30","63.00","63.00","0.6000","7"
"4763","材料-KY","121659","13126582","107.50","108.50","107.50","108.00","1.0000","110"
"4764","雙鍵","6416","358318","56.60","56.60","55.60","56.00","0.3000","13"
"4766","南寶","31000","4653000","150.00","151.00","149.50","151.00","0.0000","29"
"4807","日成-KY","21113","507513","24.10","24.20","23.90","24.20","0.0000","22"
"4904","遠傳","1725448","112292696","65.00","65.30","64.80","65.30","0.3000","998"
"4906","正文","1424122","43008055","30.30","30.45","30.05","30.20","-0.0500","770"
"4912","聯德控股-KY","100704","18632979","185.00","186.50","183.00","185.50","2.5000","100"
"4915","致伸","1863922","97558014","52.50","52.70","52.10","52.30","0.0000","1347"
"4916","事欣科","299141","6947941","22.95","23.40","22.95","23.40","0.5000","173"
"4919","新唐","38628951","3330032444","84.50","88.30","83.80","85.70","2.7000","23966"
"4927","泰鼎-KY","740392","41620913","55.90","57.00","55.40","56.30","0.4000","502"
"4930","燦星網","1250223","32842162","25.10","27.00","25.10","26.40","1.4000","782"
"4934","太極","571335","13816218","24.10","24.50","24.00","24.00","-0.1000","335"
"4935","茂林-KY","3150195","331295629","104.00","106.50","102.00","105.50","1.5000","2122"
"4938","和碩","5368759","395191078","73.70","73.90","73.30","73.50","-0.1000","2833"
"4942","嘉彰","390398","16961602","43.60","43.75","43.30","43.50","-0.1000","263"
"4943","康控-KY","12060819","1000260816","84.20","85.70","80.50","82.70","2.7000","8114"
"4952","凌通","386879","20188800","51.70","52.80","51.60","52.30","0.6000","277"
"4956","光鋐","1236814","29133088","23.50","23.90","23.25","23.55","0.2500","584"
"4958","臻鼎-KY","2289308","222491383","97.50","97.90","96.30","97.30","0.4000","1375"
"4960","誠美材","9227563","114494111","12.30","12.65","12.20","12.30","0.1000","1697"
"4961","天鈺","21037675","6689176421","321.00","323.00","311.00","317.50","9.5000","16902"
"4967","十銓","18192234","1137216806","64.00","64.10","61.40","62.30","2.7000","10187"
"4968","立積","1973435","1017447321","505.00","523.00","505.00","522.00","21.0000","1879"
"4976","佳凌","5241448","434972692","82.70","84.30","81.50","82.50","0.6000","3553"
"4977","眾達-KY","210457","20956209","99.10","100.50","98.80","99.80","1.0000","161"
"4989","榮科","824019","32614508","39.75","39.95","39.15","39.50","-0.0500","512"
"4994","傳奇","108120","7090220","66.40","66.40","64.60","65.00","-0.6000","89"
"4999","鑫禾","174046","8613674","49.70","49.85","49.25","49.35","-0.0500","152"
"5007","三星","30523","1841614","60.20","60.50","60.10","60.10","-0.1000","31"
"5203","訊連","90095","7645992","85.00","85.50","84.70","84.70","-0.3000","90"
"5215","科嘉-KY","193148","22128455","114.50","116.00","113.50","114.00","0.5000","185"
"5225","東科-KY","52000","1098550","20.80","21.30","20.80","21.10","0.3000","29"
"5234","達興材料","34250","3067785","89.80","90.10","89.30","89.40","0.0000","38"
"5243","乙盛-KY","1237948","74790069","60.20","61.00","59.10","60.80","0.9000","839"
"5258","虹堡","188650","4112922","21.75","21.90","21.60","21.85","0.1000","85"
"5269","祥碩","543454","779197085","1420.00","1455.00","1415.00","1430.00","35.0000","751"
"5283","禾聯碩","54329","6497912","119.50","120.00","119.00","119.50","0.0000","72"
"5284","jpp-KY","92000","3900950","42.35","43.15","42.20","43.10","0.6000","44"
"5285","界霖","941475","72222978","76.00","77.60","75.60","76.50","0.5000","591"
"5288","豐祥-KY","67012","9286156","139.50","139.50","138.00","139.00","-0.5000","60"
"5388","中磊","887057","58737126","67.00","67.00","65.90","66.20","-0.2000","619"
"5434","崇越","2924305","369409511","124.50","125.00","123.50","125.00","0.0000","1309"
"5469","瀚宇博","2409779","107631922","44.75","45.05","44.40","44.65","0.0000","932"
"5471","松翰","3011859","279267652","93.50","93.50","91.90","92.70","-0.3000","1931"
"5484","慧友","50633","723735","14.20","14.35","14.20","14.35","0.2500","41"
"5515","建國","215112","2881890","13.35","13.45","13.30","13.40","0.0500","123"
"5519","隆大","935009","21198148","22.75","22.80","22.60","22.60","-0.1000","464"
"5521","工信","3220329","32682095","10.05","10.25","10.00","10.05","0.0700","730"
"5522","遠雄","443531","24627818","55.90","56.00","55.30","55.50","-0.4000","345"
"5525","順天","58172","1427189","24.85","24.85","24.35","24.55","0.0000","43"
"5531","鄉林","1121214","13646629","12.20","12.30","12.10","12.20","0.0500","426"
"5533","皇鼎","238484","3828998","16.15","16.15","16.00","16.05","0.0000","58"
"5534","長虹","275842","21695136","78.90","79.00","78.40","78.60","0.2000","211"
"5538","東明-KY","185011","8479597","44.80","47.00","44.80","45.50","0.9500","146"
"5546","永固-KY","66099","5189841","78.80","79.20","77.60","77.60","-2.0000","61"
"5607","遠雄港","11693460","411613962","33.75","36.30","33.20","36.30","3.3000","4949"
"5608","四維航","53286030","2064984019","38.70","39.80","37.50","38.30","0.6000","25941"
"5706","鳳凰","1713269","72565870","40.30","43.80","40.30","41.85","1.6000","1163"
"5871","中租-KY","1105178","226902654","205.00","206.00","204.00","206.00","1.0000","909"
"5871A","中租-KY甲特","16670","1653550","99.20","99.30","99.10","99.30","0.1000","27"
"5876","上海商銀","2412871","109790166","45.70","45.70","45.20","45.70","0.2000","1141"
"5880","合庫金","4665375","98629794","21.20","21.20","21.10","21.15","0.0500","1823"
"5906","台南-KY","84150","3340117","40.35","41.00","38.75","39.95","-0.8000","62"
"5907","大洋-KY","295000","5899450","19.80","20.15","19.80","20.05","0.2500","134"
"6005","群益證","4677416","83008951","17.75","17.85","17.65","17.75","0.0500","1486"
"6024","群益期","1141833","50190196","44.00","44.05","43.90","43.95","0.0000","550"
"6108","競國","134102","2611718","19.55","19.65","19.40","19.50","0.1000","76"
"6112","聚碩","170233","7141143","41.75","42.10","41.75","41.90","-0.2500","145"
"6115","鎰勝","73070","3217069","43.90","44.30","43.50","44.15","0.0500","74"
"6116","彩晶","336565319","8207381216","24.25","25.00","23.50","24.30","0.4000","81176"
"6117","迎廣","5000","80000","16.00","16.00","16.00","16.00","0.0000","1"
"6120","達運","1133213","16118011","14.20","14.35","14.05","14.15","0.1000","441"
"6128","上福","46245","1179358","25.30","25.75","25.20","25.35","0.0500","40"
"6133","金橋","187019","1717638","9.20","9.25","9.15","9.17","0.0100","68"
"6136","富爾特","230762","4055335","17.50","17.65","17.50","17.55","0.0500","101"
"6139","亞翔","294982","8711338","29.10","29.80","29.10","29.70","0.4000","207"
"6141","柏承","241046","6687181","27.65","27.90","27.55","27.65","-0.1500","149"
"6142","友勁","931574","12419710","13.20","13.45","13.20","13.45","-0.0500","456"
"6152","百一","662358","7061679","10.65","10.80","10.50","10.80","0.1500","276"
"6153","嘉聯益","1663989","50335049","30.15","30.70","29.90","30.25","0.1000","921"
"6155","鈞寶","1300003","34993109","26.75","27.40","26.45","26.70","0.6000","797"
"6164","華興","401669","4074743","10.05","10.20","10.05","10.20","0.2000","174"
"6165","浪凡","194117","5989734","30.50","31.35","30.50","30.95","0.5500","143"
"6166","凌華","164019","10083365","61.90","62.20","60.80","61.50","-0.2000","111"
"6168","宏齊","1399774","29413396","20.95","21.25","20.80","21.00","0.2000","623"
"6172","互億","254668","9244193","36.55","37.80","35.15","37.80","0.3500","194"
"6176","瑞儀","926920","110516317","118.50","120.00","118.50","119.00","0.5000","611"
"6177","達麗","414817","12210400","29.60","29.65","29.25","29.25","-0.1500","176"
"6183","關貿","101575","5031636","49.50","49.75","49.25","49.75","0.5500","100"
"6184","大豐電","176500","7946274","44.90","45.45","44.90","45.10","0.1000","77"
"6189","豐藝","322163","12931606","40.25","40.25","40.05","40.20","0.0000","229"
"6191","精成科","3827728","122100296","31.90","32.25","31.55","32.05","0.3500","1688"
"6192","巨路","72420","5164020","70.70","71.80","70.70","71.20","0.2000","73"
"6196","帆宣","409353","42284853","102.50","104.00","102.00","104.00","2.5000","360"
"6197","佳必琪","245609","9376601","37.90","38.35","37.90","38.35","0.4000","177"
"6201","亞弘電","28127","1293857","45.90","46.20","45.90","45.90","0.0500","31"
"6202","盛群","1072273","102353902","94.70","96.00","94.60","95.40","1.1000","856"
"6205","詮欣","93281","2888161","31.00","31.10","30.85","30.90","-0.0500","71"
"6206","飛捷","106014","6837812","64.20","64.80","64.00","64.60","0.4000","98"
"6209","今國光","671003","22821919","33.95","34.35","33.70","33.90","0.2000","377"
"6213","聯茂","499546","61884044","123.00","125.00","122.50","124.50","2.0000","414"
"6214","精誠","150735","13259093","88.00","88.20","87.80","87.80","-0.1000","146"
"6215","和椿","557194","12473206","22.15","22.55","22.15","22.50","0.4000","265"
"6216","居易","38200","968949","25.45","25.45","25.30","25.30","-0.0500","35"
"6224","聚鼎","485140","55264455","114.00","115.50","111.50","114.00","1.5000","425"
"6225","天瀚","2336","9310","4.04","4.04","4.00","4.00","0.0800","4"
"6226","光鼎","736291","6771221","9.14","9.29","9.13","9.17","0.0300","301"
"6230","尼得科超眾","93142","19912142","210.50","215.00","210.00","214.50","2.5000","88"
"6235","華孚","387984","7200347","18.40","18.90","18.35","18.50","0.1000","207"
"6239","力成","3334557","353278917","107.00","107.50","104.50","106.50","-0.5000","1822"
"6243","迅杰","582813","9771072","16.60","17.00","16.50","16.70","0.1500","336"
"6251","定穎","3333146","66644090","20.00","20.20","19.65","20.15","0.3500","1338"
"6257","矽格","4695951","240922539","51.00","52.00","50.70","52.00","1.5000","2017"
"6269","台郡","1116063","131776583","118.00","119.00","117.50","118.50","1.0000","678"
"6271","同欣電","1147570","209587899","182.00","184.50","179.00","183.50","3.5000","1008"
"6277","宏正","103305","8777630","85.00","85.30","84.80","85.10","0.5000","91"
"6278","台表科","6253315","762820582","123.50","123.50","120.50","122.00","1.0000","3199"
"6281","全國電","41375","3389726","81.90","82.40","81.60","82.30","0.4000","42"
"6282","康舒","1666687","44838443","27.00","27.20","26.75","26.85","0.0500","867"
"6283","淳安","1556224","73408133","47.60","48.40","46.55","46.55","-0.7000","892"
"6285","啟碁","459981","30711760","67.00","67.20","66.50","66.60","-0.3000","381"
"6288","聯嘉","733588","20962105","28.80","28.95","28.35","28.40","-0.5000","456"
"6289","華上","18239","54437","3.03","3.03","2.86","3.03","0.0000","14"
"6405","悅城","839476","25047556","29.35","30.50","29.10","30.50","1.4500","468"
"6409","旭隼","107915","135337065","1290.00","1290.00","1235.00","1260.00","-15.0000","153"
"6412","群電","344314","23700948","69.20","69.60","68.50","68.70","-0.4000","300"
"6414","樺漢","327364","67900128","209.00","209.00","206.50","207.00","0.0000","301"
"6415","矽力-KY","517465","1873908525","3560.00","3740.00","3425.00","3475.00","-80.0000","710"
"6416","瑞祺電通","638748","76013564","118.00","120.50","117.00","119.50","1.5000","551"
"6426","統新","48197","4053332","85.40","85.40","83.50","83.60","0.2000","42"
"6431","光麗-KY","6002","188159","31.80","31.80","30.80","30.80","0.5000","8"
"6438","迅得","1559953","152890034","96.20","99.80","96.10","98.60","3.6000","1167"
"6442","光聖","32000","1044700","32.50","33.20","32.00","33.20","0.4000","7"
"6443","元晶","7991574","264304641","33.25","33.60","32.80","32.90","-0.2500","4243"
"6449","鈺邦","120047","7613089","63.80","63.80","62.70","63.10","-0.6000","96"
"6451","訊芯-KY","355243","40182694","113.00","114.50","112.00","113.00","0.5000","257"
"6456","GIS-KY","2288492","236597286","105.00","105.00","102.50","103.00","-1.0000","1674"
"6464","台數科","25000","2735500","109.50","110.00","109.00","109.00","0.0000","21"
"6477","安集","1322653","60865470","46.10","46.50","45.45","45.90","0.4000","818"
"6491","晶碩","1728986","875501803","525.00","529.00","490.00","511.00","-21.0000","1874"
"6504","南六","247832","41169581","166.50","167.00","165.50","165.50","0.0000","246"
"6505","台塑化","5665915","607714027","108.50","109.00","105.00","106.00","0.0000","3614"
"6515","穎崴","40722","11175224","266.00","280.00","266.00","275.50","10.0000","73"
"6525","捷敏-KY","105024","8063688","77.20","77.50","76.20","76.70","0.1000","101"
"6531","愛普","2466086","1738263698","706.00","720.00","688.00","720.00","27.0000","2366"
"6533","晶心科","1433701","652050448","455.00","462.00","447.00","459.00","10.5000","1468"
"6541","泰福-KY","619323","35188599","57.20","57.90","56.30","56.60","-0.6000","463"
"6552","易華電","106922","5660711","53.30","53.60","52.50","52.70","0.2000","100"
"6558","興能高","195510","7663842","39.15","39.60","38.90","39.40","0.2500","159"
"6573","虹揚-KY","1284582","24926926","20.25","20.25","18.75","18.85","0.1500","718"
"6579","研揚","4000","275400","68.70","68.90","68.70","68.90","-1.4000","3"
"6581","鋼聯","73600","5454900","73.70","74.60","73.70","74.60","0.9000","58"
"6582","申豐","1065608","312529342","291.50","297.50","288.00","294.50","7.0000","1016"
"6591","動力-KY","344311","23271145","67.50","68.20","66.80","67.70","0.6000","237"
"6592","和潤企業","644920","54523251","83.70","85.00","83.70","84.30","0.1000","288"
"6598","ABC-KY","843165","38783581","45.50","46.50","45.20","46.20","1.5000","711"
"6605","帝寶","113451","6562024","58.00","58.10","57.50","58.00","-0.3000","113"
"6625","必應","7479","216430","28.60","29.60","28.60","29.35","0.8500","12"
"6641","基士德-KY","11090","753138","67.80","68.10","67.80","67.90","-0.3000","12"
"6655","科定","9146","657040","71.80","72.00","71.80","71.90","0.1000","12"
"6666","羅麗芬-KY","24131","1862539","77.90","78.00","76.20","77.70","1.5000","30"
"6668","中揚光","783664","54688737","70.50","70.90","69.10","69.20","-1.3000","621"
"6669","緯穎","321233","291781299","906.00","917.00","900.00","906.00","0.0000","273"
"6670","復盛應用","313772","68221419","223.00","223.00","215.50","215.50","-5.5000","312"
"6671","三能-KY","21004","1010642","47.55","48.20","47.55","48.20","0.0000","9"
"6672","騰輝電子-KY","12139408","1524284113","118.00","129.00","118.00","129.00","11.5000","6920"
"6674","鋐寶科技","31500","937599","29.30","30.10","29.25","29.50","0.3000","33"
"6698","旭暉應材","72008","2981780","41.50","41.80","41.05","41.50","0.1000","55"
"6706","惠特","1208919","203997586","171.50","171.50","166.50","167.00","-1.0000","1049"
"6715","嘉基","69000","7363500","106.00","107.50","105.50","107.50","1.0000","54"
"6743","安普新","370381","44418903","117.50","122.00","116.50","121.00","4.5000","361"
"6754","匯僑設計","92000","4241950","45.40","46.40","45.40","46.25","0.4000","76"
"6756","威鋒電子","200023","49847353","249.50","252.00","245.50","250.00","3.5000","227"
"6768","志強-KY","95030","6945569","72.40","73.60","72.40","72.50","0.0000","67"
"6776","展碁國際","142790","5592698","39.05","39.65","38.85","39.10","0.1000","122"
"6781","AES-KY","220635","181862439","820.00","837.00","809.00","819.00","-1.0000","348"
"8011","台通","725206","13183217","18.30","18.35","18.00","18.20","0.1500","363"
"8016","矽創","5918495","1648826705","279.50","283.50","274.00","277.00","3.0000","4800"
"8021","尖點","3250993","126906300","38.80","39.75","38.25","39.00","0.8000","2030"
"8028","昇陽半導體","248254","11657544","46.65","47.40","46.50","47.00","0.3500","188"
"8033","雷虎","453411","7310351","16.05","16.25","16.00","16.20","0.0500","244"
"8039","台虹","785795","37950608","48.55","48.80","48.05","48.15","-0.3500","569"
"8046","南電","19056101","6344215220","328.50","340.50","325.00","335.50","16.0000","14522"
"8070","長華*","1477576","49428953","33.65","33.75","33.25","33.30","-0.3500","1021"
"8072","陞泰","16585","416607","25.00","25.45","25.00","25.00","0.1000","34"
"8081","致新","1000824","215778106","216.00","217.50","213.00","217.50","2.5000","863"
"8101","華冠","63448","176956","2.80","2.80","2.75","2.75","-0.0500","29"
"8103","瀚荃","956799","40007789","42.00","42.15","41.45","41.85","-0.0500","629"
"8104","錸寶","155446","7779868","50.10","50.40","49.70","50.00","0.1000","102"
"8105","凌巨","1919860","27754272","14.30","14.60","14.25","14.35","0.1500","740"
"8110","華東","6564764","104970800","15.80","16.30","15.50","15.90","0.3000","2195"
"8112","至上","2327667","93213050","40.05","40.25","39.90","39.95","0.0000","1323"
"8114","振樺電","23571","1671493","70.90","71.10","70.80","71.00","0.2000","27"
"8131","福懋科","463948","18458516","40.00","40.05","39.60","39.80","-0.1000","274"
"8150","南茂","7919275","369211560","47.50","47.65","46.20","46.45","-0.6000","4390"
"8163","達方","1391413","59404839","42.65","43.05","42.35","42.80","0.2500","731"
"8201","無敵","78799","804369","10.00","10.45","10.00","10.10","0.1700","50"
"8210","勤誠","186675","13608414","73.00","73.40","72.60","72.80","-0.4000","216"
"8213","志超","864895","41909421","48.40","48.65","48.30","48.55","0.2000","514"
"8215","明基材","2756493","74570902","27.15","27.30","26.80","27.00","0.2000","1374"
"8222","寶一","1596702","22935460","13.50","14.55","13.50","14.55","1.3000","786"
"8249","菱光","168607","3750836","22.40","22.40","22.15","22.30","0.0500","139"
"8261","富鼎","4983791","334353748","66.80","67.90","66.10","66.80","1.3000","3093"
"8271","宇瞻","1375380","63743404","46.20","46.70","46.00","46.10","0.4000","860"
"8341","日友","158337","34961461","224.00","225.00","218.00","221.50","0.0000","355"
"8367","建新國際","4236982","172235821","39.30","41.40","39.00","41.40","3.7500","2169"
"8374","羅昇","855564","23386800","26.65","28.35","26.65","27.60","1.7000","501"
"8404","百和興業-KY","8211101","420034591","49.50","53.00","49.10","49.95","1.2500","4670"
"8411","福貞-KY","57033","797086","14.05","14.05","13.90","14.05","0.0500","76"
"8422","可寧衛","202903","35554586","176.50","176.50","174.50","175.50","-1.0000","234"
"8427","基勝-KY","1000","50900","50.90","50.90","50.90","50.90","0.4000","1"
"8429","金麗-KY","5443613","74683583","13.20","14.30","13.15","14.30","1.2000","2262"
"8442","威宏-KY","14000","548600","39.40","39.60","38.80","39.60","0.4500","8"
"8443","阿瘦","111953","1305803","11.75","11.80","11.55","11.70","0.0500","88"
"8454","富邦媒","346267","467974070","1350.00","1375.00","1320.00","1365.00","20.0000","707"
"8462","柏文","107607","15530728","146.50","146.50","143.00","143.00","-3.5000","366"
"8463","潤泰材","28000","1014450","36.70","36.70","36.05","36.35","-0.1000","24"
"8464","億豐","288336","119714483","417.50","421.50","411.50","415.00","-2.5000","276"
"8466","美吉吉-KY","12000","694700","59.80","59.80","57.50","58.00","0.1000","12"
"8467","波力-KY","1018","42205","41.45","41.45","41.45","41.45","0.9500","2"
"8473","山林水","390101","15938668","41.30","41.30","40.50","40.75","-0.7500","280"
"8478","東哥遊艇","43000","2325100","53.40","54.40","53.40","53.80","0.2000","37"
"8480","泰昇-KY","2005","223580","111.50","111.50","111.50","111.50","0.0000","3"
"8481","政伸","29000","2355500","82.80","82.90","80.80","81.40","0.4000","29"
"8482","商億-KY","6099","468582","77.90","77.90","75.20","76.70","1.1000","8"
"8488","吉源-KY","15163","239145","15.80","15.95","15.40","15.85","0.5500","21"
"8499","鼎炫-KY","58330","7872849","135.00","136.00","134.50","135.50","1.5000","59"
"8926","台汽電","456846","17804453","39.20","39.20","38.85","38.95","-0.1500","263"
"8940","新天地","179517","2098322","11.20","12.15","11.20","11.90","0.7000","133"
"8996","高力","106228","4786412","45.30","45.30","44.85","45.10","0.3000","80"
"9103","美德醫療-DR","7943454","202143982","25.90","26.20","25.05","25.45","-0.5500","4123"
"910322","康師傅-DR","11005","291995","26.40","26.75","26.40","26.50","0.1000","10"
"9105","泰金寶-DR","62353900","296845124","4.45","4.89","4.45","4.74","0.1200","5680"
"910861","神州-DR","422000","4026290","9.32","9.69","9.32","9.69","0.3000","50"
"9110","越南控-DR","412132","1233097","2.99","3.03","2.98","2.99","0.0100","104"
"911608","明輝-DR","110050","442041","4.04","4.08","3.96","4.05","-0.0400","40"
"911616","杜康-DR","129498","229279","1.76","1.80","1.76","1.80","0.0100","34"
"911622","泰聚亨-DR","120000","744050","6.33","6.33","6.11","6.18","-0.0700","56"
"911868","同方友友-DR","2214000","3301870","1.56","1.58","1.44","1.49","-0.0700","382"
"912000","晨訊科-DR","1942072","5509403","2.84","2.87","2.82","2.83","0.0000","353"
"912398","友佳-DR","142495","645642","4.53","4.64","4.48","4.52","0.0200","75"
"9136","巨騰-DR","102000","871580","8.50","8.62","8.50","8.57","0.0700","58"
"9188","精熙-DR","218033","653859","3.00","3.02","2.99","3.01","0.0200","57"
"9802","鈺齊-KY","916446","110619575","123.00","123.00","119.50","120.00","-3.0000","552"
"9902","台火","1261529","17447119","13.75","14.10","13.35","13.65","0.2000","546"
"9904","寶成","16980915","649096338","37.95","38.50","37.70","38.50","0.6500","7255"
"9905","大華","150407","3939666","26.25","26.25","26.10","26.25","0.1500","97"
"9906","欣巴巴","22050","952300","43.70","43.70","42.70","43.30","0.0000","21"
"9907","統一實","5015700","69174259","13.90","13.95","13.65","13.80","-0.1000","1840"
"9908","大台北","30370","1023569","33.70","33.75","33.70","33.70","-0.0500","35"
"9910","豐泰","988649","231005620","239.00","239.00","231.00","233.00","-7.0000","761"
"9911","櫻花","520019","36089625","68.80","69.70","68.60","69.60","0.8000","395"
"9912","偉聯","95477","906800","9.70","9.70","9.38","9.58","-0.1000","65"
"9914","美利達","1289697","407890077","323.00","324.00","311.00","316.00","-10.0000","1346"
"9917","中保科","257441","23864656","92.90","93.10","92.30","92.80","-0.1000","266"
"9918","欣天然","3398","135869","40.00","40.00","40.00","40.00","0.0000","16"
"9919","康那香","2999818","108643606","36.15","36.40","36.00","36.30","0.2500","1616"
"9921","巨大","671405","219100474","335.50","335.50","323.00","323.00","-12.5000","730"
"9924","福興","86256","3876813","45.00","45.05","44.75","44.95","0.2000","69"
"9925","新保","327798","12744603","38.80","39.00","38.70","38.90","0.1000","204"
"9926","新海","4200","201358","48.10","48.10","47.90","47.90","0.0000","8"
"9927","泰銘","1422048","48008759","33.25","33.95","33.25","33.95","0.7500","637"
"9928","中視","4131","23226","5.55","5.59","5.55","5.59","-0.1700","11"
"9929","秋雨","12099","145233","12.00","12.10","12.00","12.00","0.2000","21"
"9930","中聯資源","99795","4712795","47.25","47.40","47.15","47.30","0.0500","95"
"9931","欣高","1077","43281","40.20","40.20","40.20","40.20","0.3500","5"
"9933","中鼎","866500","32898798","38.10","38.10","37.90","38.00","-0.0500","550"
"9934","成霖","533012","9061220","16.95","17.10","16.85","17.00","0.1000","201"
"9935","慶豐富","255367","5735031","22.75","22.75","22.20","22.70","0.3000","127"
"9937","全國","44544","2118162","47.45","47.80","47.40","47.80","0.4500","32"
"9938","百和","9963679","1011355677","96.00","103.50","95.50","102.50","8.0000","5545"
"9939","宏全","1462216","104941089","72.70","72.70","71.30","72.00","-0.9000","1061"
"9940","信義","387258","12280273","31.95","31.95","31.60","31.70","-0.2500","295"
"9941","裕融","243137","32839507","136.00","136.00","134.50","135.00","-0.5000","249"
"9941A","裕融甲特","1796","92353","51.20","51.20","51.20","51.20","0.0000","2"
"9942","茂順","150972","13882586","93.00","93.50","91.50","91.80","-0.8000","148"
"9943","好樂迪","134967","8585934","64.00","64.00","63.30","63.70","0.0000","150"
"9944","新麗","473000","10272805","21.75","21.80","21.60","21.80","0.1000","231"
"9945","潤泰新","2251459","118471353","52.60","52.80","52.50","52.70","0.2000","1221"
"9946","三發地產","211989","3166901","14.85","15.05","14.85","15.00","0.1000","110"
"9955","佳龍","306283","6116842","20.15","20.15","19.80","19.90","0.0500","190"
"9958","世紀鋼","3336053","385317081","116.00","117.00","114.00","116.00","1.0000","1807"
