證券代號,證券名稱,成交股數,成交金額,開盤價,最高價,最低價,收盤價,漲跌價差,成交筆數
"0050","元大台灣50","9754500","1320088577","134.90","135.90","134.30","135.80","2.2500","7907"
"0051","元大中型100","107356","5734564","52.90","53.85","52.90","53.70","0.8000","82"
"0052","富邦科技","1082726","133511532","122.50","123.70","122.30","123.50","2.2000","580"
"0053","元大電子","20222","1308214","64.20","65.00","64.20","65.00","1.4500","31"
"0054","元大台商50","3000","92850","31.00","31.00","30.92","30.93","0.4200","3"
"0055","元大MSCI金融","176303","3708621","20.91","21.13","20.89","21.06","0.1700","87"
"0056","元大高股息","8746363","301477893","34.50","34.55","34.32","34.55","0.2700","4620"
"0057","富邦摩台","31003","2846374","91.20","92.15","91.10","92.15","1.3000","5"
"0061","元大寶滬深","305900","7571533","24.89","24.89","24.66","24.73","0.0100","125"
"006203","元大MSCI台灣","9318","593633","63.45","64.10","63.45","64.10","1.3500","11"
"006204","永豐臺灣加權","21112","1817360","86.10","86.10","85.95","85.95","1.7500","6"
"006205","富邦上証","1985733","79235331","39.75","40.11","39.75","39.95","0.2500","350"
"006206","元大上證50","411515","16589631","40.20","40.51","40.10","40.35","0.2100","134"
"006207","FH滬深","397000","12823320","32.19","32.48","32.17","32.31","0.2100","73"
"006208","富邦台50","1665023","129712437","77.60","78.15","77.30","78.05","1.0500","1491"
"00625K","富邦上証+R","","","","","","","0.0000",""
"00631L","元大台灣50正2","3891168","462982423","118.50","120.00","117.40","120.00","4.3000","1807"
"00632R","元大台灣50反1","253516184","1485353161","5.89","5.91","5.83","5.83","-0.1200","15035"
"00633L","富邦上証正2","6903791","514594042","75.05","75.40","73.70","74.90","0.7000","1392"
"00634R","富邦上証反1","769000","2806280","3.65","3.67","3.64","3.65","-0.0200","45"
"00635U","期元大S&P黃金","459020","11646888","25.46","25.46","25.33","25.35","-0.1000","237"
"00636","國泰中國A50","3222565","93102350","28.82","29.10","28.78","29.00","0.1800","532"
"00636K","國泰中國A50+U","200","2084","10.42","10.42","10.42","10.42","0.0600","2"
"00637L","元大滬深300正2","45653596","1349068041","29.74","29.88","29.18","29.68","0.3200","6812"
"00638R","元大滬深300反1","598170","4389977","7.34","7.39","7.30","7.30","-0.0700","96"
"00639","富邦深100","1235189","21739850","17.61","17.67","17.55","17.63","0.0900","233"
"00640L","富邦日本正2","439596","12614177","28.55","28.77","28.55","28.76","1.1200","101"
"00641R","富邦日本反1","744000","7927570","10.71","10.71","10.63","10.63","-0.2200","148"
"00642U","期元大S&P石油","29001109","330760354","11.39","11.43","11.38","11.39","0.2100","3548"
"00643","群益深証中小","806123","14857553","18.41","18.49","18.34","18.41","0.1100","226"
"00643K","群益深証中小+R","","","","","","","0.0000",""
"00645","富邦日本","126639","3239286","25.54","25.65","25.54","25.65","0.6200","61"
"00646","元大S&P500","163747","5875304","35.95","35.95","35.80","35.84","0.1300","143"
"00647L","元大S&P500正2","61000","3819100","62.60","62.70","62.55","62.55","0.8000","28"
"00648R","元大S&P500反1","2229000","16333610","7.33","7.34","7.32","7.33","-0.0600","145"
"00650L","FH香港正2","1880400","59131450","31.37","31.56","31.09","31.44","0.3900","116"
"00651R","FH香港反1","207000","1390260","6.75","6.75","6.70","6.70","-0.0500","27"
"00652","富邦印度","465167","12157161","25.91","26.27","25.91","26.20","0.3000","165"
"00653L","富邦印度正2","804320","29879434","37.11","37.30","37.00","37.05","0.4700","246"
"00654R","富邦印度反1","807099","7518431","9.41","9.41","9.29","9.32","-0.0900","192"
"00655L","國泰中國A50正2","2341170","132203623","56.70","57.10","55.65","56.70","0.7500","786"
"00656R","國泰中國A50反1","358000","2404830","6.72","6.74","6.69","6.69","-0.0500","19"
"00657","國泰日經225","101001","3595674","35.60","35.64","35.60","35.64","0.8000","4"
"00657K","國泰日經225+U","200","2566","12.83","12.83","12.83","12.83","0.2800","2"
"00660","元大歐洲50","25020","724455","28.95","28.97","28.94","28.96","0.2100","8"
"00661","元大日經225","2029","73146","36.00","36.12","36.00","36.12","0.0000","3"
"00662","富邦NASDAQ","196203","9579891","48.92","48.92","48.80","48.83","0.0000","100"
"00663L","國泰臺灣加權正2","91022","9792916","106.50","108.05","105.70","107.80","4.6500","21"
"00664R","國泰臺灣加權反1","14652010","97223944","6.67","6.70","6.61","6.63","-0.1200","1100"
"00665L","富邦恒生國企正2","234000","5828660","24.83","25.05","24.78","24.86","0.2400","57"
"00666R","富邦恒生國企反1","73000","792730","10.86","10.86","10.83","10.83","-0.0800","4"
"00668","國泰美國道瓊","32928","1146845","34.84","34.90","34.79","34.86","0.3000","18"
"00668K","國泰美國道瓊+U","200","2510","12.55","12.55","12.55","12.55","0.2100","2"
"00669R","國泰美國道瓊反1","6185000","49642810","8.03","8.04","8.02","8.04","-0.0800","504"
"00670L","富邦NASDAQ正2","299150","27052385","90.65","90.65","90.30","90.35","0.4500","87"
"00671R","富邦NASDAQ反1","5503250","32539862","5.91","5.93","5.91","5.91","-0.0300","173"
"00673R","期元大S&P原油反1","3006000","50553680","16.82","16.86","16.79","16.85","-0.2900","474"
"00674R","期元大S&P黃金反1","133007","1676828","12.59","12.63","12.59","12.63","0.0400","35"
"00675L","富邦臺灣加權正2","797084","36581719","45.58","46.30","45.29","46.30","1.7400","459"
"00676R","富邦臺灣加權反1","18160474","65671441","3.63","3.64","3.60","3.62","-0.0500","897"
"00677U","期富邦VIX","195555984","285562113","1.46","1.47","1.46","1.46","-0.0800","3970"
"00678","群益NBI生技","448091","12104048","26.97","27.06","26.94","27.00","0.1400","29"
"00680L","元大美債20正2","10000","222730","22.27","22.30","22.25","22.25","-0.2600","7"
"00681R","元大美債20反1","138000","1972740","14.28","14.30","14.27","14.30","0.0700","14"
"00682U","期元大美元指數","259050","4641025","17.91","17.94","17.88","17.94","0.0400","54"
"00683L","期元大美元指正2","480000","7875980","16.41","16.43","16.39","16.41","0.0400","147"
"00684R","期元大美元指反1","","","","","","","0.0000",""
"00685L","群益臺灣加權正2","17000","686820","40.29","40.50","40.26","40.50","1.5700","9"
"00686R","群益臺灣加權反1","727000","2867460","3.96","3.97","3.92","3.92","-0.0800","48"
"00688L","國泰20年美債正2","98000","2179830","22.32","22.32","22.22","22.23","-0.2700","14"
"00689R","國泰20年美債反1","98000","1473530","15.02","15.05","15.02","15.05","0.1100","17"
"00690","兆豐藍籌30","29739","959898","32.26","32.35","32.25","32.31","0.3700","32"
"00692","富邦公司治理","2440102","84543780","34.46","34.82","34.39","34.80","0.5900","1218"
"00693U","期街口S&P黃豆","1429985","33495656","23.50","23.53","23.36","23.38","0.6800","401"
"00700","富邦恒生國企","137226","2627238","19.21","19.28","19.07","19.14","0.0500","39"
"00701","國泰股利精選30","741919","17754582","23.90","23.98","23.77","23.95","0.2500","457"
"00702","國泰標普低波高息","127078","2624864","20.67","20.67","20.63","20.64","0.0500","19"
"00703","台新MSCI中國","55020","1359510","24.75","24.75","24.68","24.69","0.0100","16"
"00706L","期元大S&P日圓正2","58000","928020","16.00","16.01","15.99","16.01","-0.2400","26"
"00707R","期元大S&P日圓反1","","","","","","","0.0000",""
"00708L","期元大S&P黃金正2","2382270","70204024","29.57","29.57","29.31","29.39","-0.2100","478"
"00709","富邦歐洲","107454","2560832","23.82","23.85","23.81","23.84","0.0600","18"
"00710B","FH彭博高收益債","296024","5445195","18.44","18.44","18.38","18.39","-0.0100","116"
"00711B","FH彭博新興債","8806","175243","19.90","19.95","19.90","19.90","-0.0900","16"
"00712","FH富時不動產","1294651","18627950","14.39","14.40","14.37","14.38","0.0300","625"
"00713","元大台灣高息低波","33063","1391078","42.00","42.23","41.87","42.06","0.2700","55"
"00714","群益道瓊美國地產","17000","358770","21.14","21.14","21.09","21.13","-0.0100","6"
"00715L","期街口布蘭特正2","58302681","446029720","7.62","7.68","7.62","7.63","0.2100","3960"
"00717","富邦美國特別股","558653","9318296","16.68","16.70","16.67","16.68","0.0000","121"
"00728","第一金工業30","437853","12234000","27.85","28.05","27.75","27.98","0.2400","241"
"00730","富邦臺灣優質高息","402888","8485389","21.06","21.10","21.01","21.08","0.2300","247"
"00731","FH富時高息低波","263785","15112820","57.10","57.30","57.10","57.25","0.6000","26"
"00732","國泰RMB短期報酬","100000","3990000","39.90","39.90","39.90","39.90","0.0500","2"
"00733","富邦臺灣中小","614542","25999338","41.81","42.50","41.78","42.34","1.0600","343"
"00735","國泰臺韓科技","61840","2056318","32.97","33.44","32.97","33.40","0.6000","22"
"00736","國泰新興市場","120233","2828050","23.44","23.56","23.44","23.54","0.2100","10"
"00737","國泰AI+Robo","219122","6963404","31.65","31.84","31.65","31.75","0.2500","70"
"00738U","期元大道瓊白銀","1840355","52948174","28.79","28.83","28.68","28.69","0.0900","288"
"00739","元大MSCI A股","303968","8978121","29.43","29.62","29.43","29.54","0.2400","97"
"00742","新光內需收益","76779","1697430","21.90","22.19","21.85","22.08","0.1700","25"
"00743","國泰中國A150","109682","3331531","30.39","30.48","30.35","30.43","0.1300","18"
"00752","中信中國50","769962","22429486","29.15","29.21","29.08","29.16","0.1300","404"
"00753L","中信中國50正2","591000","22084490","37.17","37.61","37.11","37.45","0.4000","178"
"00757","統一FANG+","552558","25264582","45.76","45.76","45.63","45.70","0.1600","416"
"00762","元大全球AI","42250","1594371","37.50","37.81","37.50","37.71","0.2100","27"
"00763U","期街口道瓊銅","726426","22041864","30.32","30.50","30.21","30.33","0.9300","336"
"00770","國泰北美科技","7067","244095","34.59","34.59","34.53","34.53","-0.0600","9"
"00771","元大US高息特別股","15497","292743","18.85","18.95","18.85","18.91","0.0000","29"
"00774B","新光中國政金綠債","2000","78740","39.37","39.37","39.37","39.37","0.0000","2"
"00774C","新光中政金綠債+R","","","","","","","0.0000",""
"00775B","新光投等債15+","2000","81200","40.60","40.60","40.60","40.60","-0.2000","2"
"00783","富邦中証500","574867","13151911","22.96","22.96","22.83","22.83","0.1100","26"
"008201","BP上證50","1","98","","","","","0.0000","1"
"00830","國泰費城半導體","2230953","61533908","27.53","27.67","27.44","27.64","0.2500","594"
"00850","元大臺灣ESG永續","2395983","80785539","33.53","33.82","33.40","33.82","0.5400","1081"
"00851","台新全球AI","2409","72109","29.96","29.96","29.91","29.91","-0.1700","4"
"00852L","國泰美國道瓊正2","352020","7349197","20.86","20.91","20.85","20.85","0.3800","104"
"00861","元大全球未來通訊","911182","25826623","28.29","28.37","28.27","28.33","0.1500","222"
"00865B","國泰US短期公債","115073","4210284","36.54","36.60","36.50","36.50","-0.2000","8"
"00875","國泰網路資安","275206","8496579","30.75","30.95","30.75","30.90","0.1700","146"
"00876","元大未來關鍵科技","2606962","74303324","28.46","28.56","28.39","28.53","0.2900","597"
"00878","國泰永續高股息","7136458","129698845","18.11","18.22","18.07","18.19","0.1800","3099"
"00881","國泰台灣5G+","27318441","472884794","17.28","17.35","17.21","17.34","0.2100","7742"
"00882","中信中國高股息","3588899","58106047","16.15","16.22","16.15","16.18","0.0700","1248"
"00885","富邦越南","6663124","102853149","15.47","15.47","15.40","15.45","-0.0300","2842"
"00891","中信關鍵半導體","136367951","2099221391","15.50","15.57","15.26","15.30","0.3200","42546"
"01001T","土銀富邦R1","185000","3320580","17.99","17.99","17.91","17.95","0.0000","26"
"01002T","土銀國泰R1","195002","3552109","18.24","18.24","18.18","18.20","-0.0400","66"
"01003T","兆豐新光R1","179000","3415280","19.06","19.20","19.06","19.07","0.0000","23"
"01004T","土銀富邦R2","366000","6044040","16.57","16.57","16.45","16.45","-0.0900","28"
"01007T","兆豐國泰R2","97000","1958310","20.20","20.20","20.17","20.17","-0.0700","13"
"01009T","王道圓滿R1","30176","276989","9.18","9.19","9.18","9.18","0.0000","12"
"01010T","京城樂富R1","87000","944110","10.85","10.90","10.82","10.90","0.0600","23"
"020000","富邦特選蘋果N","31000","229290","7.38","7.42","7.38","7.40","0.0000","5"
"020002","元富新中國N","3000","60240","20.08","20.08","20.08","20.08","0.0000","1"
"020004","兆豐電菁英30N","","","","","","","0.0000",""
"020006","永昌中小300N","","","","","","","0.0000",""
"020007","凱基臺灣500N","","","","","","","0.0000",""
"020008","元大特股高息N","75000","902420","12.02","12.04","12.02","12.02","0.0700","7"
"020011","統一微波高息20N","12000","76200","6.32","6.38","6.32","6.37","0.0800","6"
"020012","富邦行動通訊N","59000","359140","6.07","6.11","6.07","6.11","0.0500","12"
"020015","統一MSCI美低波N","","","","","","","0.0000",""
"020016","統一MSCI美科技N","","","","","","","0.0000",""
"020018","統一價值成長30N","92000","1436590","15.43","15.65","15.41","15.63","0.4600","20"
"020019","統一特選台灣5GN","284000","3850990","13.50","13.62","13.47","13.60","0.2600","36"
"02001L","富邦蘋果正二N","29000","340240","11.80","11.80","11.73","11.73","0.0000","2"
"02001R","富邦蘋果反一N","","","","","","","0.0000",""
"020020","元大台股領航N","1681000","11742070","6.96","7.03","6.91","7.02","0.1500","340"
"020022","元大電動車N","6180000","35943600","5.72","5.85","5.72","5.81","0.1100","870"
"1101","台泥","16662777","840647618","50.40","50.70","50.10","50.60","0.3000","7317"
"1101B","台泥乙特","4454","238277","53.50","53.60","53.50","53.60","0.0000","9"
"1102","亞泥","12359703","620735793","50.80","50.80","49.90","50.40","0.2000","3420"
"1103","嘉泥","1695397","37262393","21.80","22.20","21.70","21.95","0.1500","779"
"1104","環泥","707937","15935204","22.65","22.65","22.30","22.45","0.2000","334"
"1108","幸福","2103188","29183802","13.75","14.00","13.65","13.95","0.3000","819"
"1109","信大","632374","16492961","25.60","26.35","25.60","26.05","0.2500","306"
"1110","東泥","165143","2625857","16.00","16.20","15.80","16.00","0.1500","91"
"1201","味全","1347647","28815580","21.40","21.50","21.30","21.40","0.1000","640"
"1203","味王","72231","2540299","35.10","35.40","35.00","35.35","0.1000","79"
"1210","大成","1595476","90181260","56.30","56.90","56.30","56.60","0.2000","1241"
"1213","大飲","63000","551220","8.50","8.82","8.50","8.75","0.0000","12"
"1215","卜蜂","646473","50387983","77.60","78.20","77.60","78.00","0.4000","451"
"1216","統一","9323477","678838971","73.00","73.10","72.40","72.80","0.8000","3484"
"1217","愛之味","8540798","105284730","12.40","12.45","12.25","12.25","-0.0500","3036"
"1218","泰山","1049490","30335222","28.95","29.05","28.75","28.90","0.1500","676"
"1219","福壽","1702557","39575919","23.25","23.40","23.05","23.20","0.3000","673"
"1220","台榮","1040349","17092275","16.40","16.55","16.25","16.45","0.3000","483"
"1225","福懋油","163248","7215635","44.00","44.85","43.95","44.15","0.2500","141"
"1227","佳格","1207370","63396241","52.70","52.80","52.30","52.60","0.4000","1055"
"1229","聯華","2412051","117341232","48.30","49.00","48.05","49.00","1.0000","1790"
"1231","聯華食","517632","30336242","58.60","59.00","58.30","58.80","0.2000","589"
"1232","大統益","103713","16787738","161.50","162.50","161.00","161.50","-1.5000","258"
"1233","天仁","29000","1005350","34.35","34.70","34.35","34.50","0.2500","16"
"1234","黑松","82689","2894334","35.00","35.10","34.95","35.05","0.0500","91"
"1235","興泰","11165","367421","32.75","33.40","32.45","33.20","0.2500","11"
"1236","宏亞","353675","5383909","15.45","15.60","15.00","15.20","-0.2500","265"
"1256","鮮活果汁-KY","27978","13221374","470.00","477.50","469.00","477.50","7.5000","139"
"1301","台塑","8138225","823565269","101.50","102.00","100.50","101.50","0.5000","3740"
"1303","南亞","9000321","745070109","82.60","83.50","81.70","83.50","1.4000","4086"
"1304","台聚","23397647","800819467","33.60","34.95","33.40","34.20","1.1500","10750"
"1305","華夏","15166340","529184040","34.45","35.40","34.30","34.85","0.6500","6872"
"1307","三芳","278862","6091337","21.80","22.05","21.60","21.85","0.2500","154"
"1308","亞聚","12581076","379220410","29.70","30.75","29.50","30.35","1.1500","5146"
"1309","台達化","5740572","234392555","40.45","41.50","40.25","40.85","0.6500","3112"
"1310","台苯","3064274","59674082","19.35","19.70","19.20","19.50","0.4500","1135"
"1312","國喬","16616055","435519375","26.00","26.60","25.85","26.20","0.4500","4796"
"1312A","國喬特","41000","1395850","34.10","34.50","34.00","34.50","0.0000","15"
"1313","聯成","15803286","402554697","25.40","25.95","25.05","25.45","0.3000","5676"
"1314","中石化","52503031","676014624","12.85","13.00","12.75","12.90","0.3000","9472"
"1315","達新","94692","6689962","70.50","70.90","70.40","70.90","0.4000","86"
"1316","上曜","532975","5977020","11.10","11.30","11.10","11.25","0.2500","200"
"1319","東陽","1622436","52894597","32.30","32.80","32.30","32.80","0.6500","942"
"1321","大洋","162000","5721800","35.10","35.50","35.05","35.25","0.2500","100"
"1323","永裕","158300","5364240","33.95","34.25","33.55","34.05","0.1000","85"
"1324","地球","328121","3622828","10.45","11.40","10.45","10.95","0.5000","183"
"1325","恆大","2579199","236545331","92.40","93.00","90.60","91.60","-0.7000","1809"
"1326","台化","6810886","579805893","85.30","85.70","84.60","85.40","0.7000","3435"
"1337","再生-KY","1175637","9160666","7.80","7.88","7.73","7.73","-0.0200","518"
"1338","廣華-KY","282528","17787979","62.40","63.50","62.40","62.80","0.9000","215"
"1339","昭輝","395443","15044871","38.00","38.45","37.70","38.20","0.2000","342"
"1340","勝悅-KY","214532","2301573","10.70","10.80","10.65","10.80","0.1500","169"
"1341","富林-KY","2008","158416","78.90","78.90","78.90","78.90","0.0000","10"
"1342","八貫","78435","4283194","54.20","54.90","54.00","54.80","0.8000","63"
"1402","遠東新","8855653","276328316","30.70","31.40","30.65","31.25","0.8500","2805"
"1409","新纖","20190608","432187901","21.35","21.60","21.10","21.50","0.4500","6928"
"1410","南染","20074","700252","34.95","35.00","34.75","34.95","0.1000","16"
"1413","宏洲","970680","11868189","12.55","12.55","12.00","12.10","-0.4500","446"
"1414","東和","3009235","53744446","17.80","18.15","17.30","17.95","0.4500","1252"
"1416","廣豐","479171","5316514","10.95","11.15","10.95","11.10","0.1500","157"
"1417","嘉裕","2806607","45443652","16.20","16.50","15.95","16.30","0.2500","1039"
"1418","東華","16564","187698","11.10","11.75","10.95","11.60","0.0000","27"
"1419","新紡","55315","2180049","39.35","39.80","39.20","39.65","0.2500","45"
"1423","利華","259200","5523430","21.25","21.50","21.05","21.25","0.1500","135"
"1432","大魯閣","103243","1440103","13.85","14.05","13.85","13.90","0.0500","247"
"1434","福懋","1726044","53294018","30.90","31.10","30.70","30.85","0.3000","908"
"1435","中福","236261","5041606","22.70","22.70","20.95","21.25","-1.1500","166"
"1436","華友聯","17200","679392","39.75","39.85","39.10","39.65","0.1500","21"
"1437","勤益控","124707","3082017","24.90","24.90","24.60","24.75","0.1500","73"
"1438","三地開發","47054","1430049","30.50","30.55","30.00","30.50","0.5500","35"
"1439","中和","52050","1258482","23.95","24.40","23.95","24.40","0.4500","43"
"1440","南紡","48834768","1401978057","28.60","29.40","28.10","28.45","0.4000","18371"
"1441","大東","1735196","21054391","12.40","12.50","11.95","12.00","0.0000","604"
"1442","名軒","635590","10976641","16.95","17.35","16.95","17.35","0.4500","116"
"1443","立益","31882","386427","12.10","12.20","12.05","12.20","0.1000","22"
"1444","力麗","10746009","135536804","12.55","12.80","12.45","12.65","0.3000","2882"
"1445","大宇","166565","1981149","11.90","12.05","11.80","11.85","0.0000","83"
"1446","宏和","33631","968233","28.90","29.00","28.65","28.70","-0.0500","30"
"1447","力鵬","20540254","261393720","12.85","12.90","12.60","12.65","0.2500","4936"
"1449","佳和","255946","3970316","15.10","15.80","15.10","15.70","0.6000","144"
"1451","年興","2626788","59198889","22.05","22.80","22.05","22.75","0.9500","1174"
"1452","宏益","6606316","166003144","25.05","25.70","24.70","24.90","0.2000","2806"
"1453","大將","85889","793550","9.10","9.30","9.10","9.23","0.1300","65"
"1454","台富","391366","4112275","10.35","10.75","10.30","10.60","0.2500","196"
"1455","集盛","101714951","2716979520","26.70","27.50","26.00","26.50","0.6000","34879"
"1456","怡華","157153","2740327","17.30","17.75","17.30","17.45","0.0500","85"
"1457","宜進","2477894","44929346","18.30","18.40","18.00","18.00","-0.0500","1014"
"1459","聯發","3286376","46842479","14.25","14.50","14.00","14.25","0.1500","993"
"1460","宏遠","7995550","97787030","12.35","12.50","12.10","12.10","-0.1000","3048"
"1463","強盛","400612","5639555","14.10","14.25","13.95","13.95","-0.0500","154"
"1464","得力","478380","8271941","17.35","17.40","17.15","17.30","0.1000","320"
"1465","偉全","34642","449489","12.95","13.05","12.90","12.90","-0.0500","50"
"1466","聚隆","25550297","547565078","21.60","22.35","20.60","21.40","0.3500","10680"
"1467","南緯","889628","15937404","18.00","18.20","17.80","17.90","0.1500","441"
"1468","昶和","114000","1404750","12.60","12.75","12.10","12.60","-0.0500","63"
"1470","大統新創","326115","5232236","15.55","17.00","15.55","16.05","0.2000","38"
"1471","首利","1816958","18245525","9.73","10.30","9.73","10.00","0.3200","728"
"1472","三洋紡","156233","1640446","10.50","10.50","10.50","10.50","0.0000","36"
"1473","台南","297640","5392731","18.20","18.30","18.00","18.05","-0.1500","173"
"1474","弘裕","5078481","90224134","17.90","18.20","17.50","17.65","-0.2000","2302"
"1475","業旺","71457","2512079","35.30","35.30","34.60","35.15","0.1500","55"
"1476","儒鴻","819391","531079220","657.00","658.00","640.00","649.00","-8.0000","930"
"1477","聚陽","1554985","439322412","284.50","285.00","280.00","284.50","3.0000","1381"
"1503","士電","275012","14021872","50.50","51.20","50.50","51.10","0.6000","181"
"1504","東元","4552317","150079496","33.55","33.70","32.60","32.95","-0.5500","2533"
"1506","正道","352659","3433223","9.61","9.90","9.61","9.76","0.1800","122"
"1507","永大","186825","11522541","61.80","62.10","61.50","61.50","-1.4000","178"
"1512","瑞利","74651","341622","4.50","4.60","4.39","4.58","0.0300","26"
"1513","中興電","4517979","232521887","51.30","51.90","50.80","51.20","-0.3000","2616"
"1514","亞力","718933","17228665","23.75","24.20","23.75","23.90","0.3000","417"
"1515","力山","3602156","279353335","77.50","78.70","76.80","78.00","1.0000","2530"
"1516","川飛","12115","252893","21.00","21.10","20.60","21.10","0.2500","16"
"1517","利奇","4653378","117841779","24.90","25.95","24.65","25.55","1.2000","2078"
"1519","華城","1046890","45373259","42.85","43.80","42.85","43.30","0.6500","695"
"1521","大億","104100","4558644","43.30","44.60","43.05","43.65","0.4500","77"
"1522","堤維西","427766","9167363","21.20","21.60","21.05","21.55","0.5500","258"
"1524","耿鼎","339885","3389879","9.87","10.05","9.87","10.00","0.0800","156"
"1525","江申","158509","10270475","64.30","65.50","64.00","65.20","2.6000","149"
"1526","日馳","491925","24518643","50.80","50.80","49.55","49.55","0.3500","355"
"1527","鑽全","778582","37326505","47.20","48.25","47.20","48.00","0.9500","529"
"1528","恩德","364462","3607247","9.84","9.95","9.83","9.90","0.0700","128"
"1529","樂士","98263","1672434","17.10","17.10","16.95","17.00","0.0000","61"
"1530","亞崴","78526","2797871","35.40","36.20","35.35","35.40","0.6000","33"
"1531","高林股","171255","2494794","14.30","15.00","14.30","14.60","0.3000","104"
"1532","勤美","421268","13913160","32.80","33.40","32.80","32.90","0.1500","222"
"1533","車王電","504177","28361626","56.00","56.80","55.50","56.40","0.9000","416"
"1535","中宇","42332","1627431","38.55","38.65","38.25","38.50","0.0000","39"
"1536","和大","703559","65621149","93.00","93.90","92.50","92.60","0.6000","538"
"1537","廣隆","95302","13689455","143.00","144.00","143.00","144.00","1.5000","123"
"1538","正峰","7703","96224","12.55","12.55","12.50","12.50","-0.1000","13"
"1539","巨庭","74081","1306921","17.80","17.80","17.55","17.70","-0.0500","41"
"1540","喬福","68000","1081600","15.90","16.00","15.80","16.00","0.2000","45"
"1541","錩泰","30002","1498649","50.80","50.80","49.50","49.80","0.3500","21"
"1558","伸興","50088","8279277","165.50","166.00","165.00","165.00","0.5000","74"
"1560","中砂","367829","23618566","63.90","64.50","63.60","64.20","0.8000","242"
"1568","倉佑","514400","13135999","25.20","25.85","25.05","25.65","0.9500","352"
"1582","信錦","235415","19667291","83.70","83.70","83.30","83.60","0.7000","181"
"1583","程泰","10033","633362","62.20","63.50","62.20","63.10","0.1000","10"
"1587","吉茂","421000","11691800","27.55","28.10","27.40","28.00","0.5500","222"
"1589","永冠-KY","1095463","80038897","73.00","73.60","72.40","72.40","0.3000","741"
"1590","亞德客-KY","707514","717258325","1005.00","1040.00","996.00","1005.00","11.0000","710"
"1592","英瑞-KY","796606","2411620","2.99","3.09","2.99","3.05","0.0800","168"
"1597","直得","796158","82018736","98.80","105.00","98.80","103.50","4.9000","717"
"1598","岱宇","1121314","101780106","92.20","92.40","90.00","90.60","-0.6000","870"
"1603","華電","2342960","71198608","29.90","30.90","29.85","30.00","0.7000","1029"
"1604","聲寶","1022847","30102461","29.35","29.55","29.20","29.50","0.3000","587"
"1605","華新","100810136","2555579689","24.65","26.20","24.50","25.25","1.3000","36157"
"1608","華榮","22659212","594536942","25.20","26.75","25.00","26.75","2.4000","7159"
"1609","大亞","60520566","1719419398","27.55","29.30","27.45","28.25","1.3500","24604"
"1611","中電","1021201","11533553","11.20","11.45","11.10","11.25","0.1500","468"
"1612","宏泰","5386842","134814020","24.35","25.55","24.35","24.85","0.8500","2664"
"1614","三洋電","109000","3654300","33.10","33.75","33.10","33.70","0.1000","67"
"1615","大山","1256233","48650739","37.00","39.95","37.00","38.50","1.8000","882"
"1616","億泰","3465078","32608321","8.99","9.57","8.81","9.57","0.8700","970"
"1617","榮星","1144494","21684300","18.15","19.50","18.15","18.90","1.0500","624"
"1618","合機","3079793","49595279","15.80","16.50","15.75","16.00","0.4500","1463"
"1626","艾美特-KY","61216","1474505","24.35","24.35","23.95","24.15","0.1500","46"
"1701","中化","1063541","24719759","23.40","23.40","23.15","23.25","0.0500","433"
"1702","南僑","863228","48687220","57.00","57.10","56.00","56.50","0.3000","617"
"1707","葡萄王","279802","46226390","165.50","166.50","164.50","165.00","0.5000","375"
"1708","東鹼","1198149","32388652","26.80","27.25","26.60","27.10","0.4000","621"
"1709","和益","1258451","22588803","18.20","18.20","17.80","17.80","0.1500","425"
"1710","東聯","3860309","82785891","21.30","21.75","21.20","21.40","0.3000","1207"
"1711","永光","10297538","198687107","19.50","19.60","19.15","19.20","-0.4000","4648"
"1712","興農","711621","15390448","21.65","21.70","21.55","21.60","0.0500","344"
"1713","國化","235192","5295461","22.50","22.70","22.35","22.35","0.2500","84"
"1714","和桐","10637429","119091492","11.25","11.35","11.10","11.20","0.0000","2716"
"1717","長興","7902313","316902284","40.10","40.70","39.90","40.20","0.2000","3486"
"1718","中纖","15178471","154075327","10.10","10.30","10.00","10.15","0.1500","3504"
"1720","生達","330682","12720780","38.30","38.60","38.30","38.55","0.3000","270"
"1721","三晃","387504","3748242","9.60","9.78","9.59","9.70","0.1200","173"
"1722","台肥","2024637","113063735","55.60","56.10","55.60","55.70","0.1000","984"
"1723","中碳","310953","33542124","107.50","109.00","106.50","108.50","2.5000","229"
"1724","台硝","84989","1344394","15.80","15.85","15.80","15.80","0.0000","82"
"1725","元禎","92174","1732688","18.55","19.20","18.50","18.90","0.2500","72"
"1726","永記","74221","5510548","73.40","74.50","73.40","74.50","0.8000","51"
"1727","中華化","85499","1075163","12.45","12.80","12.40","12.75","0.1500","48"
"1730","花仙子","246867","17082304","69.50","69.50","69.00","69.30","-0.3000","298"
"1731","美吾華","1192244","24546663","20.85","20.85","20.50","20.55","-0.1000","706"
"1732","毛寶","2259292","89297356","40.50","40.50","38.80","39.10","-1.0000","1492"
"1733","五鼎","277031","6658141","24.20","24.20","23.90","24.15","0.1500","171"
"1734","杏輝","1524885","47267179","31.35","31.55","30.85","31.10","-0.2000","979"
"1735","日勝化","21100","383300","17.75","18.40","17.75","18.10","0.0000","20"
"1736","喬山","405199","32381185","79.20","80.30","79.20","79.70","-0.2000","324"
"1737","臺鹽","278566","8907208","31.95","32.05","31.85","32.00","0.1500","220"
"1760","寶齡富錦","2763641","297813176","109.50","109.50","106.00","106.50","-6.0000","2239"
"1762","中化生","1337023","85607534","64.60","64.80","63.50","64.00","-0.1000","857"
"1773","勝一","116742","13042378","112.00","112.50","111.00","112.00","1.0000","134"
"1776","展宇","22001","378767","17.45","17.45","17.20","17.20","0.0500","14"
"1783","和康生","1393492","48816472","35.80","35.80","34.50","35.05","-0.7500","822"
"1786","科妍","93095","4812937","52.50","52.50","51.40","51.90","0.9000","82"
"1789","神隆","8982574","252595801","28.05","28.50","27.50","28.50","0.7000","4680"
"1795","美時","4418416","421711164","97.80","97.80","94.40","94.90","-1.5000","3046"
"1802","台玻","86648997","2740870660","30.35","32.45","30.00","32.45","2.9500","27827"
"1805","寶徠","122143","1692706","14.00","14.00","13.75","14.00","0.1500","69"
"1806","冠軍","7697293","90530215","11.40","12.10","11.15","11.65","0.5500","2450"
"1808","潤隆","210803","11566738","54.00","55.20","54.00","55.00","1.0000","133"
"1809","中釉","5712879","81818427","13.85","14.70","13.80","14.15","0.4500","2285"
"1810","和成","2229796","25432104","11.20","11.70","11.15","11.30","0.1500","791"
"1817","凱撒衛","176697","6332054","35.80","36.05","35.50","35.60","0.2000","124"
"1903","士紙","378833","19890808","53.10","53.20","51.40","53.00","0.8000","206"
"1904","正隆","3116118","128570394","41.20","41.80","40.80","41.20","0.3000","1891"
"1905","華紙","49039420","1170006631","23.00","24.80","22.90","23.85","1.0000","18368"
"1906","寶隆","692376","13500892","19.40","19.95","19.20","19.30","0.1500","334"
"1907","永豐餘","16028405","607440779","37.95","38.55","37.50","37.75","0.0500","8992"
"1909","榮成","18720262","436230954","22.75","23.85","22.75","23.40","0.8500","6068"
"2002","中鋼","396917410","14550296425","36.00","37.35","35.70","36.55","1.9500","122714"
"2002A","中鋼特","33133","1709354","51.60","51.70","51.50","51.60","0.0000","22"
"2006","東和鋼鐵","28270213","1370757563","47.25","49.80","47.15","47.95","2.0500","14927"
"2007","燁興","12503068","174381485","13.40","14.15","13.30","14.15","1.2500","3155"
"2008","高興昌","2529689","45830926","18.10","18.20","17.60","18.20","1.6500","746"
"2009","第一銅","65291816","4223527580","62.30","65.20","62.30","65.20","5.9000","20309"
"2010","春源","45416117","955180391","20.75","21.75","20.05","20.65","0.5500","15432"
"2012","春雨","2694142","75049472","26.50","28.35","26.45","28.35","2.5500","1155"
"2013","中鋼構","6483601","281871965","42.00","44.40","41.70","43.10","1.6500","3759"
"2014","中鴻","174718295","8401081826","47.00","48.70","46.55","48.70","4.4000","52086"
"2015","豐興","2665397","199536003","72.60","76.10","72.40","74.00","2.5000","1651"
"2017","官田鋼","18309228","419648034","21.95","23.40","21.95","23.40","2.1000","5858"
"2020","美亞","35961750","1294700304","35.50","37.25","34.55","34.70","0.7000","17337"
"2022","聚亨","16014211","217646788","13.00","13.80","12.95","13.80","1.2500","4792"
"2023","燁輝","94467122","2114139418","21.60","22.70","21.40","22.70","2.0500","21023"
"2024","志聯","779043","14002312","17.05","18.35","17.00","18.35","1.6500","415"
"2025","千興","3656006","14618623","3.98","4.00","3.98","3.98","0.1300","477"
"2027","大成鋼","102202989","4549673730","43.80","44.95","43.50","44.95","4.0500","27295"
"2028","威致","3534493","118512671","33.50","33.55","33.05","33.55","3.0500","1237"
"2029","盛餘","12010472","406045611","32.00","34.25","32.00","34.25","3.1000","3482"
"2030","彰源","20456099","413212350","19.60","20.75","19.60","20.10","1.0500","7590"
"2031","新光鋼","38594385","2443994489","61.30","64.40","60.80","64.40","5.8000","15596"
"2032","新鋼","6696325","134844464","19.30","20.45","19.25","20.45","1.8500","2756"
"2033","佳大","3396995","58082058","16.30","17.35","16.20","17.35","1.5500","1355"
"2034","允強","18986688","606107839","30.50","32.50","30.50","32.40","2.7000","8668"
"2038","海光","49087813","1792816316","35.35","37.15","35.10","37.15","3.3500","16836"
"2049","上銀","2608764","953567570","358.00","372.00","357.00","368.50","16.0000","2345"
"2059","川湖","242554","92291514","394.50","394.50","375.00","376.50","-14.0000","280"
"2062","橋椿","174000","4867700","28.20","28.30","27.75","27.85","0.1500","99"
"2069","運錩","5846601","141890610","23.20","24.55","23.00","24.55","2.2000","2322"
"2101","南港","836561","32199725","38.55","38.85","38.05","38.25","0.1000","404"
"2102","泰豐","9966914","289666284","29.40","29.95","28.25","28.60","-0.6000","4043"
"2103","台橡","9809155","301726312","30.10","31.40","30.05","30.70","0.9000","3576"
"2104","國際中橡","3484384","86660379","24.60","25.05","24.50","24.90","0.4500","1534"
"2105","正新","9760456","466927249","47.55","48.40","47.40","47.40","0.2500","4256"
"2106","建大","1437468","59301642","40.20","41.90","40.20","41.15","1.0500","900"
"2107","厚生","1286488","30820315","23.90","24.10","23.75","24.05","0.3500","541"
"2108","南帝","11294145","1501363336","135.50","137.00","130.50","131.00","-3.0000","7446"
"2109","華豐","920405","17567362","18.70","19.40","18.70","19.25","0.7000","414"
"2114","鑫永銓","85235","10211659","120.00","121.00","119.00","121.00","2.0000","69"
"2115","六暉-KY","50267","2338343","47.00","47.05","45.90","46.50","0.3500","48"
"2201","裕隆","4447086","176188201","39.00","40.00","38.95","39.70","0.9000","2076"
"2204","中華","1201644","81507450","67.60","68.20","67.40","67.80","0.3000","751"
"2206","三陽工業","1008345","28323852","28.05","28.35","27.95","28.00","0.2000","565"
"2207","和泰車","431257","241411961","554.00","565.00","550.00","564.00","20.0000","526"
"2208","台船","16686068","378028136","22.00","23.20","22.00","22.65","0.7500","6630"
"2211","長榮鋼","2193114","116945129","51.20","55.00","51.20","53.70","2.9000","1621"
"2227","裕日車","60067","15970423","266.00","267.00","265.00","265.00","0.0000","108"
"2228","劍麟","62602","4521154","71.50","72.70","71.50","72.40","0.9000","63"
"2231","為升","753886","152149504","197.50","204.50","197.50","200.50","4.0000","668"
"2233","宇隆","939715","103741636","110.00","113.00","108.50","109.50","0.5000","713"
"2236","百達-KY","13075","328943","25.55","25.55","24.85","25.25","-0.3000","13"
"2239","英利-KY","123214","11279533","90.50","92.50","90.50","91.50","1.4000","112"
"2241","艾姆勒","74500","3877488","51.60","52.70","51.60","51.90","0.8000","67"
"2243","宏旭-KY","10022","100550","9.98","10.25","9.98","10.10","0.1500","7"
"2247","汎德永業","116197","25749402","221.00","223.50","220.00","222.50","2.0000","145"
"2301","光寶科","6860497","447656543","64.30","65.90","64.00","65.70","2.2000","3046"
"2302","麗正","528474","9335775","17.40","17.95","17.40","17.50","0.2000","280"
"2303","聯電","216934422","11353403574","52.10","53.00","51.60","52.40","1.8000","76958"
"2305","全友","752550","6971327","9.18","9.36","9.11","9.30","0.2400","336"
"2308","台達電","4192320","1223400271","292.00","294.50","290.00","291.50","-2.0000","4203"
"2312","金寶","8461205","116524205","13.60","13.90","13.60","13.75","0.2500","2554"
"2313","華通","7855454","298757956","37.90","38.40","37.60","38.30","0.8000","3273"
"2314","台揚","3965206","141158851","35.00","36.50","34.75","35.40","0.9500","2286"
"2316","楠梓電","438400","12639400","28.80","29.00","28.60","28.85","0.3500","317"
"2317","鴻海","26999728","2990527150","110.50","111.50","110.00","111.00","1.5000","12829"
"2321","東訊","16897","120909","7.16","7.16","7.16","7.16","0.0000","13"
"2323","中環","8113859","83215679","10.30","10.35","10.20","10.20","0.0000","2108"
"2324","仁寶","13381595","312713296","23.45","23.55","23.15","23.30","-0.1000","4958"
"2327","國巨","7489725","3674209402","487.00","494.00","483.50","490.00","11.5000","7321"
"2328","廣宇","9031996","354652983","39.00","39.90","38.70","39.15","0.8000","4454"
"2329","華泰","26336682","469636109","17.75","18.15","17.40","17.90","0.5000","7646"
"2330","台積電","30720737","18082265480","587.00","592.00","582.00","590.00","8.0000","31581"
"2331","精英","4077282","99582226","24.80","24.95","24.05","24.15","-0.3500","2078"
"2332","友訊","2760441","53652249","19.30","19.60","19.20","19.35","0.3000","1136"
"2337","旺宏","80941761","3438678025","41.90","43.45","41.60","42.50","1.8000","35563"
"2338","光罩","26199550","2254401751","87.60","88.20","84.50","85.00","-0.2000","15811"
"2340","光磊","20383657","547895823","25.90","27.65","25.70","27.15","1.4500","7134"
"2342","茂矽","1568302","50175374","32.15","32.35","31.60","31.85","0.4500","944"
"2344","華邦電","199214639","6694208844","32.45","34.30","32.20","33.85","2.6500","68457"
"2345","智邦","1818792","532192494","294.50","296.00","289.00","293.00","-2.0000","1682"
"2347","聯強","3597149","210419620","58.20","58.90","58.10","58.70","0.6000","2231"
"2348","海悅","456197","42843017","93.10","95.70","92.50","95.10","2.3000","384"
"2349","錸德","3544899","34302492","9.52","9.76","9.52","9.75","0.3000","1143"
"2351","順德","16718944","1600270444","94.70","98.60","92.40","94.20","1.9000","10819"
"2352","佳世達","5970132","180040505","30.00","30.40","29.95","30.15","0.4000","2766"
"2353","宏碁","22419272","714161640","31.80","32.20","31.65","31.80","0.2000","11968"
"2354","鴻準","4930063","320353583","65.40","65.50","64.60","64.60","0.6000","3046"
"2355","敬鵬","2463005","71310919","29.10","29.35","28.70","29.05","0.7500","1298"
"2356","英業達","9075412","233782161","25.75","25.90","25.65","25.70","0.0500","3637"
"2357","華碩","3660247","1426005363","393.00","393.00","387.00","391.50","3.5000","3618"
"2358","廷鑫","2514812","35795715","13.75","14.70","13.65","14.35","0.4500","1678"
"2359","所羅門","311277","5288736","16.90","17.05","16.90","17.00","0.1500","165"
"2360","致茂","667284","128163712","195.00","195.50","190.00","192.00","-1.0000","523"
"2362","藍天","393704","11760882","29.70","30.00","29.65","29.95","0.2500","291"
"2363","矽統","16260900","344893679","21.35","21.45","20.95","21.15","0.3500","6021"
"2364","倫飛","214507","701380","3.30","3.30","3.21","3.29","-0.0100","82"
"2365","昆盈","7894280","101375216","12.75","12.95","12.70","12.80","0.0000","1702"
"2367","燿華","3077456","63177589","20.40","20.80","20.30","20.60","0.5000","1303"
"2368","金像電","9933599","524575986","53.40","53.50","52.20","53.10","0.6000","5099"
"2369","菱生","11254776","197218165","17.30","17.80","17.15","17.50","0.4500","3824"
"2371","大同","10107781","253043427","25.20","25.40","24.85","24.90","-0.1000","2902"
"2373","震旦行","26118","2387539","91.60","91.70","91.00","91.40","0.4000","32"
"2374","佳能","763802","11538232","15.00","15.20","15.00","15.15","0.2000","341"
"2375","凱美","5333697","563129002","105.50","107.50","104.00","104.50","0.5000","3515"
"2376","技嘉","12224590","1322635267","108.50","109.50","106.50","108.00","3.0000","7098"
"2377","微星","4621806","774345338","170.50","171.00","165.50","166.50","-0.5000","3236"
"2379","瑞昱","2213532","1100534139","487.00","502.00","487.00","497.00","7.5000","2490"
"2380","虹光","1859476","23013916","12.20","12.75","11.90","12.30","0.4000","848"
"2382","廣達","12941525","1136305165","86.80","88.80","86.80","87.90","0.5000","6517"
"2383","台光電","842373","134120873","159.50","160.50","158.00","158.50","1.5000","638"
"2385","群光","13368954","1034359863","77.20","78.00","76.70","77.40","1.0000","7340"
"2387","精元","453524","25525286","56.10","56.70","55.60","56.40","0.8000","286"
"2388","威盛","4456864","215989854","47.95","49.40","47.35","48.30","1.8000","2826"
"2390","云辰","90762360","2613623663","29.25","30.00","28.00","28.45","0.8500","37616"
"2392","正崴","1656620","66061431","40.25","40.25","39.60","39.95","0.3000","938"
"2393","億光","4641741","213561416","46.05","46.30","45.70","46.10","0.2500","2743"
"2395","研華","821857","268138986","326.50","329.50","324.00","326.50","1.5000","748"
"2397","友通","24068","1520989","62.90","63.50","62.40","63.50","0.5000","20"
"2399","映泰","10019996","250228714","24.70","25.40","24.60","24.75","0.5500","3590"
"2401","凌陽","21950797","652231786","29.60","30.15","29.40","29.50","0.1500","9683"
"2402","毅嘉","1084722","18668266","17.10","17.35","17.00","17.20","0.2000","447"
"2404","漢唐","748437","173836028","231.50","233.50","230.00","233.00","2.0000","746"
"2405","浩鑫","3089342","40783982","13.25","13.40","13.05","13.15","0.2500","1260"
"2406","國碩","2603373","49268864","18.90","19.20","18.75","18.80","0.0500","1103"
"2408","南亞科","21599607","1747527031","79.30","82.50","78.90","80.60","2.3000","13346"
"2409","友達","325082427","7604679492","23.20","23.70","23.00","23.50","1.0000","69922"
"2412","中華電","6806221","770411816","113.00","113.50","112.50","113.00","1.0000","2813"
"2413","環科","429410","9829000","22.55","23.10","22.55","22.85","0.5000","265"
"2414","精技","110071","3171759","28.75","28.90","28.75","28.80","0.1500","102"
"2415","錩新","526325","19852796","37.60","38.15","37.30","37.50","0.2000","367"
"2417","圓剛","2286474","99292317","43.60","43.75","43.10","43.30","-0.0500","1463"
"2419","仲琦","501831","10492085","20.80","21.00","20.75","20.90","0.3500","213"
"2420","新巨","288399","10624745","36.60","36.95","36.55","36.90","0.4000","236"
"2421","建準","828118","35917669","43.35","43.50","43.05","43.35","-0.1500","621"
"2423","固緯","159211","3792647","24.00","24.00","23.65","23.95","0.0500","121"
"2424","隴華","576","13824","","","","","0.0000","3"
"2425","承啟","736812","22842991","30.70","31.25","30.60","30.80","0.2500","375"
"2426","鼎元","7167411","192170741","26.05","27.50","25.90","27.50","2.0000","3108"
"2427","三商電","259716","2973418","11.40","11.50","11.35","11.45","0.0500","137"
"2428","興勤","464331","74090450","157.00","162.00","156.00","160.00","5.5000","407"
"2429","銘旺科","42100","673784","16.00","16.10","15.95","15.95","-0.1000","23"
"2430","燦坤","480254","13237533","27.25","27.75","27.25","27.75","0.6000","281"
"2431","聯昌","2720385","40789676","14.60","15.25","14.50","14.90","0.4000","1120"
"2433","互盛電","28095","1463248","52.30","52.30","52.00","52.20","0.4000","30"
"2434","統懋","33480","1233304","36.60","37.20","36.60","37.00","0.5000","31"
"2436","偉詮電","32923215","2211012748","64.00","69.20","63.60","69.20","6.1000","19295"
"2438","翔耀","262852","2899038","11.55","11.55","10.70","11.40","-0.1000","141"
"2439","美律","649280","69096412","106.00","107.00","105.00","107.00","2.0000","535"
"2440","太空梭","2121525","40701737","17.85","19.45","17.85","19.45","1.7500","784"
"2441","超豐","1645985","117117322","71.40","71.90","70.80","70.80","0.3000","1114"
"2442","新美齊","1049230","10767917","10.25","10.40","10.20","10.20","0.0500","252"
"2443","億麗","154855","467816","3.00","3.05","2.95","2.98","0.0100","71"
"2444","兆勁","309013","3765507","12.30","12.30","12.10","12.15","0.0000","162"
"2449","京元電子","10503256","448030739","42.40","43.15","42.10","42.75","0.9500","5194"
"2450","神腦","148651","4788245","32.00","32.40","32.00","32.25","0.4500","111"
"2451","創見","959534","68436670","71.00","71.90","70.70","71.20","1.0000","674"
"2453","凌群","393166","10191146","25.85","26.05","25.75","25.95","0.2000","267"
"2454","聯發科","7683008","7332322270","950.00","968.00","938.00","961.00","26.0000","9706"
"2455","全新","3946445","439514309","111.50","112.50","110.00","112.00","5.0000","2274"
"2456","奇力新","4076741","406440096","100.50","101.00","98.60","99.00","0.0000","3075"
"2457","飛宏","24858993","823040169","31.50","33.80","31.10","33.80","3.0500","10677"
"2458","義隆","3571864","753706733","213.50","215.00","209.00","209.50","0.0000","3006"
"2459","敦吉","69763","3745454","53.60","53.80","53.50","53.50","0.1000","71"
"2460","建通","3619959","123680050","33.15","35.30","32.85","34.60","2.1000","1863"
"2461","光群雷","2436477","51924299","21.10","21.75","20.85","21.45","0.0000","1024"
"2462","良得電","1230854","40899023","33.20","33.70","32.75","33.50","0.7000","590"
"2464","盟立","2058229","89726912","42.65","44.30","42.55","44.25","1.8500","1136"
"2465","麗臺","7079385","389704728","53.00","57.50","51.50","54.80","2.3000","4800"
"2466","冠西電","76000","2418250","31.65","32.00","31.65","32.00","0.3500","44"
"2467","志聖","619412","33074524","53.10","54.30","52.70","53.10","0.4000","447"
"2468","華經","313314","4226002","13.55","13.60","13.40","13.50","-0.0500","155"
"2471","資通","122228","3188232","26.00","26.20","26.00","26.05","0.1000","97"
"2472","立隆電","1018195","65677470","63.80","65.00","63.80","64.40","1.2000","762"
"2474","可成","3245387","597363729","182.00","185.50","181.50","183.00","3.0000","2420"
"2476","鉅祥","4611224","162711222","34.90","35.80","34.60","35.60","1.2000","2231"
"2477","美隆電","1338332","46708111","35.45","35.45","34.55","34.55","-0.2500","746"
"2478","大毅","748497","51782436","68.60","69.80","68.50","69.00","1.2000","588"
"2480","敦陽科","215217","14882735","68.90","69.40","68.80","69.40","0.5000","176"
"2481","強茂","12342234","622627127","48.90","52.00","48.65","50.60","2.2500","6249"
"2482","連宇","138262","1540553","11.05","11.25","11.05","11.15","0.1500","109"
"2483","百容","55000","1080500","19.40","19.70","19.40","19.70","0.3500","28"
"2484","希華","9331799","267395688","28.10","29.15","28.00","28.45","0.4500","3778"
"2485","兆赫","2701511","51582332","18.95","19.45","18.80","19.00","0.3000","1196"
"2486","一詮","7161067","214086473","28.95","30.90","28.75","29.75","1.3500","3249"
"2488","漢平","114725","3418617","29.65","29.90","29.55","29.85","0.3500","85"
"2489","瑞軒","12677995","220876161","17.20","17.65","17.05","17.60","0.7000","4338"
"2491","吉祥全","3882378","118452955","29.85","31.30","29.70","31.00","1.4500","2214"
"2492","華新科","4792071","990080322","204.00","208.50","203.00","207.50","6.5000","3796"
"2493","揚博","247164","9196604","37.25","37.40","36.95","37.40","0.6000","158"
"2495","普安","6790420","136848675","19.55","20.75","19.25","20.15","1.0500","2862"
"2496","卓越","36000","2117700","58.00","59.00","58.00","59.00","0.5000","24"
"2497","怡利電","135000","3979700","29.05","29.80","29.05","29.45","0.5500","98"
"2498","宏達電","8330033","305064564","37.15","37.15","36.25","36.40","0.2000","3923"
"2501","國建","739107","14650327","19.75","19.90","19.70","19.75","0.0000","309"
"2504","國產","4371828","110358296","25.20","25.45","24.90","25.10","0.1000","1417"
"2505","國揚","1026655","31711780","30.70","31.10","30.55","30.55","0.2000","453"
"2506","太設","503523","5140339","10.15","10.30","10.15","10.25","0.1000","163"
"2509","全坤建","619538","12077762","19.30","19.60","19.25","19.55","0.2500","518"
"2511","太子","2171056","25531301","11.60","11.90","11.55","11.85","0.3500","632"
"2514","龍邦","2804356","52974203","18.50","19.25","18.45","18.80","0.8000","1401"
"2515","中工","14434433","130409426","8.93","9.08","8.93","9.01","0.1000","2544"
"2516","新建","701673","3952205","5.52","5.73","5.50","5.64","0.1500","214"
"2520","冠德","3178166","119644986","37.80","37.95","37.45","37.80","0.1000","1491"
"2524","京城","115300","4041935","35.15","35.40","34.65","35.15","0.3000","58"
"2527","宏璟","408572","9294448","22.90","22.90","22.65","22.75","-0.2000","227"
"2528","皇普","90098","1989660","22.10","22.30","22.00","22.30","0.2000","29"
"2530","華建","738036","10243618","13.85","13.95","13.80","13.90","0.1000","162"
"2534","宏盛","501666","9909400","19.60","19.90","19.60","19.75","0.2500","273"
"2535","達欣工","1084520","36111277","33.40","33.45","33.10","33.30","-0.0500","713"
"2536","宏普","175240","3761610","21.30","21.55","21.30","21.55","0.2500","82"
"2537","聯上發","591971","5417115","9.10","9.18","9.09","9.16","0.0800","185"
"2538","基泰","1096120","10900573","9.90","10.05","9.88","9.99","0.2200","459"
"2539","櫻花建","56326","1776404","31.55","31.75","31.50","31.60","0.0500","49"
"2540","愛山林","159000","11980900","76.00","76.00","74.30","75.20","-0.1000","31"
"2542","興富發","4480331","191259141","43.00","43.10","42.50","42.65","0.0500","2374"
"2543","皇昌","183633","1384681","7.49","7.60","7.49","7.52","0.1700","64"
"2545","皇翔","504194","20401196","40.30","40.60","40.25","40.60","0.3500","345"
"2546","根基","193239","9209579","47.50","47.75","47.50","47.70","0.3000","117"
"2547","日勝生","2175065","24113750","11.00","11.20","10.95","11.15","0.2000","573"
"2548","華固","614130","57205570","92.90","93.50","92.90","93.30","0.8000","293"
"2597","潤弘","92103","13227882","142.50","144.50","142.50","144.00","0.5000","98"
"2601","益航","23117133","296850656","12.75","13.10","12.60","12.90","0.3500","6774"
"2603","長榮","694445689","64034742902","89.50","96.40","87.70","96.40","8.7000","266694"
"2605","新興","28791377","753462077","25.85","26.80","25.40","26.50","0.8000","11870"
"2606","裕民","69022902","4133880926","58.90","62.20","58.00","60.40","2.1000","35302"
"2607","榮運","28746796","656040518","23.00","23.30","22.35","22.65","-0.1500","10930"
"2608","嘉里大榮","18486577","1151897132","62.40","63.50","61.30","61.80","1.1000","12625"
"2609","陽明","488929003","52308458041","105.50","112.00","103.00","108.00","5.0000","204797"
"2610","華航","370407128","6697992620","17.75","18.45","17.65","18.10","0.9500","81497"
"2611","志信","7669057","138600621","18.00","18.40","17.75","18.05","0.0500","3064"
"2612","中航","7409796","335541765","44.60","46.30","44.55","45.30","0.3000","4080"
"2613","中櫃","3853785","107536941","27.90","28.45","27.45","27.75","0.0500","2167"
"2614","東森","7946598","138646257","17.75","17.80","17.25","17.40","-0.2000","2888"
"2615","萬海","142549752","21318747001","147.00","154.50","143.00","154.50","14.0000","64771"
"2616","山隆","190192","6797787","35.85","35.85","35.60","35.85","0.4000","177"
"2617","台航","8461460","317443537","36.70","38.60","36.30","38.40","2.0000","4544"
"2618","長榮航","217799731","3860830782","17.50","18.15","17.20","17.40","0.2500","55523"
"2630","亞航","438163","7674253","18.00","18.00","17.20","17.70","0.0500","248"
"2633","台灣高鐵","6382062","184618110","29.15","29.15","28.65","28.90","-0.3500","3266"
"2634","漢翔","1722065","47627581","27.50","27.85","27.50","27.65","0.4500","801"
"2636","台驊投控","4383171","410703082","93.70","93.70","93.70","93.70","8.5000","1646"
"2637","慧洋-KY","62009805","4286662385","68.80","71.30","67.20","68.60","0.4000","32947"
"2642","宅配通","12775487","980233921","74.80","77.80","74.80","77.80","7.0000","6270"
"2701","萬企","92430","1086724","11.65","11.80","11.65","11.80","0.1000","62"
"2702","華園","323958","6023849","18.75","18.80","18.45","18.70","0.1000","136"
"2704","國賓","67729","1890926","28.30","28.30","27.80","28.00","0.2000","60"
"2705","六福","145885","2424584","16.70","16.70","16.50","16.70","0.1000","112"
"2706","第一店","90313","1244157","13.60","13.85","13.60","13.85","0.2500","73"
"2707","晶華","545276","75622761","136.50","140.50","136.50","139.50","3.0000","486"
"2712","遠雄來","5000","167950","32.40","34.00","32.40","34.00","0.4500","5"
"2722","夏都","61004","1705412","28.00","29.00","27.10","29.00","1.0000","51"
"2723","美食-KY","1297792","213518932","164.00","168.00","162.00","165.50","5.5000","1171"
"2727","王品","2768241","370937178","135.00","137.50","131.50","132.50","0.0000","2609"
"2731","雄獅","522670","43810138","82.40","84.90","81.80","83.70","2.0000","473"
"2739","寒舍","58000","1344850","23.45","23.45","23.00","23.25","0.0500","45"
"2748","雲品","83373","3332870","40.00","40.35","39.85","40.00","0.5000","60"
"2801","彰銀","10107200","170532469","16.90","16.95","16.80","16.90","0.0500","2887"
"2809","京城銀","3244406","133129451","40.40","41.30","40.40","41.30","1.2000","1479"
"2812","台中銀","4515769","51114978","11.30","11.35","11.25","11.35","0.1500","1623"
"2816","旺旺保","455671","9288609","20.15","20.60","20.15","20.50","0.3500","233"
"2820","華票","1271959","20304542","16.00","16.05","15.90","16.00","0.0000","535"
"2823","中壽","12265998","302218848","24.45","24.95","24.35","24.65","0.4500","3668"
"2832","台產","506657","10410562","20.40","20.65","20.40","20.65","0.2500","340"
"2834","臺企銀","26330509","250456957","9.43","9.58","9.43","9.56","0.1700","4662"
"2836","高雄銀","204950","2234819","10.80","10.95","10.80","10.95","0.1500","147"
"2836A","高雄銀甲特","6000","137250","22.85","22.90","22.85","22.90","0.0500","5"
"2838","聯邦銀","4064520","47485035","11.65","11.75","11.60","11.70","-0.1000","572"
"2838A","聯邦銀甲特","25273","1333886","52.70","52.80","52.70","52.80","0.0000","12"
"2841","台開","2044607","14736042","7.14","7.30","7.11","7.17","-0.0300","498"
"2845","遠東銀","5477036","57446836","10.40","10.55","10.40","10.55","0.1500","1067"
"2849","安泰銀","74473","1084527","14.50","14.65","14.50","14.65","0.1000","43"
"2850","新產","82006","3266441","39.80","39.95","39.75","39.80","0.0000","63"
"2851","中再保","843467","21529674","25.30","25.75","25.30","25.55","0.2500","366"
"2852","第一保","260198","3385248","13.00","13.05","12.90","13.05","0.0500","110"
"2855","統一證","6570597","188840932","28.40","29.10","28.40","28.65","0.6000","2425"
"2867","三商壽","7543452","70581418","9.15","9.46","9.15","9.37","0.3000","1701"
"2880","華南金","11372205","206688315","18.20","18.25","18.10","18.15","0.0000","3285"
"2881","富邦金","26643883","1915845747","72.00","72.40","71.00","72.00","0.4000","10008"
"2881A","富邦特","76628","4783822","62.50","62.50","62.40","62.50","0.0000","26"
"2881B","富邦金乙特","109791","6806801","62.00","62.10","62.00","62.10","0.0000","13"
"2882","國泰金","53531291","2956664111","54.70","55.70","54.10","55.50","1.1000","16745"
"2882A","國泰特","76953","4793133","62.20","62.40","62.20","62.40","0.0000","24"
"2882B","國泰金乙特","14723","911615","61.80","62.00","61.80","62.00","0.1000","17"
"2883","開發金","77896742","955889978","12.20","12.35","12.10","12.30","0.2000","11640"
"2884","玉山金","21571085","547676602","25.40","25.50","25.30","25.40","0.1000","6814"
"2885","元大金","24647215","627732062","25.20","25.60","25.20","25.60","0.4000","7185"
"2886","兆豐金","21945561","724297240","33.00","33.10","32.85","33.10","-0.1000","7281"
"2887","台新金","20167560","295813751","14.60","14.70","14.55","14.70","0.2000","4088"
"2887E","台新戊特","20309","1074918","53.00","53.00","52.90","53.00","0.0000","12"
"2887F","台新戊特二","27192","1405763","51.70","51.70","51.70","51.70","0.0000","17"
"2888","新光金","221529738","2176025329","9.41","9.99","9.41","9.93","0.6000","28090"
"2888A","新光金甲特","63887","2698795","42.25","42.40","41.90","42.40","0.1500","54"
"2888B","新光金乙特","303845","12400218","40.85","40.90","40.75","40.90","0.1000","135"
"2889","國票金","5621267","95906969","16.90","17.15","16.90","17.10","0.2000","2510"
"2890","永豐金","31067816","418746444","13.50","13.55","13.35","13.45","-0.0500","10027"
"2891","中信金","56113211","1284813314","22.65","23.05","22.50","23.00","0.6000","11923"
"2891B","中信金乙特","7605","477896","62.80","63.20","62.60","63.20","0.0000","16"
"2891C","中信金丙特","3248","198188","61.10","61.10","60.90","61.10","0.0000","10"
"2892","第一金","12403894","270322268","21.80","21.85","21.70","21.85","0.1500","3880"
"2897","王道銀行","2226622","15594468","6.95","7.05","6.92","7.02","0.1400","640"
"2897A","王道銀甲特","54098","545330","10.10","10.15","10.05","10.10","0.0500","19"
"2901","欣欣","15979","450821","28.15","28.35","28.00","28.30","0.0500","33"
"2903","遠百","816279","18180891","22.40","22.40","22.20","22.25","-0.2000","571"
"2904","匯僑","83246","2410594","28.90","29.05","28.75","28.90","0.2000","62"
"2905","三商","807291","17625538","21.70","21.95","21.70","21.75","0.2500","369"
"2906","高林","218839","3440296","15.75","15.90","15.60","15.65","-0.0500","143"
"2908","特力","323164","8689423","26.60","27.05","26.55","27.05","0.5000","178"
"2910","統領","15000","469900","30.65","31.75","30.65","31.75","0.5000","15"
"2911","麗嬰房","229704","1761612","7.62","7.74","7.62","7.70","0.0800","168"
"2912","統一超","2231678","585212855","261.00","263.50","260.50","262.00","3.0000","2159"
"2913","農林","6651636","128080997","18.85","19.60","18.85","19.10","0.4000","1931"
"2915","潤泰全","1821161","150888683","82.50","83.10","82.40","82.80","0.5000","788"
"2923","鼎固-KY","38241","1071551","27.95","28.40","27.60","28.35","-0.1500","49"
"2929","淘帝-KY","887069","12782224","14.25","14.80","14.05","14.60","0.4500","504"
"2936","客思達-KY","41112","944445","22.85","23.20","22.85","22.85","0.3000","33"
"2939","凱羿-KY","81149","2640160","32.40","32.95","32.40","32.65","0.3000","13"
"3002","歐格","108135","1284720","11.70","12.00","11.70","12.00","0.2500","63"
"3003","健和興","7685301","557448080","70.50","73.90","70.50","72.60","2.8000","5081"
"3004","豐達科","332031","18896332","54.20","58.10","54.20","57.60","4.7000","266"
"3005","神基","1931952","101006951","52.70","53.40","51.60","52.00","-0.7000","1218"
"3006","晶豪科","54354835","7262173405","132.00","138.00","129.00","135.00","8.5000","33550"
"3008","大立光","311220","905787600","2925.00","2940.00","2890.00","2910.00","10.0000","1291"
"3010","華立","403217","31186650","77.40","77.70","77.00","77.20","0.7000","306"
"3011","今皓","344314","2751486","7.98","8.10","7.93","8.00","0.1400","123"
"3013","晟銘電","221460","2934478","13.20","13.35","13.15","13.20","0.0500","132"
"3014","聯陽","10411097","1265153384","122.00","124.00","119.00","122.50","1.5000","6774"
"3015","全漢","839706","36658236","42.90","43.90","42.90","43.70","1.0000","596"
"3016","嘉晶","3256580","219215865","67.40","68.20","66.70","66.90","0.3000","2138"
"3017","奇鋐","11603873","829655341","71.00","72.30","70.40","71.60","1.3000","6528"
"3018","同開","73905","1219291","16.40","16.60","16.40","16.50","0.1000","93"
"3019","亞光","2762903","223048901","80.30","81.60","79.80","81.20","2.0000","2004"
"3021","鴻名","166000","3429700","20.40","20.95","20.40","20.55","0.1500","124"
"3022","威強電","389700","19686364","50.10","51.70","49.90","50.50","0.7000","273"
"3023","信邦","562851","147493378","262.00","264.50","261.00","261.50","-3.0000","483"
"3024","憶聲","2951675","40145119","13.35","13.85","13.25","13.60","0.4000","1058"
"3025","星通","546001","14216925","26.05","26.35","25.85","25.95","0.3500","334"
"3026","禾伸堂","1780869","233626505","131.50","132.00","130.00","131.50","2.0000","1260"
"3027","盛達","1302518","30468498","23.50","23.75","23.20","23.30","0.1000","610"
"3028","增你強","1379922","38517000","28.05","28.10","27.75","28.05","0.2500","559"
"3029","零壹","919504","43143868","46.65","47.10","46.65","46.95","-0.0500","702"
"3030","德律","399444","22785712","56.90","57.20","56.90","57.10","0.2000","292"
"3031","佰鴻","982688","17913971","18.05","18.40","18.05","18.30","0.2000","452"
"3032","偉訓","174129","7230229","41.30","41.70","41.30","41.45","0.3500","128"
"3033","威健","2909063","66944345","22.95","23.20","22.80","23.00","0.3000","1328"
"3034","聯詠","12116389","6157208507","505.00","516.00","501.00","505.00","9.5000","11859"
"3035","智原","10722018","722337984","67.00","68.40","66.30","67.50","1.9000","6498"
"3036","文曄","3068497","165530582","53.50","54.40","53.50","54.20","1.0000","1949"
"3036A","文曄甲特","125999","5977252","47.20","47.85","47.10","47.85","0.4000","34"
"3037","欣興","23426218","2433400548","102.50","106.50","101.50","104.50","3.5000","11727"
"3038","全台","14997841","328197989","22.00","22.50","21.25","21.50","-0.0500","6889"
"3040","遠見","634165","31841236","49.00","50.60","48.90","50.50","1.6000","469"
"3041","揚智","1671598","43845549","26.15","26.60","26.05","26.05","0.4000","935"
"3042","晶技","12353341","1273478484","105.00","106.00","102.00","103.00","-1.0000","6508"
"3043","科風","395669","1688838","4.20","4.30","4.20","4.20","0.0500","85"
"3044","健鼎","1074038","135378664","126.50","127.00","125.00","126.50","1.5000","672"
"3045","台灣大","2823324","280410751","98.80","99.70","98.50","99.70","1.7000","1741"
"3046","建碁","193649","4372504","22.30","23.20","22.20","22.40","0.2500","151"
"3047","訊舟","1105098","12448512","11.15","11.40","11.15","11.20","0.1000","364"
"3048","益登","2005268","70065669","34.60","35.30","34.50","34.85","0.4500","1084"
"3049","和鑫","7306299","91234177","12.45","12.60","12.30","12.45","0.1500","1886"
"3050","鈺德","429403","6720393","15.60","15.80","15.50","15.60","0.1000","221"
"3051","力特","510781","4058300","7.89","8.05","7.89","7.91","0.0300","154"
"3052","夆典","449641","5344129","11.85","11.95","11.75","11.85","0.1000","173"
"3054","立萬利","40488","902190","22.00","23.35","21.70","22.85","0.8500","36"
"3055","蔚華科","148125","4317539","29.35","29.35","28.70","28.95","0.1000","177"
"3056","總太","436273","17123470","39.30","39.35","39.15","39.25","-0.0500","315"
"3057","喬鼎","539646","8697070","15.90","16.40","15.80","15.95","0.2000","307"
"3058","立德","2291108","36100870","15.45","16.10","15.40","15.65","0.4000","989"
"3059","華晶科","12510427","448535148","35.55","36.35","35.00","36.15","1.2500","5755"
"3060","銘異","6661242","172291139","25.60","26.80","25.20","25.30","0.3000","3210"
"3062","建漢","1189927","20749659","17.45","17.55","17.30","17.30","0.1000","531"
"3090","日電貿","700603","37114861","52.90","53.20","52.70","52.90","0.6000","537"
"3092","鴻碩","867138","57633114","66.00","67.10","65.90","66.50","1.0000","565"
"3094","聯傑","1591231","54116785","33.75","34.50","33.60","33.95","0.6500","860"
"3130","一零四","2138","359294","168.00","168.00","168.00","168.00","1.0000","23"
"3138","耀登","1321554","267147554","205.00","207.00","198.50","199.00","0.0000","1411"
"3149","正達","2593663","88584308","33.85","34.70","33.85","33.90","0.3000","1469"
"3164","景岳","284671","7205976","25.45","25.50","25.05","25.35","0.0000","165"
"3167","大量","41101","2602763","64.00","64.00","63.00","63.30","0.3000","42"
"3189","景碩","7884126","823852267","104.50","107.00","102.50","104.50","1.5000","4667"
"3209","全科","712444","20262726","28.30","28.55","28.25","28.45","0.3000","361"
"3229","晟鈦","18184","117901","6.50","6.50","6.33","6.33","0.0200","17"
"3231","緯創","17234176","522357072","29.75","30.60","29.75","30.55","1.0000","7457"
"3257","虹冠電","209232","15580200","74.00","75.00","74.00","74.50","1.3000","196"
"3266","昇陽","38304","486714","12.80","12.80","12.70","12.70","0.0000","14"
"3296","勝德","310000","6283850","20.40","20.45","19.90","20.45","0.1500","186"
"3305","昇貿","1470404","64109633","43.40","44.15","42.60","43.40","0.9000","941"
"3308","聯德","205064","1776184","8.70","8.82","8.43","8.78","0.1300","94"
"3311","閎暉","97862","3328141","33.50","34.30","33.50","34.00","0.5000","72"
"3312","弘憶股","814451","16415211","20.05","20.40","19.90","20.20","0.4000","457"
"3321","同泰","275854","3641677","13.20","13.30","13.10","13.20","0.2000","157"
"3338","泰碩","429100","20032673","46.30","47.00","46.05","46.80","1.0000","292"
"3346","麗清","769524","33501536","43.00","43.85","42.90","43.75","1.1500","522"
"3356","奇偶","490521","13789082","27.90","28.30","27.80","28.20","0.6000","273"
"3376","新日興","1271640","141962481","110.50","113.00","110.00","112.00","3.0000","1028"
"3380","明泰","1101174","30582414","27.70","27.90","27.50","27.80","0.4000","718"
"3383","新世紀","25562","114925","4.44","4.62","4.44","4.50","-0.0500","25"
"3406","玉晶光","1934850","895294933","470.00","470.00","458.00","458.00","-2.5000","1961"
"3413","京鼎","2069569","477193963","233.00","233.50","229.00","229.00","-4.0000","1609"
"3416","融程電","41125","3027262","73.80","73.80","73.40","73.70","0.3000","32"
"3419","譁裕","651832","12526328","19.25","19.40","19.05","19.25","0.3500","363"
"3432","台端","153000","1982400","12.90","13.10","12.80","13.00","0.1000","50"
"3437","榮創","2399114","72052871","29.80","30.45","29.75","30.00","0.4500","1334"
"3443","創意","1757892","626159050","357.00","359.50","352.50","357.00","3.0000","1663"
"3450","聯鈞","508895","29198222","57.00","57.90","57.00","57.00","0.2000","362"
"3454","晶睿","40919","3171252","76.60","78.40","76.60","77.90","1.1000","50"
"3481","群創","398316245","8926460598","22.30","22.70","22.05","22.30","0.5000","84455"
"3494","誠研","257820","888683","3.51","3.51","3.39","3.47","-0.0300","81"
"3501","維熹","78917","3991824","50.10","51.00","50.10","50.60","0.5000","80"
"3504","揚明光","515231","38689990","75.10","75.70","74.60","74.60","0.1000","366"
"3515","華擎","735887","120178329","165.50","165.50","161.00","163.00","-1.5000","603"
"3518","柏騰","157106","4133667","26.50","26.70","26.00","26.25","0.2500","102"
"3528","安馳","20677","943832","45.50","45.90","45.50","45.65","0.0500","27"
"3530","晶相光","4635565","541852062","111.00","118.00","110.00","118.00","10.5000","2483"
"3532","台勝科","1887938","319052216","170.50","171.50","167.00","167.50","-0.5000","1526"
"3533","嘉澤","1565188","926426897","578.00","602.00","573.00","592.00","15.0000","1691"
"3535","晶彩科","363104","6118246","17.00","17.00","16.75","16.85","0.1000","185"
"3536","誠創","80318","578578","7.20","7.35","7.20","7.21","0.0100","36"
"3543","州巧","185021","5153410","27.70","28.30","27.50","28.00","0.5000","88"
"3545","敦泰","42126353","8557260293","205.00","207.50","198.00","199.50","-0.5000","28254"
"3550","聯穎","315402","5717215","18.10","18.30","17.95","18.20","0.1000","167"
"3557","嘉威","123368","10313155","83.60","84.20","83.30","83.40","-0.1000","109"
"3563","牧德","154134","36237109","236.50","237.00","234.00","235.00","1.0000","188"
"3576","聯合再生","27366123","376938740","13.90","13.95","13.60","13.60","-0.0500","7348"
"3583","辛耘","178234","10865295","60.50","61.40","60.50","60.90","0.6000","158"
"3588","通嘉","1617635","116005389","69.90","73.50","69.50","73.00","4.1000","1094"
"3591","艾笛森","249451","4883908","19.55","19.75","19.45","19.55","0.0500","179"
"3593","力銘","128375","1880693","14.30","14.95","14.30","14.70","0.4000","70"
"3596","智易","1553583","146699078","95.00","95.00","93.50","94.80","0.1000","1183"
"3605","宏致","786115","34292199","43.60","43.90","43.25","43.65","0.6000","432"
"3607","谷崧","293036","4327573","14.70","15.00","14.65","14.70","0.1500","205"
"3617","碩天","31150","2553824","81.60","82.30","81.60","81.90","0.5000","33"
"3622","洋華","1129668","37865219","33.20","34.35","32.65","33.10","0.7000","671"
"3645","達邁","434684","19709543","45.00","45.70","45.00","45.40","0.6000","301"
"3653","健策","1277860","358932832","277.50","286.50","274.50","284.00","10.5000","1141"
"3661","世芯-KY","5909658","3056755210","511.00","530.00","503.00","530.00","31.0000","6350"
"3665","貿聯-KY","1600779","383319432","238.00","242.00","236.50","241.00","6.5000","1367"
"3669","圓展","902749","75418456","83.30","84.00","83.20","83.40","0.5000","656"
"3673","TPK-KY","3723717","171307213","45.55","46.75","45.50","46.20","1.3500","2216"
"3679","新至陞","167540","22531800","134.00","135.00","134.00","135.00","2.5000","135"
"3682","亞太電","5133302","44905319","8.69","8.82","8.68","8.78","0.1300","1415"
"3686","達能","770950","12165852","15.70","16.05","15.55","15.65","0.0500","381"
"3694","海華","462564","10644063","22.80","23.30","22.65","23.10","0.3500","274"
"3701","大眾控","15338","217789","14.50","14.50","14.00","14.30","0.0500","35"
"3702","大聯大","3805122","196207796","51.70","51.90","51.00","51.60","-0.3000","2523"
"3702A","大聯大甲特","57263","2842957","49.60","49.70","49.60","49.65","0.0500","34"
"3703","欣陸","1414936","35438116","24.90","25.30","24.75","24.95","0.2000","684"
"3704","合勤控","2831193","86253067","30.05","30.85","29.85","30.55","0.8000","1458"
"3705","永信","281892","12221005","43.50","43.50","43.20","43.25","-0.2000","218"
"3706","神達","2293144","64720539","28.30","28.30","28.10","28.20","0.0500","1091"
"3708","上緯投控","816144","97494232","121.50","122.00","117.50","118.00","0.0000","664"
"3711","日月光投控","15977107","1757731589","109.00","111.00","108.50","110.50","1.5000","7947"
"3712","永崴投控","525005","14833831","28.00","28.45","27.85","28.35","0.5000","294"
"3714","富采","6506270","487654366","73.90","76.20","73.60","76.00","2.9000","3473"
"4104","佳醫","187853","10872169","57.70","58.40","57.60","57.80","0.2000","179"
"4106","雃博","9206695","440631042","47.95","47.95","46.30","47.95","4.3500","3964"
"4108","懷特","934708","24317678","26.45","26.60","25.85","25.85","-0.2000","487"
"4119","旭富","185876","15836823","84.60","85.50","84.50","85.20","0.7000","181"
"4133","亞諾法","5725838","406280494","72.10","72.50","70.00","71.30","-0.7000","4135"
"4137","麗豐-KY","153150","32760250","214.00","215.00","212.00","214.00","1.0000","137"
"4141","龍燈-KY","295248","3539341","11.95","12.15","11.90","12.00","0.1000","203"
"4142","國光生","8742972","479843019","55.90","55.90","54.40","54.70","-0.3000","5010"
"4148","全宇生技-KY","55000","1875650","33.95","34.60","33.95","34.00","0.0000","30"
"4155","訊映","454190","11349050","24.55","25.25","24.55","24.90","0.5500","236"
"4164","承業醫","198301","7230026","36.55","36.60","36.20","36.35","0.1000","175"
"4190","佐登-KY","216742","16674811","77.00","77.90","76.00","76.50","-0.5000","148"
"4306","炎洲","10113754","189632428","18.90","19.00","18.50","18.60","-0.2000","3901"
"4414","如興","3458203","34116049","9.89","9.96","9.81","9.82","0.0400","1046"
"4426","利勤","459907","11426018","24.50","25.30","24.30","24.65","0.3000","268"
"4438","廣越","300776","39033310","127.00","132.00","125.50","129.00","1.0000","257"
"4439","冠星-KY","18030","2656470","147.00","148.00","146.00","148.00","2.0000","17"
"4526","東台","379336","5875479","15.30","15.65","15.30","15.45","0.1500","231"
"4532","瑞智","878708","17862361","20.05","20.50","20.05","20.35","0.4000","329"
"4536","拓凱","158103","26382201","168.50","168.50","165.50","166.50","-2.5000","153"
"4540","全球傳動","214204","11023509","51.10","51.90","51.00","51.10","0.3000","170"
"4545","銘鈺","174100","4658113","26.90","27.20","26.35","26.60","-0.0500","109"
"4551","智伸科","215677","37407305","173.50","175.00","172.00","172.50","-1.0000","210"
"4552","力達-KY","119276","3677914","30.20","31.25","30.20","31.00","0.8500","95"
"4555","氣立","110000","5926700","53.90","54.80","53.40","54.00","0.2000","82"
"4557","永新-KY","2032","128216","63.00","63.20","63.00","63.20","0.2000","6"
"4560","強信-KY","205050","8483155","41.30","42.30","41.10","42.10","1.0000","88"
"4562","穎漢","8732064","178817777","19.60","21.55","19.15","21.55","1.9500","970"
"4564","元翎","7097894","294361829","39.50","42.60","39.15","42.55","3.7500","3476"
"4566","時碩工業","156103","7430112","47.45","47.85","47.25","47.75","0.5500","80"
"4571","鈞興-KY","297006","41632321","135.00","144.50","135.00","136.00","2.5000","216"
"4572","駐龍","149035","14400560","96.50","97.50","95.80","96.50","1.5000","100"
"4576","大銀微系統","201206","25766343","127.00","129.50","127.00","128.00","1.0000","200"
"4581","光隆精密-KY","36000","1312150","36.60","36.70","36.30","36.30","-0.2500","20"
"4720","德淵","254524","3795822","14.85","15.05","14.75","14.90","0.0500","155"
"4722","國精化","344339","11567632","33.50","33.75","33.25","33.75","0.3500","169"
"4737","華廣","25502","1866297","73.00","73.50","72.60","73.50","1.0000","25"
"4739","康普","793810","58139444","72.80","74.40","72.20","73.00","0.8000","564"
"4746","台耀","38920990","3993060804","103.00","108.00","98.00","98.30","-3.7000","24018"
"4755","三福化","51080","3197731","62.40","62.90","62.40","62.90","0.6000","45"
"4763","材料-KY","158385","16750610","106.00","106.50","105.00","106.50","1.0000","127"
"4764","雙鍵","20520","1174855","57.00","58.20","57.00","57.80","-0.2000","20"
"4766","南寶","24002","3583810","149.00","150.00","149.00","150.00","1.5000","23"
"4807","日成-KY","22105","528294","23.40","24.25","23.40","24.05","0.4500","30"
"4904","遠傳","4700702","301999394","64.20","64.50","63.90","64.50","0.2000","2072"
"4906","正文","2408835","71390304","29.60","29.85","29.45","29.80","0.4500","1109"
"4912","聯德控股-KY","408177","74325269","180.00","184.50","180.00","180.50","6.0000","363"
"4915","致伸","1719743","91327581","53.50","53.70","52.70","53.20","0.1000","1268"
"4916","事欣科","191463","4318379","22.80","22.80","22.30","22.60","0.0500","110"
"4919","新唐","82554851","6449260029","74.10","79.20","73.60","79.20","7.2000","36615"
"4927","泰鼎-KY","1406003","78762878","55.10","56.70","55.00","55.70","0.6000","931"
"4930","燦星網","508982","12736316","25.15","25.15","24.80","24.95","0.1500","319"
"4934","太極","925344","22194177","23.65","24.30","23.65","23.80","0.3000","460"
"4935","茂林-KY","563231","51738849","91.60","92.30","91.50","91.70","0.2000","432"
"4938","和碩","10790093","789887716","73.30","73.40","73.00","73.20","0.0000","4697"
"4942","嘉彰","568689","24077445","42.10","42.65","42.05","42.35","0.4500","309"
"4943","康控-KY","872502","53393578","62.00","62.60","59.80","60.20","-1.8000","634"
"4952","凌通","552604","28230910","50.60","51.70","50.10","51.10","1.1000","397"
"4956","光鋐","6219231","146308606","22.65","24.40","22.50","23.85","1.5500","2287"
"4958","臻鼎-KY","8112511","786581921","94.50","98.70","94.00","97.00","3.4000","5624"
"4960","誠美材","7982230","98201008","12.25","12.45","12.10","12.35","0.2000","1886"
"4961","天鈺","30277427","10148852260","331.00","343.00","329.50","330.00","8.5000","24227"
"4967","十銓","10211200","601195284","57.90","60.20","57.30","58.70","1.9000","6167"
"4968","立積","1746076","893061172","515.00","520.00","505.00","507.00","-2.0000","1716"
"4976","佳凌","21349142","1867064206","87.10","89.70","85.20","85.90","1.3000","14537"
"4977","眾達-KY","190130","18077129","94.70","95.50","94.20","95.30","1.4000","186"
"4989","榮科","2127713","83953134","38.00","40.30","38.00","39.40","1.1500","1138"
"4994","傳奇","62000","4028300","66.00","66.00","64.50","64.60","-0.4000","59"
"4999","鑫禾","158311","7727228","48.60","49.05","48.50","48.85","0.6500","134"
"5007","三星","102978","6269392","60.80","61.50","60.40","60.60","-0.3000","77"
"5203","訊連","160151","13368693","83.10","84.20","82.80","83.90","1.1000","166"
"5215","科嘉-KY","274016","30733450","111.50","113.00","111.00","113.00","2.5000","233"
"5225","東科-KY","45000","922050","20.20","21.40","20.20","20.50","0.5500","33"
"5234","達興材料","151555","13409197","87.40","89.20","87.40","88.90","1.4000","78"
"5243","乙盛-KY","1968493","118522578","59.60","60.90","59.40","60.40","1.4000","1260"
"5258","虹堡","396103","8724491","22.20","22.25","21.85","22.00","0.1000","156"
"5269","祥碩","1788878","2660261655","1435.00","1555.00","1435.00","1440.00","-15.0000","2432"
"5283","禾聯碩","90514","10831435","120.00","120.50","119.00","119.50","0.0000","112"
"5284","jpp-KY","13003","562180","43.00","43.90","43.00","43.45","0.7000","9"
"5285","界霖","2189428","164513312","71.90","77.20","71.80","75.20","4.3000","1418"
"5288","豐祥-KY","64000","8869000","140.00","140.00","138.00","138.50","1.5000","48"
"5388","中磊","780046","51298102","65.80","66.00","65.50","66.00","0.8000","563"
"5434","崇越","1293400","168720293","130.00","131.50","129.50","131.00","2.0000","852"
"5469","瀚宇博","2228638","98826977","44.45","44.50","44.10","44.40","0.4000","1148"
"5471","松翰","4026753","378612005","94.60","94.70","93.20","94.10","0.1000","2834"
"5484","慧友","46746","657085","14.00","14.25","14.00","14.25","0.2000","32"
"5515","建國","536002","7087451","13.10","13.40","13.00","13.25","0.2000","197"
"5519","隆大","1180424","26164139","22.00","22.35","21.95","22.10","0.1000","558"
"5521","工信","2286542","23014755","10.00","10.15","9.95","10.10","0.2100","751"
"5522","遠雄","369319","20302425","54.80","55.50","54.70","55.00","0.5000","278"
"5525","順天","123142","3044355","24.75","24.85","24.65","24.65","-0.1000","65"
"5531","鄉林","2627172","32227479","12.20","12.45","12.05","12.20","0.2500","856"
"5533","皇鼎","149547","2407002","16.10","16.15","16.05","16.15","0.1000","42"
"5534","長虹","254269","20047020","78.60","79.00","78.60","79.00","0.5000","215"
"5538","東明-KY","104000","4461600","42.40","43.50","42.40","42.80","0.6000","65"
"5546","永固-KY","526601","41881042","78.20","80.30","78.20","80.30","1.8000","169"
"5607","遠雄港","1254106","41065859","32.00","33.65","32.00","32.45","0.3500","797"
"5608","四維航","77810517","2858517268","35.60","38.10","35.55","36.25","0.7000","36471"
"5706","鳳凰","437205","16943076","38.95","39.40","38.20","38.60","0.6000","314"
"5871","中租-KY","2764579","579454020","210.00","211.00","208.00","209.50","-3.0000","2369"
"5871A","中租-KY甲特","420200","41622594","99.10","99.30","98.90","99.00","-0.2000","176"
"5876","上海商銀","7191999","323611875","45.55","45.55","44.25","45.25","-0.3500","3298"
"5880","合庫金","12123985","251948712","20.65","20.85","20.60","20.85","0.2500","3391"
"5906","台南-KY","5557","231754","40.75","42.50","40.75","42.50","0.1500","9"
"5907","大洋-KY","249296","4810013","19.20","19.55","19.05","19.45","0.4500","134"
"6005","群益證","15415709","270615983","17.40","17.75","17.25","17.65","0.4500","4661"
"6024","群益期","306261","13358031","43.30","43.80","43.30","43.65","0.3500","267"
"6108","競國","224048","4245762","19.20","19.20","18.80","18.80","0.1000","108"
"6112","聚碩","165867","6869841","41.50","41.65","41.25","41.40","0.0000","143"
"6115","鎰勝","81877","3568141","43.60","43.65","43.45","43.65","0.1000","72"
"6116","彩晶","253297345","5362433087","20.80","21.65","20.40","21.30","1.1000","61948"
"6117","迎廣","10952","174949","16.00","16.00","15.90","16.00","0.0500","22"
"6120","達運","1816186","24939817","13.55","14.00","13.55","13.65","0.3000","659"
"6128","上福","129180","3216008","24.85","25.00","24.85","24.90","0.0500","42"
"6133","金橋","120547","1122421","9.17","9.46","9.17","9.38","0.1100","74"
"6136","富爾特","95191","1657382","17.35","17.50","17.35","17.40","0.0500","59"
"6139","亞翔","397126","11313649","28.10","28.90","28.10","28.65","0.6000","242"
"6141","柏承","389100","10706174","27.45","27.75","27.20","27.45","0.0500","252"
"6142","友勁","1053491","12770431","12.05","12.45","11.95","12.05","0.1000","436"
"6152","百一","821013","8599882","10.45","10.60","10.35","10.50","0.0500","296"
"6153","嘉聯益","2372147","70785953","29.70","30.05","29.50","29.95","0.7500","1283"
"6155","鈞寶","259762","6686073","25.50","25.95","25.35","25.65","0.3500","182"
"6164","華興","728014","7312721","9.98","10.15","9.80","10.10","0.3800","329"
"6165","浪凡","287054","9165218","32.00","32.20","31.75","31.80","-0.0500","203"
"6166","凌華","80317","4744749","59.90","60.00","58.80","59.30","0.4000","63"
"6168","宏齊","2066354","42323069","20.40","20.75","20.20","20.65","0.4500","803"
"6172","互億","12097","443495","37.15","37.15","36.50","36.50","0.0500","15"
"6176","瑞儀","1410426","165652426","117.50","118.00","116.50","118.00","1.5000","836"
"6177","達麗","247507","7405532","29.95","30.10","29.80","29.85","0.1000","140"
"6183","關貿","63517","3139389","49.40","49.75","49.15","49.15","0.2000","61"
"6184","大豐電","136164","6177183","45.30","45.50","45.15","45.15","-0.0500","95"
"6189","豐藝","421067","16728046","39.55","39.85","39.55","39.80","0.3000","223"
"6191","精成科","5964270","188210997","31.45","31.90","31.20","31.50","0.6000","2574"
"6192","巨路","103952","7386579","70.70","71.50","70.70","71.40","0.9000","83"
"6196","帆宣","491357","50529750","102.50","104.00","101.00","102.50","2.5000","460"
"6197","佳必琪","268320","10264146","37.95","38.45","37.95","38.15","0.4000","210"
"6201","亞弘電","26091","1201786","45.80","46.30","45.75","46.00","0.2500","20"
"6202","盛群","3280685","311866936","94.30","96.20","93.20","94.60","0.4000","2302"
"6205","詮欣","149000","4642650","30.95","31.40","30.95","31.00","0.0000","120"
"6206","飛捷","272964","17132844","61.50","63.50","61.50","62.40","1.4000","250"
"6209","今國光","1122855","37594962","33.00","33.80","32.95","33.55","0.8500","739"
"6213","聯茂","478614","59415996","123.50","125.50","123.00","124.00","2.0000","381"
"6214","精誠","228341","19835618","87.10","87.10","86.50","86.80","0.3000","250"
"6215","和椿","965403","21334568","22.00","22.45","21.60","21.80","0.0000","513"
"6216","居易","117198","2941118","25.10","25.15","25.05","25.10","0.0000","70"
"6224","聚鼎","563531","62959560","110.00","113.50","110.00","111.00","2.0000","497"
"6225","天瀚","7298","27805","4.10","4.10","3.75","3.78","0.0000","10"
"6226","光鼎","1064406","9824012","9.10","9.35","9.04","9.29","0.2900","381"
"6230","尼得科超眾","380592","76901107","207.50","207.50","198.00","201.50","-3.5000","303"
"6235","華孚","330556","6076937","18.25","18.55","18.25","18.30","0.2000","192"
"6239","力成","4159725","437547906","104.50","106.00","104.50","106.00","1.0000","1949"
"6243","迅杰","528848","8902199","16.65","17.20","16.55","16.65","0.1500","344"
"6251","定穎","3508524","67346543","19.00","19.45","19.00","19.40","0.5000","1344"
"6257","矽格","3161998","158139877","49.55","50.30","49.55","50.20","1.1500","1787"
"6269","台郡","2248109","258596764","114.50","115.50","114.50","115.50","2.5000","1459"
"6271","同欣電","3863695","703068382","177.00","184.50","176.00","183.00","9.5000","3013"
"6277","宏正","152991","12798493","83.70","84.00","83.30","83.30","0.2000","118"
"6278","台表科","5256886","619674393","118.00","119.00","117.00","117.50","1.5000","2644"
"6281","全國電","33229","2708203","81.50","81.60","81.30","81.50","0.0000","27"
"6282","康舒","3358329","88375941","26.15","26.65","26.00","26.35","0.2500","1535"
"6283","淳安","3492718","166630536","46.25","49.80","45.65","47.40","1.8000","2161"
"6285","啟碁","851228","56349886","65.60","66.50","65.60","66.20","0.6000","663"
"6288","聯嘉","1245946","33990332","26.80","27.70","26.75","27.70","1.0000","572"
"6289","華上","40226","122123","3.02","3.05","3.02","3.02","0.0200","21"
"6405","悅城","571385","15672396","26.85","28.20","26.60","27.65","1.0500","367"
"6409","旭隼","54707","68029860","1225.00","1260.00","1210.00","1260.00","30.0000","88"
"6412","群電","250904","17037417","67.30","68.40","67.10","67.90","0.8000","204"
"6414","樺漢","556397","116306645","209.00","210.00","207.00","209.00","2.0000","560"
"6415","矽力-KY","619094","2180899625","3510.00","3610.00","3410.00","3495.00","-15.0000","764"
"6416","瑞祺電通","789105","93401983","117.50","119.50","117.00","118.50","2.5000","643"
"6426","統新","158612","13119724","83.00","83.20","82.20","82.90","0.3000","138"
"6431","光麗-KY","19017","594278","31.20","31.45","30.70","31.20","0.0000","15"
"6438","迅得","387575","35921021","92.70","93.50","92.10","92.40","0.5000","364"
"6442","光聖","9435","308849","32.90","32.90","32.60","32.70","-0.2000","14"
"6443","元晶","11228007","373149421","33.50","33.65","32.80","33.00","0.0500","5672"
"6449","鈺邦","228058","13811558","60.20","61.10","60.00","61.00","0.8000","182"
"6451","訊芯-KY","653684","71658306","109.00","110.50","108.50","110.50","2.5000","433"
"6456","GIS-KY","1891443","184874879","98.30","98.50","97.10","97.50","0.0000","1595"
"6464","台數科","11020","1197669","109.00","109.00","108.50","109.00","1.0000","11"
"6477","安集","2238220","101440589","45.60","45.80","44.80","45.00","-0.1000","1400"
"6491","晶碩","518732","263225310","515.00","520.00","496.00","506.00","2.0000","563"
"6504","南六","360095","59300813","167.00","167.50","164.00","164.50","-1.0000","373"
"6505","台塑化","2661132","262225760","98.10","99.50","97.60","98.80","1.6000","1724"
"6515","穎崴","84002","22366302","270.00","271.50","261.00","266.00","-4.0000","114"
"6525","捷敏-KY","298420","22915342","76.60","77.60","75.70","76.60","1.4000","251"
"6531","愛普","2263489","1594271703","710.00","715.00","695.00","695.00","-3.0000","2151"
"6533","晶心科","2424795","1079252225","457.00","459.50","436.50","438.00","-8.5000","2417"
"6541","泰福-KY","2740096","171966717","65.20","65.20","59.90","63.00","1.8000","1948"
"6552","易華電","240140","12490907","51.30","52.60","51.20","51.90","1.5000","210"
"6558","興能高","354141","14032990","38.70","40.00","38.70","39.70","1.2000","244"
"6573","虹揚-KY","147000","2448850","16.65","17.00","16.30","16.55","0.3500","84"
"6579","研揚","74003","5064205","65.50","69.10","65.50","68.60","0.8000","35"
"6581","鋼聯","34000","2363300","68.80","70.00","68.80","70.00","1.7000","28"
"6582","申豐","1327169","374313246","282.50","286.00","278.50","280.00","-1.0000","1166"
"6591","動力-KY","433389","28337346","65.00","65.80","64.80","65.20","0.9000","278"
"6592","和潤企業","1586989","130578041","81.30","82.90","81.30","82.30","1.1000","481"
"6598","ABC-KY","802551","39749050","50.40","50.40","49.25","49.40","-0.9000","611"
"6605","帝寶","320340","18034820","55.50","56.70","55.50","56.40","1.3000","247"
"6625","必應","8627","238100","27.55","27.85","27.50","27.85","0.4000","14"
"6641","基士德-KY","16100","1096110","68.10","68.40","68.00","68.40","0.3000","15"
"6655","科定","70330","5038730","71.80","72.10","71.00","71.50","-0.2000","42"
"6666","羅麗芬-KY","18342","1421434","77.00","79.20","77.00","78.00","1.0000","21"
"6668","中揚光","901786","60277086","67.30","67.80","66.10","66.40","-0.4000","729"
"6669","緯穎","612006","556630269","924.00","925.00","899.00","909.00","-6.0000","599"
"6670","復盛應用","124921","27812557","224.00","224.00","220.50","221.00","-1.0000","133"
"6671","三能-KY","3000","142500","47.50","47.50","47.50","47.50","0.2500","3"
"6672","騰輝電子-KY","8425300","879390207","102.50","109.50","99.70","105.50","5.5000","5298"
"6674","鋐寶科技","49000","1412450","28.95","29.50","28.55","29.00","0.5000","41"
"6698","旭暉應材","94005","3869356","41.50","41.50","40.50","41.30","0.4000","67"
"6706","惠特","2010724","321283470","155.50","165.00","154.50","162.00","8.5000","1717"
"6715","嘉基","55098","5961436","107.00","109.00","107.00","108.00","1.5000","41"
"6743","安普新","612547","77949690","127.50","130.00","125.50","125.50","0.5000","544"
"6754","匯僑設計","90042","4035971","44.85","44.95","44.55","44.90","0.1000","78"
"6756","威鋒電子","284374","71286484","251.50","253.50","248.50","249.50","4.0000","325"
"6768","志強-KY","391677","29535673","74.40","76.80","73.70","74.60","0.2000","273"
"6776","展碁國際","137960","5339740","38.75","39.00","38.30","38.80","0.6000","131"
"6781","AES-KY","397280","326813148","812.00","842.00","804.00","818.00","0.0000","603"
"8011","台通","638952","10927910","17.10","17.30","16.90","17.05","0.2500","324"
"8016","矽創","6710321","1792202735","262.50","273.00","261.50","266.00","9.5000","5174"
"8021","尖點","5053356","203482206","40.55","41.80","39.25","39.65","-0.5500","2828"
"8028","昇陽半導體","492380","22697772","45.95","46.60","45.75","46.05","0.8500","315"
"8033","雷虎","1036070","16937683","16.35","16.35","16.25","16.35","1.4500","421"
"8039","台虹","853138","40475974","47.20","47.70","47.20","47.50","0.4000","607"
"8046","南電","8007406","2535070038","322.00","323.00","313.00","313.00","-5.0000","6483"
"8070","長華*","3870213","133000921","34.00","34.85","33.70","34.00","0.6000","2179"
"8072","陞泰","19917","502050","25.00","25.45","25.00","25.30","0.4500","34"
"8081","致新","1373517","301057768","221.00","222.00","217.50","220.00","1.0000","1237"
"8101","華冠","106103","294662","2.73","2.80","2.73","2.80","0.0700","32"
"8103","瀚荃","1735582","71517744","41.20","41.60","40.80","40.90","-0.2000","1183"
"8104","錸寶","205221","10228907","49.20","50.30","49.20","49.80","1.1000","160"
"8105","凌巨","2955355","41334428","13.75","14.20","13.70","13.90","0.3000","1161"
"8110","華東","6641291","99914774","14.80","15.25","14.75","15.05","0.5000","2130"
"8112","至上","3195306","127071101","39.80","39.90","39.60","39.75","0.2500","2116"
"8114","振樺電","36159","2544520","69.50","70.80","69.50","70.60","0.7000","35"
"8131","福懋科","282586","11019331","38.80","39.25","38.70","39.10","0.6000","187"
"8150","南茂","4526716","203288147","44.95","45.25","44.55","44.95","0.6000","2957"
"8163","達方","2492630","106496531","42.70","43.20","42.30","42.75","0.0500","1463"
"8201","無敵","37008","363157","9.72","9.95","9.72","9.76","0.0300","26"
"8210","勤誠","720779","56751836","79.30","79.30","78.20","78.70","0.2000","552"
"8213","志超","1207222","57676432","47.65","47.95","47.50","47.85","0.4000","640"
"8215","明基材","3622826","94012474","25.40","26.50","25.35","26.25","1.0500","1826"
"8222","寶一","509186","6843708","12.80","13.80","12.80","13.60","1.0500","436"
"8249","菱光","169026","3678035","21.55","21.90","21.55","21.80","0.3500","105"
"8261","富鼎","8014630","507307778","62.90","64.80","61.90","62.10","0.1000","4062"
"8271","宇瞻","1487239","67077362","44.60","45.50","44.55","45.15","1.1000","919"
"8341","日友","140184","29719311","210.00","214.50","210.00","213.00","4.0000","298"
"8367","建新國際","496020","17865161","35.85","36.45","35.15","36.10","0.4000","314"
"8374","羅昇","52379","1345314","25.55","25.75","25.55","25.60","0.2500","44"
"8404","百和興業-KY","1491048","69978232","47.55","47.75","46.30","46.90","-0.4500","921"
"8411","福貞-KY","69605","966999","13.80","14.10","13.80","13.95","0.1500","89"
"8422","可寧衛","182491","31139108","170.50","171.50","170.00","170.00","0.5000","235"
"8427","基勝-KY","5000","252100","50.40","50.50","50.40","50.40","-0.9000","4"
"8429","金麗-KY","8132877","99308186","12.35","12.70","11.80","12.60","0.2500","3748"
"8442","威宏-KY","14000","548750","39.45","39.45","38.70","39.40","0.4000","6"
"8443","阿瘦","173693","1977253","11.50","11.50","11.30","11.50","0.0500","108"
"8454","富邦媒","425096","520482685","1195.00","1260.00","1180.00","1250.00","80.0000","799"
"8462","柏文","61871","8736235","141.00","142.50","140.50","141.50","-0.5000","170"
"8463","潤泰材","61005","2229349","36.40","36.80","36.30","36.35","-0.0500","34"
"8464","億豐","351347","143634760","415.00","418.00","404.00","408.00","-8.5000","287"
"8466","美吉吉-KY","198100","10805000","51.90","56.40","51.90","55.50","3.8000","115"
"8467","波力-KY","2000","81100","40.80","40.80","40.30","40.30","-0.5000","2"
"8473","山林水","214791","9196860","42.85","43.30","42.05","42.65","0.1000","171"
"8478","東哥遊艇","57510","2952110","50.80","51.90","50.80","51.70","1.2000","56"
"8480","泰昇-KY","1006","112672","112.00","112.00","112.00","112.00","0.5000","3"
"8481","政伸","19000","1541800","79.80","82.20","79.80","80.90","1.3000","16"
"8482","商億-KY","5432","408938","75.00","75.50","74.60","75.40","0.4000","8"
"8488","吉源-KY","12000","183700","15.20","15.60","15.00","15.20","0.0000","12"
"8499","鼎炫-KY","82510","10961868","132.00","133.50","132.00","133.00","2.0000","84"
"8926","台汽電","555830","21401311","38.40","38.60","38.30","38.50","0.1500","355"
"8940","新天地","260287","2872044","11.10","11.20","10.95","11.20","0.0000","238"
"8996","高力","283385","12762023","44.85","45.30","44.70","45.10","0.5000","187"
"9103","美德醫療-DR","5133915","136246480","27.30","27.30","26.25","26.70","-0.1000","2859"
"910322","康師傅-DR","18000","478500","26.65","26.90","26.25","26.50","-0.2000","14"
"9105","泰金寶-DR","8757700","39031435","4.47","4.49","4.42","4.48","0.0700","1742"
"910861","神州-DR","24000","229040","9.57","9.58","9.48","9.49","-0.0800","10"
"9110","越南控-DR","149000","428090","2.86","2.90","2.85","2.90","0.0200","56"
"911608","明輝-DR","296000","1193760","4.18","4.19","3.95","3.98","-0.1000","98"
"911616","杜康-DR","382100","684457","1.78","1.85","1.76","1.82","0.0300","32"
"911622","泰聚亨-DR","360021","2217063","5.94","6.49","5.94","6.22","0.2800","144"
"911868","同方友友-DR","626000","910780","1.44","1.48","1.44","1.45","0.0000","140"
"912000","晨訊科-DR","1075000","2855970","2.65","2.69","2.64","2.66","0.0100","200"
"912398","友佳-DR","85598","370130","4.35","4.35","4.25","4.34","0.0600","55"
"9136","巨騰-DR","253000","2187100","8.60","8.72","8.60","8.60","-0.0300","92"
"9188","精熙-DR","207000","603150","2.92","2.94","2.90","2.92","0.0200","45"
"9802","鈺齊-KY","1130724","139822712","125.00","125.00","122.50","123.50","0.5000","682"
"9902","台火","922687","12140018","12.80","13.40","12.80","13.10","0.3000","391"
"9904","寶成","17482344","669374457","38.50","38.65","37.80","38.25","-0.1000","7650"
"9905","大華","376530","9739681","25.50","26.15","25.50","25.95","0.4500","219"
"9906","欣巴巴","19998","857733","43.75","43.75","42.05","43.00","-0.1000","23"
"9907","統一實","19693043","263676217","12.80","13.65","12.80","13.45","0.8000","5638"
"9908","大台北","42303","1423357","33.80","33.80","33.55","33.60","-0.0500","54"
"9910","豐泰","2184959","530038839","235.00","248.00","233.00","245.00","13.0000","1885"
"9911","櫻花","240162","15679816","66.00","66.00","65.00","65.40","-0.1000","253"
"9912","偉聯","62129","574269","9.17","9.39","9.15","9.30","0.0000","70"
"9914","美利達","1181973","375083044","311.00","323.00","307.00","321.00","11.0000","1145"
"9917","中保科","496642","45346726","91.70","91.70","91.00","91.30","-0.3000","563"
"9918","欣天然","27339","1083911","39.40","39.85","39.40","39.85","0.5000","29"
"9919","康那香","4839693","175277787","36.50","36.65","36.00","36.30","-0.2000","2846"
"9921","巨大","1411484","471318081","332.00","338.50","324.50","333.00","7.0000","1139"
"9924","福興","276895","12282787","44.50","44.80","44.10","44.60","0.1000","194"
"9925","新保","229982","8802032","38.25","38.35","38.20","38.20","-0.0500","158"
"9926","新海","7001","335498","47.75","48.05","47.75","48.05","0.2500","8"
"9927","泰銘","775734","23794740","30.15","30.95","30.15","30.90","0.9000","459"
"9928","中視","22863","132690","5.80","5.81","5.80","5.81","0.2600","17"
"9929","秋雨","26369","314828","12.05","12.20","11.85","11.90","-0.1000","15"
"9930","中聯資源","95903","4426358","45.80","46.45","45.80","46.40","0.6000","103"
"9931","欣高","2006","80842","39.85","40.75","39.85","40.75","0.6500","5"
"9933","中鼎","1293843","48921718","38.00","38.05","37.70","37.80","-0.0500","647"
"9934","成霖","616605","10268113","16.65","16.75","16.55","16.65","0.1000","251"
"9935","慶豐富","374733","8435062","22.55","22.65","22.40","22.40","0.0500","178"
"9937","全國","24765","1167681","47.00","47.30","46.90","47.15","0.0000","33"
"9938","百和","791820","75396966","95.20","96.80","94.20","94.30","0.1000","662"
"9939","宏全","1017492","71660294","70.70","70.80","70.20","70.50","0.4000","638"
"9940","信義","553431","16832086","30.40","30.55","30.20","30.50","0.1000","338"
"9941","裕融","669280","91492469","136.00","138.00","135.00","136.50","1.5000","629"
"9941A","裕融甲特","11000","558400","50.70","50.80","50.70","50.80","0.1000","8"
"9942","茂順","132381","11932267","89.10","90.60","89.10","90.30","1.2000","113"
"9943","好樂迪","201614","12525981","61.70","62.50","61.60","62.10","0.2000","161"
"9944","新麗","607132","13288498","22.25","22.25","21.80","21.95","-0.0500","301"
"9945","潤泰新","3666771","192035108","52.10","52.60","52.10","52.40","0.4000","2008"
"9946","三發地產","181705","2759523","15.20","15.25","15.05","15.10","-0.0500","88"
"9955","佳龍","1594751","31751839","19.10","20.45","19.00","20.45","1.8500","892"
"9958","世紀鋼","5798381","621185559","106.00","109.00","105.50","106.00","0.5000","3103"
