證券代號,證券名稱,成交股數,成交金額,開盤價,最高價,最低價,收盤價,漲跌價差,成交筆數
"0050","元大台灣50","10375497","1367233343","131.55","132.65","131.15","132.15","-0.2000","8922"
"0051","元大中型100","91568","4700037","50.75","51.90","50.65","51.55","0.5500","66"
"0052","富邦科技","779959","93032874","118.25","119.95","118.05","119.20","0.0500","310"
"0053","元大電子","13503","839785","62.10","62.75","60.45","62.75","0.2500","25"
"0054","元大台商50","4247","127447","29.83","30.21","29.83","30.21","0.2900","6"
"0055","元大MSCI金融","72054","1494067","20.72","20.82","20.65","20.82","0.0200","61"
"0056","元大高股息","19631541","666418278","33.84","34.10","33.65","34.05","0.0500","14745"
"0057","富邦摩台","28055","2510104","89.30","89.60","88.70","89.60","0.2000","11"
"0061","元大寶滬深","173153","4082811","23.73","23.75","23.47","23.60","-0.1300","104"
"006203","元大MSCI台灣","5003","310686","61.85","62.35","61.85","62.35","0.1000","6"
"006204","永豐臺灣加權","22050","1832982","82.55","83.20","82.55","83.20","0.3500","6"
"006205","富邦上証","938741","35593542","38.24","38.24","37.67","38.04","-0.1000","190"
"006206","元大上證50","178463","6794623","38.38","38.38","37.90","38.24","-0.0600","67"
"006207","FH滬深","385101","11849115","30.83","30.92","30.64","30.85","-0.1800","63"
"006208","富邦台50","1198683","90836537","75.90","76.25","75.40","76.05","0.0000","1455"
"00625K","富邦上証+R","","","","","","","0.0000",""
"00631L","元大台灣50正2","5274862","589020978","110.30","113.10","110.05","112.50","0.8000","1651"
"00632R","元大台灣50反1","212632559","1288171753","6.10","6.11","6.01","6.02","-0.0300","9694"
"00633L","富邦上証正2","6808050","459641360","67.35","68.15","66.50","67.95","-0.1000","1187"
"00634R","富邦上証反1","232000","894320","3.85","3.88","3.85","3.85","0.0100","21"
"00635U","期元大S&P黃金","853353","21572788","25.21","25.32","25.21","25.29","0.1300","364"
"00636","國泰中國A50","1702025","46472317","27.50","27.50","27.15","27.43","-0.1100","400"
"00636K","國泰中國A50+U","200","1966","9.83","9.83","9.83","9.83","0.0300","2"
"00637L","元大滬深300正2","38212512","1020415910","26.76","26.98","26.34","26.91","0.0100","6079"
"00638R","元大滬深300反1","1926000","14968620","7.74","7.83","7.73","7.75","0.0000","78"
"00639","富邦深100","830724","14083713","17.02","17.02","16.77","17.00","-0.0300","167"
"00640L","富邦日本正2","358000","9985940","27.69","27.99","27.62","27.73","0.2500","50"
"00641R","富邦日本反1","649008","7043907","10.88","10.88","10.83","10.87","-0.0500","78"
"00642U","期元大S&P石油","11191421","121857415","10.86","10.93","10.85","10.89","0.2700","1642"
"00643","群益深証中小","560843","9908569","17.77","17.77","17.58","17.71","-0.0600","128"
"00643K","群益深証中小+R","","","","","","","0.0000",""
"00645","富邦日本","120753","3021374","25.02","25.06","25.00","25.02","0.1200","19"
"00646","元大S&P500","195182","6946890","35.61","35.63","35.54","35.61","-0.0200","159"
"00647L","元大S&P500正2","53000","3249000","61.30","61.35","61.15","61.15","-0.3000","13"
"00648R","元大S&P500反1","1432000","10630590","7.43","7.44","7.42","7.43","0.0000","57"
"00650L","FH香港正2","757000","22249650","29.50","29.50","29.05","29.50","-0.0400","37"
"00651R","FH香港反1","226000","1581420","6.95","7.01","6.95","6.95","0.0200","17"
"00652","富邦印度","277734","7109771","25.75","25.75","25.52","25.66","0.1600","108"
"00653L","富邦印度正2","917058","33051121","36.00","36.34","35.79","36.18","0.3900","274"
"00654R","富邦印度反1","357000","3378620","9.50","9.52","9.44","9.45","-0.0500","84"
"00655L","國泰中國A50正2","3479098","177161618","50.70","51.40","50.10","51.30","0.0000","693"
"00656R","國泰中國A50反1","152000","1085380","7.11","7.15","7.09","7.10","0.0000","22"
"00657","國泰日經225","100305","3486431","34.77","34.77","34.77","34.77","0.0500","4"
"00657K","國泰日經225+U","600","7464","12.44","12.44","12.44","12.44","0.0200","1"
"00660","元大歐洲50","15942","457083","28.54","28.74","28.54","28.74","0.2100","7"
"00661","元大日經225","41000","1447540","35.29","35.34","35.27","35.34","0.5000","4"
"00662","富邦NASDAQ","248110","11942978","48.30","48.31","48.01","48.15","-0.3600","140"
"00663L","國泰臺灣加權正2","107000","10671200","98.95","101.50","98.95","101.25","0.9500","30"
"00664R","國泰臺灣加權反1","7539000","51813000","6.92","6.93","6.82","6.84","-0.0300","614"
"00665L","富邦恒生國企正2","117000","2769180","23.58","23.77","23.40","23.70","-0.2800","41"
"00666R","富邦恒生國企反1","78000","872020","11.17","11.22","11.17","11.18","0.0600","6"
"00668","國泰美國道瓊","56510","1958287","34.78","34.78","34.60","34.60","0.1300","29"
"00668K","國泰美國道瓊+U","2400","29436","12.28","12.28","12.25","12.25","-0.0800","6"
"00669R","國泰美國道瓊反1","4154890","33725139","8.13","8.13","8.10","8.13","-0.0300","288"
"00670L","富邦NASDAQ正2","437251","37984012","86.85","87.15","86.50","87.00","-1.2500","146"
"00671R","富邦NASDAQ反1","2894009","17488544","6.05","6.05","6.03","6.04","0.0300","141"
"00673R","期元大S&P原油反1","735044","12965358","17.68","17.70","17.58","17.65","-0.4500","185"
"00674R","期元大S&P黃金反1","58000","734960","12.68","12.69","12.66","12.68","-0.0400","20"
"00675L","富邦臺灣加權正2","1192005","51322066","42.41","43.60","42.36","43.36","0.3600","474"
"00676R","富邦臺灣加權反1","10778199","40311180","3.77","3.78","3.71","3.72","-0.0200","679"
"00677U","期富邦VIX","40305387","67913452","1.69","1.70","1.68","1.68","-0.0200","1318"
"00678","群益NBI生技","330000","8963070","27.32","27.32","27.13","27.18","-0.1400","25"
"00680L","元大美債20正2","11000","242890","22.08","22.11","22.06","22.08","0.1200","7"
"00681R","元大美債20反1","48000","689360","14.35","14.38","14.34","14.38","-0.0300","9"
"00682U","期元大美元指數","108000","1932850","17.90","17.90","17.86","17.89","0.0600","27"
"00683L","期元大美元指正2","760000","12492930","16.37","16.45","16.37","16.44","0.1000","162"
"00684R","期元大美元指反1","","","","","","","0.0000",""
"00685L","群益臺灣加權正2","11000","414470","37.37","38.10","37.37","37.91","0.5200","7"
"00686R","群益臺灣加權反1","475000","1941720","4.10","4.10","4.05","4.07","-0.0200","39"
"00688L","國泰20年美債正2","84000","1854270","22.07","22.09","22.04","22.09","0.1200","10"
"00689R","國泰20年美債反1","79000","1193650","15.10","15.12","15.08","15.09","-0.0500","11"
"00690","兆豐藍籌30","20273","637691","31.36","31.62","31.36","31.53","-0.0700","25"
"00692","富邦公司治理","2034613","68803232","33.77","33.97","33.60","33.89","-0.0100","722"
"00693U","期街口S&P黃豆","1227302","28146811","22.97","23.02","22.84","22.95","-0.1800","334"
"00700","富邦恒生國企","114298","2148958","18.79","18.81","18.61","18.81","-0.0400","12"
"00701","國泰股利精選30","602709","14262492","23.70","23.73","23.55","23.69","-0.0600","351"
"00702","國泰標普低波高息","104075","2171274","20.85","20.87","20.85","20.85","0.0200","10"
"00703","台新MSCI中國","95000","2284230","23.95","24.16","23.95","24.16","-0.3300","15"
"00706L","期元大S&P日圓正2","26000","423310","16.31","16.31","16.28","16.28","-0.0500","3"
"00707R","期元大S&P日圓反1","","","","","","","0.0000",""
"00708L","期元大S&P黃金正2","1864073","54455007","29.07","29.30","29.07","29.21","0.3000","496"
"00709","富邦歐洲","114094","2719569","23.83","23.87","23.83","23.87","0.0700","17"
"00710B","FH彭博高收益債","214322","3950463","18.41","18.46","18.40","18.42","0.0100","57"
"00711B","FH彭博新興債","104200","2079763","19.93","19.97","19.93","19.95","0.0200","10"
"00712","FH富時不動產","1171637","16783093","14.31","14.34","14.30","14.33","0.0100","532"
"00713","元大台灣高息低波","62903","2597423","41.25","41.50","40.91","41.35","0.0000","69"
"00714","群益道瓊美國地產","49103","1029189","21.01","21.01","20.95","20.95","-0.0700","13"
"00715L","期街口布蘭特正2","49855600","355452554","7.10","7.19","7.07","7.14","0.3000","3743"
"00717","富邦美國特別股","664000","11094095","16.67","16.73","16.67","16.72","0.0500","155"
"00728","第一金工業30","185565","5059454","27.06","27.47","27.06","27.30","0.1200","148"
"00730","富邦臺灣優質高息","343440","7099005","20.60","20.75","20.60","20.70","0.0500","140"
"00731","FH富時高息低波","267288","15116066","56.55","56.70","56.50","56.55","-0.0500","23"
"00732","國泰RMB短期報酬","114","4529","","","","","0.0000","1"
"00733","富邦臺灣中小","644702","25501393","38.46","40.19","38.46","40.00","1.0100","359"
"00735","國泰臺韓科技","142000","4600400","32.45","32.55","32.31","32.39","-0.0500","11"
"00736","國泰新興市場","110387","2545248","23.10","23.10","23.01","23.09","0.0000","7"
"00737","國泰AI+Robo","75993","2368174","31.24","31.24","31.14","31.20","0.0100","39"
"00738U","期元大道瓊白銀","727591","20838387","28.48","28.75","28.44","28.68","-0.0200","284"
"00739","元大MSCI A股","186069","5226066","28.42","28.42","27.86","28.16","-0.1000","60"
"00742","新光內需收益","66000","1451830","21.93","22.00","21.92","22.00","0.0300","8"
"00743","國泰中國A150","142148","4170031","29.41","29.45","29.18","29.42","-0.0100","10"
"00752","中信中國50","879634","24988866","28.70","28.70","28.26","28.42","-0.3900","519"
"00753L","中信中國50正2","349000","12237790","35.88","35.88","34.80","35.32","-0.6000","146"
"00757","統一FANG+","709125","31514480","44.40","44.81","44.29","44.60","-0.2200","573"
"00762","元大全球AI","71167","2605442","36.67","36.67","36.50","36.58","-0.1700","29"
"00763U","期街口道瓊銅","630953","18324148","29.02","29.18","28.87","29.02","-0.4300","264"
"00770","國泰北美科技","105466","3599656","34.16","34.16","34.08","34.12","-0.2100","15"
"00771","元大US高息特別股","10924","207654","19.00","19.02","19.00","19.02","0.0200","11"
"00774B","新光中國政金綠債","2000","78460","39.23","39.23","39.23","39.23","0.0600","2"
"00774C","新光中政金綠債+R","","","","","","","0.0000",""
"00775B","新光投等債15+","2000","81400","40.70","40.70","40.70","40.70","0.1800","2"
"00783","富邦中証500","488000","10854800","22.21","22.27","22.10","22.22","-0.0600","16"
"008201","BP上證50","","","","","","","0.0000",""
"00830","國泰費城半導體","689110","18534543","26.89","26.94","26.85","26.90","-0.1200","290"
"00850","元大臺灣ESG永續","1033745","33942149","32.79","33.02","32.65","32.92","0.0300","593"
"00851","台新全球AI","18006","529036","29.48","29.48","29.35","29.41","-0.1900","8"
"00852L","國泰美國道瓊正2","281000","5776980","20.56","20.59","20.52","20.55","0.1800","88"
"00861","元大全球未來通訊","1493687","41726951","28.07","28.07","27.89","27.95","-0.1600","441"
"00865B","國泰US短期公債","","","","","","","0.0000",""
"00875","國泰網路資安","722081","21981885","30.32","30.49","30.32","30.44","0.0400","170"
"00876","元大未來關鍵科技","1312387","36381725","27.70","27.80","27.62","27.73","-0.1200","615"
"00878","國泰永續高股息","5719871","102115621","17.85","17.94","17.78","17.90","-0.0600","3060"
"00881","國泰台灣5G+","20763017","349400246","16.75","16.97","16.71","16.92","0.0700","7006"
"00882","中信中國高股息","2556228","40931429","16.00","16.05","16.00","16.00","-0.0200","1017"
"00885","富邦越南","7541145","116219615","15.37","15.48","15.35","15.43","0.0600","2347"
"01001T","土銀富邦R1","30000","539580","18.00","18.00","17.98","18.00","0.0200","10"
"01002T","土銀國泰R1","129596","2376608","18.34","18.35","18.29","18.34","0.0000","58"
"01003T","兆豐新光R1","69038","1315838","19.05","19.07","19.00","19.07","0.0000","31"
"01004T","土銀富邦R2","18040","298578","16.55","16.56","16.54","16.54","0.0000","14"
"01007T","兆豐國泰R2","65908","1331460","20.25","20.25","20.16","20.23","-0.1000","26"
"01009T","王道圓滿R1","13000","119520","9.20","9.20","9.19","9.20","-0.0100","8"
"01010T","京城樂富R1","32000","348750","10.75","11.45","10.75","10.88","0.1300","20"
"020000","富邦特選蘋果N","6000","43260","7.19","7.25","7.19","7.25","-0.0500","2"
"020002","元富新中國N","11000","214770","19.54","19.54","19.47","19.47","0.0000","3"
"020004","兆豐電菁英30N","","","","","","","0.0000",""
"020006","永昌中小300N","23000","690640","30.00","30.08","30.00","30.08","0.4600","2"
"020007","凱基臺灣500N","","","","","","","0.0000",""
"020008","元大特股高息N","","","","","","","0.0000",""
"020011","統一微波高息20N","16000","100160","6.27","6.27","6.24","6.26","0.0100","3"
"020012","富邦行動通訊N","7000","42150","6.03","6.03","6.02","6.02","0.0000","3"
"020015","統一MSCI美低波N","","","","","","","0.0000",""
"020016","統一MSCI美科技N","","","","","","","0.0000",""
"020018","統一價值成長30N","84000","1235620","14.45","14.82","14.45","14.72","0.1800","22"
"020019","統一特選台灣5GN","212000","2776190","13.06","13.19","13.03","13.18","0.0800","21"
"02001L","富邦蘋果正二N","","","","","","","0.0000",""
"02001R","富邦蘋果反一N","5000","15050","3.01","3.01","3.01","3.01","-0.0100","1"
"020020","元大台股領航N","1100000","7554040","6.89","6.90","6.83","6.87","-0.0200","209"
"020022","元大電動車N","6239000","34822280","5.45","5.66","5.44","5.61","0.0800","683"
"1101","台泥","16039843","819541028","50.80","51.50","50.40","51.30","0.1000","7548"
"1101B","台泥乙特","75","3975","","","","","0.0000","1"
"1102","亞泥","5845275","289796848","50.00","50.70","49.95","50.30","-0.3000","2615"
"1103","嘉泥","1428207","30609286","21.00","21.90","21.00","21.60","-0.1000","527"
"1104","環泥","809976","18268548","22.35","22.75","22.20","22.55","0.2000","414"
"1108","幸福","2134910","30008453","13.90","14.35","13.80","14.00","-0.2500","838"
"1109","信大","447761","11647571","25.30","26.50","25.30","26.15","0.0500","234"
"1110","東泥","92010","1487912","16.15","16.30","16.00","16.25","0.1000","42"
"1201","味全","1576946","33891047","21.60","21.75","21.35","21.40","-0.2000","765"
"1203","味王","92228","3258721","35.90","36.15","35.35","35.70","-0.2000","110"
"1210","大成","1853945","103674008","56.90","56.90","56.10","56.50","-0.4000","1426"
"1213","大飲","","","","","","","0.0000",""
"1215","卜蜂","820232","61446485","77.90","78.00","77.50","77.80","0.4000","498"
"1216","統一","6190311","455728292","74.50","74.50","73.20","73.60","-1.4000","5007"
"1217","愛之味","24170396","314364228","12.60","13.40","12.60","12.75","-0.1500","8052"
"1218","泰山","2530787","72754605","29.15","29.35","28.80","28.85","-0.3000","1288"
"1219","福壽","1627871","37558555","23.00","23.40","22.85","22.95","-0.1000","699"
"1220","台榮","811064","12910844","15.95","16.15","15.50","15.90","-0.1500","421"
"1225","福懋油","242987","10727629","43.30","44.85","43.00","44.25","0.6500","189"
"1227","佳格","1321581","68523533","52.50","52.50","51.80","52.10","-0.1000","1017"
"1229","聯華","1423021","67634468","47.60","47.85","47.20","47.55","-0.1000","1202"
"1231","聯華食","749983","44297534","59.50","59.90","58.50","58.90","-0.7000","906"
"1232","大統益","133009","21074315","161.00","162.50","159.00","161.50","0.5000","254"
"1233","天仁","9176","315337","34.50","34.50","34.30","34.30","-0.2000","12"
"1234","黑松","150637","5247913","34.60","34.95","34.60","34.80","-0.0500","135"
"1235","興泰","22192","721553","32.50","33.80","32.35","32.80","0.3500","22"
"1236","宏亞","272717","4383458","15.85","16.20","15.80","16.15","0.0500","144"
"1256","鮮活果汁-KY","27590","12142515","439.00","441.50","438.00","440.00","3.0000","147"
"1301","台塑","5699516","564097772","97.90","99.50","97.00","98.90","0.8000","2945"
"1303","南亞","5804540","472287069","81.50","82.00","80.80","81.70","-0.7000","3122"
"1304","台聚","15147878","472073098","31.00","32.40","30.70","31.35","-0.2000","5737"
"1305","華夏","9240544","291394971","32.00","32.95","31.65","32.30","0.0500","3267"
"1307","三芳","418772","8956080","20.60","21.90","20.60","21.50","0.4500","182"
"1308","亞聚","7737746","215027496","27.25","28.20","27.25","27.80","-0.0500","2784"
"1309","台達化","6774570","264191082","38.95","39.85","38.35","39.00","0.0000","3778"
"1310","台苯","2123180","39849470","18.60","19.00","18.25","18.75","0.1500","913"
"1312","國喬","21210766","532310250","25.10","25.60","24.50","25.15","0.3500","6230"
"1312A","國喬特","22000","745850","33.70","34.00","33.70","33.85","0.1500","7"
"1313","聯成","19815776","469929200","22.80","24.50","22.75","23.40","0.6000","6407"
"1314","中石化","96089882","1201093763","12.15","12.75","12.10","12.40","0.2000","16189"
"1315","達新","200290","14080614","70.20","70.90","70.00","70.30","0.1000","159"
"1316","上曜","853188","9477973","10.95","11.40","10.90","11.05","0.0500","208"
"1319","東陽","1842101","56900465","31.85","32.00","31.60","31.80","-0.3000","871"
"1321","大洋","267173","9098258","34.50","35.25","34.40","35.00","0.5000","136"
"1323","永裕","105500","3486027","32.70","33.30","32.70","33.30","0.4500","75"
"1324","地球","31036","322934","10.50","10.50","10.35","10.40","0.0500","33"
"1325","恆大","8754455","817398944","94.50","97.60","91.10","91.30","-1.0000","5955"
"1326","台化","3604052","301859900","83.50","84.40","83.10","83.70","-0.5000","1627"
"1337","再生-KY","913519","6780944","7.49","7.54","7.33","7.50","0.0500","425"
"1338","廣華-KY","557405","34048770","59.00","62.10","58.80","61.40","2.0000","434"
"1339","昭輝","105000","3932200","37.30","37.75","36.90","37.70","0.1000","95"
"1340","勝悅-KY","370722","3693662","10.35","10.55","10.20","10.50","0.2000","186"
"1341","富林-KY","5016","391955","78.50","78.50","78.00","78.00","-0.9000","21"
"1342","八貫","23000","1178300","50.80","51.90","50.80","51.60","0.3000","21"
"1402","遠東新","8836190","268418567","30.15","31.30","30.10","30.55","0.0500","3434"
"1409","新纖","56300431","1220545790","21.20","22.40","20.50","21.35","0.5500","20268"
"1410","南染","21001","725534","34.25","35.00","34.25","34.65","0.1500","19"
"1413","宏洲","3290275","43888433","12.60","13.55","12.20","13.55","1.2000","1485"
"1414","東和","13522377","252130946","17.40","19.50","17.35","18.35","0.3500","5049"
"1416","廣豐","698295","7448543","10.55","11.05","10.55","10.95","0.2500","226"
"1417","嘉裕","11351128","184721166","15.55","16.80","15.40","16.60","1.2000","4258"
"1418","東華","5011","60130","12.00","12.00","12.00","12.00","-0.4000","3"
"1419","新紡","28297","1101986","39.00","39.50","38.60","39.10","0.5000","33"
"1423","利華","372634","7817029","20.65","21.30","20.60","21.00","0.3500","223"
"1432","大魯閣","427486","5990221","13.95","14.20","13.90","13.95","-0.3500","464"
"1434","福懋","2185480","67121502","30.25","30.95","30.20","30.90","0.6000","986"
"1435","中福","74131","1268909","17.05","17.35","17.05","17.35","1.5500","63"
"1436","華友聯","13942","551163","39.60","39.80","39.10","39.70","0.2000","16"
"1437","勤益控","378413","9048894","24.20","24.85","24.00","24.80","0.6500","145"
"1438","三地開發","71060","2055017","29.30","29.30","28.30","29.15","-0.1500","40"
"1439","中和","137232","3229977","23.95","25.00","23.95","24.50","0.5500","69"
"1440","南紡","112158583","3080892860","26.05","28.40","25.50","28.40","2.5500","31117"
"1441","大東","5261661","72138676","12.00","14.15","12.00","14.15","1.2500","2301"
"1442","名軒","253368","4304670","17.10","17.50","16.95","16.95","-0.2000","99"
"1443","立益","44719","540833","11.80","12.65","11.80","12.00","-0.2500","42"
"1444","力麗","25531471","316767462","11.95","12.70","11.65","12.35","0.4000","7188"
"1445","大宇","734147","9526109","12.90","13.40","12.45","12.80","0.1000","316"
"1446","宏和","83000","2222500","27.40","28.25","27.35","28.25","0.8500","29"
"1447","力鵬","43710287","549021328","12.10","12.90","11.80","12.55","0.3500","11309"
"1449","佳和","205829","3170642","15.40","15.65","15.00","15.60","0.2000","124"
"1451","年興","4402070","95701791","20.20","22.15","19.85","22.15","2.0000","1524"
"1452","宏益","21539939","550254107","24.00","26.05","23.30","26.05","2.3500","8102"
"1453","大將","637850","5983128","9.00","9.75","9.00","9.43","0.4300","345"
"1454","台富","671130","7104683","10.05","10.90","9.98","10.80","0.8400","317"
"1455","集盛","96286197","2437297143","23.85","26.10","23.05","26.10","2.3500","25196"
"1456","怡華","290677","5141109","17.40","18.30","17.30","17.70","0.3000","183"
"1457","宜進","18084925","336615085","17.30","19.20","17.20","18.65","0.9500","6519"
"1459","聯發","9717983","150205385","14.50","16.15","14.00","15.85","1.1000","3362"
"1460","宏遠","21869597","275130223","12.00","12.75","12.00","12.75","1.1500","5545"
"1463","強盛","1220742","17482495","13.85","14.85","13.65","14.45","0.6000","652"
"1464","得力","850518","14734993","16.80","17.60","16.75","17.40","0.5500","601"
"1465","偉全","230407","3011350","12.70","13.30","12.65","13.15","0.5000","141"
"1466","聚隆","6316650","109255177","16.50","17.90","16.00","17.90","1.6000","2639"
"1467","南緯","3855567","71180902","18.60","19.15","18.20","18.30","0.0000","1328"
"1468","昶和","86005","1108165","13.00","13.25","12.50","13.20","0.0500","67"
"1470","大統新創","125010","1948506","15.90","15.90","15.45","15.55","-0.4500","57"
"1471","首利","1143398","11031339","9.71","9.85","9.45","9.67","-0.1300","499"
"1472","三洋紡","558373","5840380","10.45","10.50","10.20","10.20","-0.2500","43"
"1473","台南","473568","8367764","17.60","18.35","17.60","18.15","0.5000","225"
"1474","弘裕","7789572","131034718","15.90","17.25","15.85","17.25","1.5500","2880"
"1475","業旺","37170","1225959","32.20","34.00","32.20","34.00","0.5500","35"
"1476","儒鴻","3052008","2021542069","628.00","683.00","625.00","657.00","20.0000","3015"
"1477","聚陽","8528923","2412936015","270.50","291.50","266.00","281.00","10.5000","6732"
"1503","士電","93404","4666847","49.95","50.20","49.60","50.00","-0.3000","84"
"1504","東元","1353470","42377789","31.00","31.60","30.90","31.40","0.1500","813"
"1506","正道","260038","2473092","9.40","9.73","9.39","9.65","0.0600","76"
"1507","永大","82149","4944236","61.50","61.50","60.80","60.90","-0.2000","76"
"1512","瑞利","8303","37317","4.50","4.50","4.48","4.48","-0.2200","11"
"1513","中興電","4355508","210146390","47.70","48.85","47.35","48.35","0.2500","2090"
"1514","亞力","848249","19638247","23.20","23.50","23.05","23.30","0.1000","426"
"1515","力山","1724646","119403667","69.00","70.10","68.20","69.50","-0.6000","1219"
"1516","川飛","33666","679117","20.30","20.50","19.90","20.10","-0.1500","36"
"1517","利奇","2908032","70852582","23.50","25.00","23.35","24.35","0.6000","1430"
"1519","華城","941207","39425773","41.50","42.45","41.05","42.05","0.9000","596"
"1521","大億","116340","4954398","42.50","43.80","42.25","43.55","1.3000","77"
"1522","堤維西","450047","9257334","20.30","20.90","20.10","20.65","0.3000","244"
"1524","耿鼎","267913","2626381","9.67","9.90","9.67","9.90","0.2300","143"
"1525","江申","85071","5349965","62.10","63.50","62.10","63.00","0.9000","59"
"1526","日馳","438385","20634067","47.00","47.95","46.10","47.45","1.5000","341"
"1527","鑽全","825283","38325568","45.00","47.00","44.85","46.90","1.5000","610"
"1528","恩德","599310","5824250","9.75","10.05","9.70","9.90","0.1000","190"
"1529","樂士","189643","3123652","16.00","16.75","16.00","16.55","0.4000","88"
"1530","亞崴","40488","1394541","34.00","34.95","33.65","34.60","0.0500","34"
"1531","高林股","96358","1338054","13.70","13.95","13.70","13.95","0.1500","75"
"1532","勤美","638046","20936932","32.30","33.20","32.15","33.05","0.7500","296"
"1533","車王電","550915","29462214","51.60","54.50","51.60","53.50","0.4000","415"
"1535","中宇","55475","2167630","38.60","39.55","38.60","39.25","0.0000","52"
"1536","和大","654216","59550177","91.60","92.00","89.50","91.50","-0.1000","639"
"1537","廣隆","176330","25238856","143.50","144.00","142.50","143.00","-1.0000","170"
"1538","正峰","36441","451915","12.40","12.45","12.40","12.40","0.0500","15"
"1539","巨庭","28001","501765","17.50","18.70","17.40","18.70","1.1000","19"
"1540","喬福","91670","1427896","15.30","15.80","15.30","15.75","0.0500","62"
"1541","錩泰","37000","1802500","48.35","49.80","48.00","49.50","1.1500","36"
"1558","伸興","103543","17083050","164.00","165.50","164.00","165.00","1.0000","126"
"1560","中砂","243053","15248958","62.00","63.20","61.90","63.00","0.6000","202"
"1568","倉佑","283540","7047312","24.80","25.35","24.00","25.05","0.1500","191"
"1582","信錦","274711","22064939","78.30","81.40","78.30","81.00","0.4000","242"
"1583","程泰","16000","1006600","62.90","63.00","62.80","62.90","0.4000","10"
"1587","吉茂","273029","7199997","26.30","27.00","26.00","27.00","0.7000","164"
"1589","永冠-KY","2101094","155195509","71.10","72.40","70.70","71.90","0.1000","502"
"1590","亞德客-KY","472934","483568192","1000.00","1055.00","995.00","1045.00","47.0000","452"
"1592","英瑞-KY","1028126","2992834","2.74","2.98","2.71","2.98","0.2700","267"
"1597","直得","874280","87005839","98.60","103.00","95.40","101.00","3.3000","774"
"1598","岱宇","2065522","183619174","87.80","91.00","85.50","89.00","1.2000","1330"
"1603","華電","1287658","38459640","29.50","30.45","29.10","29.65","0.2500","563"
"1604","聲寶","825846","23394686","28.05","28.45","28.05","28.35","0.1500","441"
"1605","華新","28598925","675578629","23.10","24.20","23.10","23.40","-0.3500","10540"
"1608","華榮","11085399","267676506","23.50","25.00","23.25","23.90","-0.4000","4252"
"1609","大亞","19851388","504017829","24.80","25.95","24.35","25.65","0.3500","7406"
"1611","中電","1039320","11321537","10.80","11.20","10.70","11.10","0.3000","408"
"1612","宏泰","1987489","46576102","23.15","23.70","22.75","23.45","0.2000","998"
"1614","三洋電","57328","1913354","33.00","33.60","33.00","33.40","0.4000","45"
"1615","大山","400617","14535897","36.40","37.10","35.60","36.20","-0.3500","299"
"1616","億泰","1856237","16447814","9.00","9.10","8.68","8.85","-0.3100","701"
"1617","榮星","363279","6460079","17.85","18.15","17.50","17.80","-0.0500","206"
"1618","合機","1647241","25200857","15.30","15.70","15.15","15.30","-0.1000","629"
"1626","艾美特-KY","150000","3644000","23.95","24.60","23.85","24.35","0.2500","53"
"1701","中化","1866028","42132418","23.35","23.45","23.00","23.05","-0.1000","696"
"1702","南僑","2126687","118961366","55.00","56.90","54.80","55.60","0.7000","1472"
"1707","葡萄王","268109","43175752","166.00","166.00","164.00","164.50","-1.5000","321"
"1708","東鹼","1368499","36381316","26.00","27.00","25.75","26.60","0.4500","707"
"1709","和益","1080265","19018385","17.45","17.80","17.35","17.55","0.0500","391"
"1710","東聯","4578370","92575320","20.60","21.25","20.45","20.85","0.1500","1072"
"1711","永光","2392758","42477422","17.60","17.95","17.60","17.75","-0.0500","1105"
"1712","興農","602295","12933740","21.30","21.65","21.30","21.45","0.0500","305"
"1713","國化","222700","4735993","21.20","21.85","21.00","21.40","-0.3000","114"
"1714","和桐","19113162","215205714","11.10","11.40","11.10","11.15","0.1500","3752"
"1717","長興","23422771","964036120","41.45","42.00","40.20","40.75","0.7500","12242"
"1718","中纖","32477017","323303760","9.76","10.35","9.65","10.05","0.2800","7536"
"1720","生達","681595","26272912","38.45","38.75","38.40","38.60","-0.2000","369"
"1721","三晃","193627","1869097","9.59","9.72","9.53","9.67","0.0200","173"
"1722","台肥","2603072","136755054","55.20","55.30","54.70","55.00","-0.3000","681"
"1723","中碳","471662","50846388","107.50","107.50","106.00","106.50","-1.0000","122"
"1724","台硝","63667","1001553","15.80","15.85","15.80","15.80","0.0000","45"
"1725","元禎","76000","1380200","18.40","18.65","18.40","18.40","0.0000","45"
"1726","永記","49266","3614959","73.30","73.70","73.00","73.70","0.1000","50"
"1727","中華化","216518","2601832","11.90","12.30","11.90","12.25","0.4500","98"
"1730","花仙子","334371","23403638","70.30","70.40","69.50","70.00","-0.2000","336"
"1731","美吾華","2032526","42066669","21.25","21.25","20.45","20.50","-0.0500","1135"
"1732","毛寶","3406583","141403229","42.70","43.70","38.15","39.70","-2.1500","2274"
"1733","五鼎","419416","9604885","23.95","24.15","23.90","23.90","0.1000","154"
"1734","杏輝","3643930","117552700","33.00","33.80","31.65","31.65","-0.1000","2216"
"1735","日勝化","259000","4349200","17.00","17.70","16.45","17.65","0.3500","145"
"1736","喬山","615060","47268450","76.50","77.90","75.00","77.80","1.3000","465"
"1737","臺鹽","369698","11515358","32.05","32.30","31.90","32.20","0.1000","232"
"1760","寶齡富錦","5360943","582123038","110.00","112.00","104.50","112.00","10.0000","3944"
"1762","中化生","3202330","210632075","69.00","69.00","63.60","64.00","0.9000","1915"
"1773","勝一","180536","19593287","112.00","113.00","111.50","113.00","-0.5000","128"
"1776","展宇","18000","304850","16.70","17.05","16.70","16.95","0.2500","17"
"1783","和康生","3721777","132080913","33.70","37.00","33.65","35.35","1.4000","2327"
"1786","科妍","30716","1550346","50.50","51.40","50.00","50.50","-0.2000","51"
"1789","神隆","1643009","42628316","26.20","26.45","25.80","25.85","-0.2000","895"
"1795","美時","8855326","824149390","94.10","96.50","90.60","92.10","1.1000","6216"
"1802","台玻","71641232","2164049504","29.00","31.20","28.95","29.55","-0.1000","30694"
"1805","寶徠","203696","2794739","13.50","13.95","13.40","13.95","0.4000","105"
"1806","冠軍","3932037","44601756","11.10","11.70","11.05","11.15","-0.2500","1273"
"1808","潤隆","30529","1565679","51.00","51.50","51.00","51.30","-0.4000","32"
"1809","中釉","1867505","25710733","13.60","14.10","13.40","13.60","0.0000","827"
"1810","和成","42073936","487615317","11.20","11.80","10.85","11.50","0.2000","2802"
"1817","凱撒衛","67651","2390162","35.25","35.50","35.20","35.50","0.2500","47"
"1903","士紙","217169","11022110","49.90","51.80","49.90","51.20","1.0000","151"
"1904","正隆","8872088","369966038","41.20","43.50","40.90","42.35","1.0500","4984"
"1905","華紙","47718881","1107513601","22.10","23.90","22.05","22.90","0.8000","19006"
"1906","寶隆","882959","16725403","18.15","19.40","18.15","18.95","0.6500","379"
"1907","永豐餘","11623559","411594039","33.90","36.20","33.60","35.50","1.3000","6241"
"1909","榮成","26551001","596641462","22.00","23.10","21.60","22.50","0.7000","8802"
"2002","中鋼","241239189","8602829094","35.40","36.50","35.10","35.50","-0.7000","74390"
"2002A","中鋼特","51509","2651066","51.80","51.80","51.20","51.70","-0.2000","49"
"2006","東和鋼鐵","10959215","516043999","46.55","48.10","46.30","46.85","-1.0500","5292"
"2007","燁興","4063449","54223958","13.00","13.80","12.90","13.15","-0.1500","1614"
"2008","高興昌","514734","8565246","16.20","17.20","16.05","16.60","-0.1500","271"
"2009","第一銅","56966980","3411742613","58.50","62.30","57.40","59.60","-0.9000","30044"
"2010","春源","8386302","167630336","19.60","20.80","19.40","19.70","-0.4000","3756"
"2012","春雨","1588049","41580860","25.10","27.20","25.10","26.10","0.2000","744"
"2013","中鋼構","1155666","47145641","40.45","41.30","40.00","40.90","0.1500","793"
"2014","中鴻","281447417","12997209772","45.00","48.30","43.50","45.05","-1.1000","113378"
"2015","豐興","597579","43630077","73.00","74.00","72.20","72.60","-0.9000","458"
"2017","官田鋼","6296808","124181034","19.00","20.35","19.00","19.50","-0.3500","2968"
"2020","美亞","6353883","195969827","30.50","31.80","30.10","30.60","-0.6000","3331"
"2022","聚亨","9440273","121988309","12.75","13.45","12.50","12.80","-0.4500","3748"
"2023","燁輝","39263991","804685084","20.00","21.20","19.80","20.15","-0.2500","12552"
"2024","志聯","114484","1857049","15.95","16.55","15.95","16.10","-0.2000","76"
"2025","千興","593617","2258441","3.85","3.85","3.80","3.80","-0.0500","146"
"2027","大成鋼","51937131","2084675716","39.10","41.20","38.85","40.20","-0.1000","21219"
"2028","威致","3292802","102753331","31.00","32.20","30.20","30.95","-0.5000","1948"
"2029","盛餘","3808696","119378061","30.40","32.15","30.05","31.10","0.2500","1938"
"2030","彰源","6499532","118043213","17.60","18.70","17.60","18.00","-0.2500","2471"
"2031","新光鋼","22677506","1360222317","59.00","62.70","57.80","58.80","-1.9000","12244"
"2032","新鋼","2470968","45802320","18.40","19.15","17.55","18.30","-0.4500","1269"
"2033","佳大","1302064","21048351","15.80","16.85","15.50","15.80","-0.2000","715"
"2034","允強","5282248","155735703","29.00","30.20","28.80","29.35","-0.4500","2441"
"2038","海光","39358632","1234579307","30.05","32.85","29.65","31.55","0.5000","18552"
"2049","上銀","1088571","378474786","347.00","352.00","345.00","349.50","-2.0000","1177"
"2059","川湖","229019","89570376","382.00","399.50","381.00","390.00","7.0000","220"
"2062","橋椿","248124","7011882","27.70","28.50","27.70","28.30","0.6000","148"
"2069","運錩","1959521","44386945","22.45","23.50","22.10","22.30","-0.6000","971"
"2101","南港","2194591","84030688","37.15","38.95","36.70","38.40","1.3000","943"
"2102","泰豐","29894284","860419729","26.10","29.00","25.95","29.00","2.6000","5321"
"2103","台橡","23878535","703605837","29.80","30.65","28.60","29.20","-0.7500","5992"
"2104","國際中橡","6697527","155255698","24.10","24.65","24.00","24.30","0.0000","1412"
"2105","正新","2890784","128323930","44.00","44.85","43.60","44.60","0.2500","1617"
"2106","建大","1574532","61184263","38.15","39.85","37.95","38.80","0.6000","995"
"2107","厚生","1269257","29933614","23.40","23.90","23.20","23.55","0.1500","420"
"2108","南帝","13310852","1712972334","128.00","133.00","125.00","126.00","-2.0000","9546"
"2109","華豐","877701","16118833","17.90","18.80","17.60","18.70","0.7500","386"
"2114","鑫永銓","84300","9531950","118.00","119.00","117.50","118.00","0.0000","42"
"2115","六暉-KY","31023","1431002","45.80","46.35","45.80","46.30","0.4000","35"
"2201","裕隆","3428228","134819573","39.30","39.55","38.80","39.50","0.3000","1661"
"2204","中華","1399429","94584052","66.80","68.20","66.50","67.80","0.7000","786"
"2206","三陽工業","1237200","34791231","27.65","28.35","27.65","28.20","0.2000","658"
"2207","和泰車","119619","63811867","530.00","535.00","530.00","535.00","-4.0000","201"
"2208","台船","38394188","869043240","21.90","23.65","21.40","22.40","0.5000","14464"
"2211","長榮鋼","753041","37728172","50.50","50.80","49.70","50.20","-0.5000","594"
"2227","裕日車","55085","14466102","262.00","264.00","260.50","263.50","1.5000","124"
"2228","劍麟","106101","7411670","69.60","70.30","69.30","70.10","0.0000","80"
"2231","為升","521845","101264610","191.00","198.50","190.00","197.50","2.5000","421"
"2233","宇隆","1008226","102825943","100.50","105.00","98.20","103.50","2.5000","691"
"2236","百達-KY","10107","245460","24.30","24.30","24.30","24.30","0.0000","5"
"2239","英利-KY","105062","9569637","88.00","91.80","88.00","91.10","0.6000","87"
"2241","艾姆勒","62258","3194698","51.00","52.00","50.80","51.60","0.2000","59"
"2243","宏旭-KY","32000","320670","10.20","10.20","9.90","9.90","0.0200","23"
"2247","汎德永業","94360","20686694","220.00","222.50","218.00","218.50","-0.5000","131"
"2301","光寶科","3672675","230145699","62.60","63.30","62.00","63.20","0.1000","2394"
"2302","麗正","668190","11360440","16.70","17.40","16.60","17.10","0.4000","266"
"2303","聯電","160119346","7678694424","46.60","49.00","46.35","48.70","1.7500","53979"
"2305","全友","759977","6477607","8.40","8.65","8.31","8.61","0.1900","283"
"2308","台達電","3155690","897780828","286.00","287.00","282.00","285.00","-4.0000","3047"
"2312","金寶","10514843","134179816","12.75","13.20","12.65","13.15","0.1000","2413"
"2313","華通","7247719","254747662","34.80","35.65","34.25","35.40","0.4000","3411"
"2314","台揚","2703475","88004603","31.25","33.45","31.25","33.10","0.8500","1376"
"2316","楠梓電","454155","12746417","27.20","28.40","27.20","28.25","0.0500","273"
"2317","鴻海","31185744","3397485475","108.50","110.00","108.00","109.50","0.0000","15620"
"2321","東訊","9361","71208","7.22","7.66","7.22","7.66","0.4400","12"
"2323","中環","6719445","66819581","9.82","10.05","9.76","9.98","0.0700","1694"
"2324","仁寶","13553359","314097651","23.30","23.35","22.95","23.30","0.0000","4676"
"2327","國巨","5569273","2544052687","449.00","466.50","445.00","463.50","5.0000","5724"
"2328","廣宇","9841456","369410307","37.25","38.60","36.50","38.40","0.9000","5048"
"2329","華泰","7451248","119825932","15.90","16.45","15.65","16.20","0.2500","1961"
"2330","台積電","15981036","9090836697","570.00","572.00","566.00","568.00","-5.0000","20189"
"2331","精英","2622416","63858489","24.00","24.65","23.80","24.55","0.5500","1350"
"2332","友訊","1920912","36121989","18.60","19.00","18.50","18.90","0.0500","948"
"2337","旺宏","23094912","898294774","38.30","39.60","37.85","39.05","0.2500","10060"
"2338","光罩","14951659","1101402427","70.90","75.60","70.40","75.60","4.0000","8642"
"2340","光磊","4487869","108506774","24.45","25.35","24.30","25.20","0.6000","1369"
"2342","茂矽","1131292","33934838","29.65","30.45","29.20","30.30","0.5000","650"
"2344","華邦電","76245145","2242790862","28.80","30.00","28.40","29.90","1.0000","26701"
"2345","智邦","2048157","620264387","297.00","307.50","295.00","307.50","12.5000","2134"
"2347","聯強","3646241","212918896","57.80","58.80","57.40","58.80","0.8000","2322"
"2348","海悅","277731","25397020","92.30","92.30","90.90","91.30","-1.0000","296"
"2349","錸德","2276234","21380862","9.21","9.53","9.11","9.41","0.0300","789"
"2351","順德","7037728","614993509","83.00","89.90","82.10","89.90","7.1000","5032"
"2352","佳世達","8853119","255727191","28.60","29.45","28.15","29.25","0.3500","3602"
"2353","宏碁","17187333","530032071","30.65","31.10","30.30","31.05","0.1500","7235"
"2354","鴻準","2835017","179154198","62.90","63.70","62.50","63.50","0.4000","1864"
"2355","敬鵬","3489734","92038923","26.00","28.20","26.00","28.10","1.5500","1456"
"2356","英業達","6437589","164318080","25.35","25.75","25.30","25.65","-0.1000","3065"
"2357","華碩","3372424","1313879251","390.50","393.00","386.00","390.00","-2.5000","3454"
"2358","廷鑫","1458521","20428246","13.80","14.25","13.50","14.20","0.3500","371"
"2359","所羅門","348354","5684210","16.50","16.85","16.50","16.80","0.0000","143"
"2360","致茂","725837","137237842","184.00","193.00","184.00","189.00","6.0000","626"
"2362","藍天","897033","25831566","29.50","29.85","29.35","29.85","-0.1500","393"
"2363","矽統","9897406","190691012","19.00","19.70","18.65","19.70","0.6000","3477"
"2364","倫飛","88199","288726","3.29","3.30","3.25","3.29","0.0000","38"
"2365","昆盈","1789374","21765133","11.95","12.30","11.95","12.25","0.1500","710"
"2367","燿華","3015598","57453732","19.30","20.00","19.15","19.80","0.3500","1005"
"2368","金像電","13266313","688750743","50.60","52.40","50.50","52.40","1.4000","6011"
"2369","菱生","11268338","179605471","15.45","16.60","15.20","16.25","0.6500","3302"
"2371","大同","12667799","298126983","23.05","23.85","22.90","23.85","0.6000","2753"
"2373","震旦行","15682","1432014","91.50","91.70","90.80","91.60","-0.1000","25"
"2374","佳能","559796","8289089","14.60","15.00","14.40","14.85","0.2000","303"
"2375","凱美","4462945","434266651","94.00","99.00","93.60","98.60","2.8000","3220"
"2376","技嘉","11955726","1167982271","98.20","99.50","96.00","99.10","-0.5000","8501"
"2377","微星","4494980","729788052","162.00","164.50","160.00","164.50","0.0000","2944"
"2379","瑞昱","1940904","873282870","450.00","458.50","441.00","452.50","1.0000","1974"
"2380","虹光","1336253","15686053","11.40","12.00","11.30","11.80","0.3000","618"
"2382","廣達","7664809","674568498","88.30","88.60","87.50","87.90","-0.9000","4550"
"2383","台光電","982277","153499666","155.00","159.00","153.50","158.50","2.0000","922"
"2385","群光","9309493","726283356","78.00","78.80","77.40","77.40","-1.1000","4397"
"2387","精元","845061","46980589","55.00","56.50","54.50","55.50","-0.8000","529"
"2388","威盛","1462596","64122659","42.60","44.70","42.30","44.10","0.5000","926"
"2390","云辰","50167108","1155175956","21.75","23.90","21.75","23.90","2.1500","19790"
"2392","正崴","1194631","45868536","38.65","39.20","38.30","39.10","0.4500","713"
"2393","億光","6533659","278634211","42.00","45.00","41.60","44.95","2.9500","2970"
"2395","研華","817424","260750347","316.00","322.50","313.00","320.00","1.0000","736"
"2397","友通","32101","1939904","60.10","60.80","60.00","60.80","0.8000","27"
"2399","映泰","9294763","217405238","23.10","24.15","22.55","24.00","-0.2000","4377"
"2401","凌陽","17105591","462804034","26.35","28.05","26.00","27.90","1.4000","6976"
"2402","毅嘉","1006546","16170332","16.10","16.45","15.60","16.35","0.2000","393"
"2404","漢唐","440762","99259554","226.00","226.50","224.00","226.00","-1.5000","563"
"2405","浩鑫","1629931","19304904","11.65","12.00","11.50","11.95","0.2500","599"
"2406","國碩","3041716","55921932","18.00","19.10","17.65","18.85","0.8500","1292"
"2408","南亞科","10000578","757238084","75.00","77.40","74.40","76.60","0.3000","6050"
"2409","友達","311184896","6872135570","21.40","22.90","20.90","22.60","0.9000","70465"
"2412","中華電","7474259","825076289","113.50","113.50","112.50","113.00","-1.5000","2892"
"2413","環科","772008","16576021","21.05","22.20","20.80","22.00","0.5000","399"
"2414","精技","363791","10370625","28.35","28.75","28.25","28.70","0.3500","231"
"2415","錩新","1039310","38662250","36.00","37.95","35.50","37.85","1.8000","751"
"2417","圓剛","3854516","170880153","44.70","45.20","43.70","43.85","-0.1000","2575"
"2419","仲琦","485753","9914983","20.00","20.70","19.85","20.55","0.3500","270"
"2420","新巨","251002","8645772","36.10","36.30","35.95","36.15","-0.0500","91"
"2421","建準","677277","28700885","42.00","42.75","41.55","42.65","0.6500","505"
"2423","固緯","43644","1032089","23.70","23.80","23.50","23.80","0.1500","37"
"2424","隴華","2500","65249","26.35","26.35","26.35","26.35","0.0000","3"
"2425","承啟","830865","24971976","30.50","30.50","29.70","30.50","-0.2000","519"
"2426","鼎元","3946420","92822973","23.80","24.75","23.30","24.65","0.5500","1211"
"2427","三商電","220211","2499325","11.35","11.40","11.30","11.40","-0.0500","95"
"2428","興勤","499951","74124009","151.00","158.00","150.00","157.00","4.5000","303"
"2429","銘旺科","33006","535948","16.35","16.60","15.95","16.40","0.0000","29"
"2430","燦坤","2173810","62778393","29.60","29.85","28.10","28.35","-1.1500","1313"
"2431","聯昌","1410244","18816842","12.90","13.55","12.90","13.50","0.4000","552"
"2433","互盛電","38003","1965156","51.70","52.10","51.50","51.70","0.0000","32"
"2434","統懋","32515","1205425","38.00","38.00","36.80","36.80","-0.8500","29"
"2436","偉詮電","23239373","1395278411","58.40","61.70","57.20","61.20","1.7000","12447"
"2438","翔耀","19809","214804","11.10","11.20","10.70","10.85","-0.1500","24"
"2439","美律","931455","93814554","103.50","104.50","102.00","104.00","0.0000","526"
"2440","太空梭","479783","8421514","17.45","17.80","17.00","17.70","0.3000","261"
"2441","超豐","1421183","95519545","67.30","68.20","66.10","67.50","-0.2000","1038"
"2442","新美齊","714766","7309412","10.00","10.35","10.00","10.25","0.1000","186"
"2443","億麗","180108","489100","2.66","2.84","2.66","2.80","-0.0500","46"
"2444","兆勁","275016","3260063","11.70","11.95","11.65","11.90","0.1500","144"
"2449","京元電子","8882335","355939568","40.20","40.75","39.75","40.65","0.2500","4243"
"2450","神腦","118600","3635062","31.30","31.80","31.15","31.70","0.3000","60"
"2451","創見","873273","60975705","68.70","70.90","68.50","69.80","0.3000","596"
"2453","凌群","532168","13263532","24.60","25.20","24.40","25.10","0.5000","294"
"2454","聯發科","6117441","5784586787","950.00","959.00","938.00","943.00","-12.0000","8259"
"2455","全新","1948040","188640130","99.00","100.50","96.60","99.60","-0.2000","1196"
"2456","奇力新","1495138","138062571","91.50","93.20","91.00","92.80","0.5000","1075"
"2457","飛宏","10482343","296086677","27.30","28.90","27.15","28.35","0.4500","4578"
"2458","義隆","2805932","564527251","199.50","206.00","198.50","205.00","3.5000","2182"
"2459","敦吉","47033","2489961","52.80","53.20","52.70","53.00","0.0000","44"
"2460","建通","2385911","75651392","31.50","32.35","30.95","31.50","-0.4000","1331"
"2461","光群雷","2563484","51228974","19.60","20.70","19.40","20.40","0.7000","884"
"2462","良得電","1046260","33011309","31.40","32.00","31.05","31.40","0.4000","643"
"2464","盟立","671617","28175290","41.45","42.30","41.20","42.00","0.5500","378"
"2465","麗臺","3527532","146813140","39.00","44.20","39.00","42.70","-0.3000","1849"
"2466","冠西電","83076","2615459","31.60","31.70","31.20","31.20","-0.4000","60"
"2467","志聖","615158","31676137","50.30","52.30","49.90","51.80","0.9000","446"
"2468","華經","126106","1728990","13.35","13.95","13.35","13.60","0.1000","76"
"2471","資通","118107","3041078","25.50","26.45","25.50","26.20","0.0500","71"
"2472","立隆電","1008286","60917195","58.80","61.50","58.30","61.30","1.8000","713"
"2474","可成","1589344","287981889","179.00","182.50","178.50","182.00","0.5000","1413"
"2476","鉅祥","2036849","64106576","31.00","32.40","30.60","31.75","0.5000","992"
"2477","美隆電","949776","33234214","34.90","35.70","34.20","35.05","0.0500","494"
"2478","大毅","1087305","69291377","63.60","65.70","63.50","65.00","0.8000","698"
"2480","敦陽科","232782","15913343","68.00","68.80","67.90","68.70","0.4000","195"
"2481","強茂","7032447","322897435","45.20","46.95","45.15","46.25","0.1000","3694"
"2482","連宇","108657","1187882","10.80","11.00","10.75","11.00","0.0500","95"
"2483","百容","20107","388925","19.35","19.40","19.00","19.40","0.0500","20"
"2484","希華","1630146","41959247","25.10","26.10","25.10","25.85","0.5000","709"
"2485","兆赫","2716184","49700017","18.00","18.55","17.70","18.30","0.3000","1256"
"2486","一詮","3726231","104184903","27.00","28.80","26.75","28.55","1.2500","1617"
"2488","漢平","126499","3678666","28.95","29.40","28.80","29.15","0.1500","94"
"2489","瑞軒","13308304","214384932","15.50","16.40","15.45","16.40","0.6500","3898"
"2491","吉祥全","6277242","162162410","24.60","27.05","23.95","27.05","2.4500","3125"
"2492","華新科","6159870","1194402551","187.50","198.50","187.50","198.50","6.5000","4581"
"2493","揚博","453368","15972400","36.30","36.65","36.05","36.45","0.1500","200"
"2495","普安","10841083","211547355","19.20","20.40","18.80","19.55","-0.3500","4406"
"2496","卓越","14400","840200","58.00","59.00","57.60","58.80","0.4000","11"
"2497","怡利電","302005","8811097","28.00","30.00","28.00","29.65","1.3500","202"
"2498","宏達電","10081260","353876800","34.65","36.00","34.30","35.25","0.6000","4944"
"2501","國建","866651","16882275","19.60","19.65","19.45","19.45","-0.1500","350"
"2504","國產","3004045","71846835","23.55","24.25","23.30","24.05","0.1500","1206"
"2505","國揚","906167","27360901","30.05","30.45","30.00","30.15","-0.3000","546"
"2506","太設","216697","2176453","10.15","10.35","10.10","10.20","0.0500","128"
"2509","全坤建","504514","9687274","19.10","19.40","18.95","19.15","0.0500","328"
"2511","太子","1601339","18279902","11.30","11.55","11.30","11.40","0.1000","440"
"2514","龍邦","169530","2709480","16.75","17.10","16.75","17.10","0.1500","56"
"2515","中工","8075123","72454878","8.85","9.09","8.80","8.96","0.0400","1875"
"2516","新建","236885","1300724","5.50","5.59","5.40","5.55","-0.0500","132"
"2520","冠德","3015631","111725300","36.70","37.50","36.60","37.35","0.5000","1563"
"2524","京城","20458","709475","34.50","34.80","34.45","34.75","0.3000","22"
"2527","宏璟","532950","11911500","22.65","22.95","22.45","22.95","0.1500","193"
"2528","皇普","51003","1108415","21.70","21.85","21.10","21.80","0.1000","29"
"2530","華建","628259","8639162","13.75","13.85","13.60","13.75","0.0000","173"
"2534","宏盛","523110","10248137","19.55","19.80","19.40","19.55","-0.0500","314"
"2535","達欣工","1118473","36916931","32.90","33.25","32.70","33.05","-0.0500","792"
"2536","宏普","302416","6375150","21.40","21.40","20.95","21.10","-0.3000","166"
"2537","聯上發","750395","6727519","8.82","9.05","8.76","9.00","0.1700","273"
"2538","基泰","838365","7858332","9.60","9.78","9.50","9.63","0.0300","294"
"2539","櫻花建","43321","1356980","31.30","31.40","31.25","31.35","-0.1500","34"
"2540","愛山林","15085","1099135","74.40","74.40","71.90","73.20","-1.2000","21"
"2542","興富發","3424494","142242861","42.55","43.05","42.50","42.70","-0.3000","1648"
"2543","皇昌","80650","592540","7.40","7.40","7.30","7.34","-0.0600","34"
"2545","皇翔","438163","17534951","40.00","40.20","39.60","40.15","0.0500","313"
"2546","根基","68803","3251733","47.00","47.40","47.00","47.40","0.4000","80"
"2547","日勝生","2064614","22230190","10.80","11.00","10.65","10.95","0.1000","641"
"2548","華固","617105","54175216","90.40","91.50","90.10","91.30","0.8000","263"
"2597","潤弘","263691","37931845","144.00","147.00","143.00","144.00","-0.5000","210"
"2601","益航","55265213","694616081","12.10","13.00","11.75","12.35","0.2500","14099"
"2603","長榮","710048509","62243176619","85.30","91.40","83.30","86.40","1.7000","297560"
"2605","新興","73867970","1972616814","25.00","27.60","24.15","26.75","1.6500","26231"
"2606","裕民","44119690","2424478342","52.00","55.90","51.00","55.90","5.0000","14612"
"2607","榮運","53344581","1142977203","20.30","21.75","19.85","21.75","1.9500","15328"
"2608","嘉里大榮","5500174","327357753","57.80","60.30","57.70","60.30","5.4000","1905"
"2609","陽明","636015199","60594689803","92.00","99.30","89.30","93.10","1.3000","261799"
"2610","華航","103588372","1601766772","15.10","15.80","14.95","15.35","-0.0500","20744"
"2611","志信","14602465","264454364","16.45","18.70","16.30","18.05","1.0500","6223"
"2612","中航","14305837","643396497","42.30","45.95","40.85","45.95","4.1500","5856"
"2613","中櫃","7573350","194303367","23.65","26.00","23.10","26.00","2.3500","2413"
"2614","東森","25131721","450327937","17.70","18.35","17.40","17.55","0.1500","8801"
"2615","萬海","128697005","15601891282","117.00","125.00","116.00","125.00","11.0000","55936"
"2616","山隆","311897","10977500","34.60","35.50","34.60","35.50","0.7500","240"
"2617","台航","14827294","560492953","35.40","38.90","35.40","37.55","2.1500","7220"
"2618","長榮航","46757840","714953225","14.80","15.60","14.70","15.25","0.0500","10587"
"2630","亞航","617824","10366636","15.65","17.20","15.20","17.20","1.5500","334"
"2633","台灣高鐵","3680420","103438711","28.00","28.25","28.00","28.10","0.0000","2251"
"2634","漢翔","1386811","37803636","26.85","27.60","26.70","27.40","0.5000","822"
"2636","台驊投控","13273081","973258382","71.90","76.00","70.20","72.00","0.5000","8424"
"2637","慧洋-KY","105990713","7583916414","68.10","74.40","66.50","70.00","2.3000","51881"
"2642","宅配通","3271455","177054250","54.20","54.20","54.00","54.20","4.9000","1296"
"2701","萬企","107910","1236872","11.45","11.60","11.30","11.50","0.0000","51"
"2702","華園","166386","3070111","18.20","18.95","18.05","18.70","0.1000","112"
"2704","國賓","135346","3794410","27.50","28.80","27.10","28.60","0.9500","96"
"2705","六福","228876","3741599","16.40","16.50","16.00","16.45","0.3500","119"
"2706","第一店","113336","1511337","13.20","13.40","13.05","13.30","0.1000","104"
"2707","晶華","336235","44955560","135.00","135.00","132.00","133.50","-2.0000","373"
"2712","遠雄來","12000","384800","32.00","32.80","32.00","32.80","0.8000","8"
"2722","夏都","11036","293477","26.50","26.95","26.50","26.90","-0.0500","12"
"2723","美食-KY","509200","76215913","141.00","153.00","141.00","153.00","7.5000","464"
"2727","王品","1448408","184841639","124.00","130.00","124.00","129.50","2.0000","1292"
"2731","雄獅","324664","25984848","79.20","81.40","78.50","80.40","0.3000","299"
"2739","寒舍","102100","2270785","22.85","22.85","20.90","22.80","-0.0500","73"
"2748","雲品","23891","883389","39.25","39.25","38.00","38.70","-0.3000","22"
"2801","彰銀","9259201","153416295","16.65","16.70","16.45","16.70","0.0500","2155"
"2809","京城銀","1334377","53937995","40.10","40.60","39.90","40.60","0.1000","754"
"2812","台中銀","3566188","40242514","11.25","11.35","11.20","11.30","-0.0500","1238"
"2816","旺旺保","251586","5039485","20.05","20.10","19.90","20.10","-0.1000","126"
"2820","華票","737366","11653585","15.80","15.85","15.70","15.80","0.0000","414"
"2823","中壽","2706183","63994560","23.60","23.85","23.50","23.75","0.0500","1550"
"2832","台產","865437","17432203","20.00","20.60","19.95","20.55","0.5000","452"
"2834","臺企銀","16723904","156531889","9.39","9.39","9.33","9.37","-0.0400","4362"
"2836","高雄銀","755275","8117988","10.80","10.80","10.70","10.75","-0.0500","222"
"2836A","高雄銀甲特","6000","136500","22.60","22.90","22.60","22.90","0.3000","5"
"2838","聯邦銀","1322824","15070716","11.50","11.50","11.40","11.45","-0.1000","366"
"2838A","聯邦銀甲特","17000","896200","52.70","52.80","52.70","52.80","0.0000","9"
"2841","台開","646362","3933311","5.85","6.21","5.85","6.13","-0.1700","335"
"2845","遠東銀","2259966","23477942","10.40","10.45","10.35","10.40","-0.0500","959"
"2849","安泰銀","91721","1295796","14.50","14.60","14.35","14.60","0.1000","44"
"2850","新產","147335","5780970","39.35","39.40","39.00","39.30","-0.2000","87"
"2851","中再保","709176","17418113","24.60","24.95","24.55","24.80","0.0500","295"
"2852","第一保","301913","3924572","13.00","13.15","12.85","13.15","-0.0500","146"
"2855","統一證","3901162","105354560","26.75","27.25","26.50","27.10","0.1500","1559"
"2867","三商壽","2706676","24347035","9.00","9.03","8.93","9.00","0.0000","653"
"2880","華南金","6921791","124388412","17.95","18.05","17.85","17.95","-0.1000","2303"
"2881","富邦金","21661751","1551132137","71.00","72.20","70.80","72.00","0.0000","9711"
"2881A","富邦特","175561","10885703","61.90","62.10","61.90","62.00","0.1000","111"
"2881B","富邦金乙特","47662","2939242","61.80","61.80","61.60","61.80","0.1000","43"
"2882","國泰金","36669608","1966956728","53.70","54.00","53.20","53.90","-0.3000","14150"
"2882A","國泰特","110443","6862107","62.00","62.20","62.00","62.20","0.1000","95"
"2882B","國泰金乙特","13830","854591","61.80","61.90","61.70","61.90","0.0000","17"
"2883","開發金","51186452","614642625","11.90","12.10","11.85","12.05","0.0000","8404"
"2884","玉山金","14045788","355177386","25.25","25.35","25.20","25.25","-0.2000","6470"
"2885","元大金","16586800","411961494","24.45","25.00","24.35","25.00","0.3500","5004"
"2886","兆豐金","15979615","520262938","32.20","32.70","32.20","32.60","0.1000","5249"
"2887","台新金","18228037","264780476","14.50","14.60","14.40","14.55","-0.0500","4234"
"2887E","台新戊特","208842","11026613","52.70","52.90","52.70","52.80","0.1000","44"
"2887F","台新戊特二","56829","2932141","51.60","51.70","51.60","51.70","0.1000","57"
"2888","新光金","52544556","487446214","9.24","9.33","9.18","9.30","-0.0100","6923"
"2888A","新光金甲特","35051","1484887","42.30","42.40","42.30","42.35","0.0000","31"
"2888B","新光金乙特","344257","14117745","41.05","41.05","40.95","41.00","-0.1000","80"
"2889","國票金","5175657","85925320","16.70","16.85","16.55","16.75","-0.1000","1666"
"2890","永豐金","13011721","171976225","13.10","13.30","13.05","13.25","0.0500","4341"
"2891","中信金","31643309","707754877","22.25","22.60","22.20","22.50","-0.1000","6903"
"2891B","中信金乙特","11778","742322","63.20","63.30","62.10","63.20","-0.1000","17"
"2891C","中信金丙特","18267","1113367","61.00","61.10","60.90","61.10","0.1000","25"
"2892","第一金","9977003","214519866","21.40","21.60","21.35","21.50","-0.1500","3777"
"2897","王道銀行","1199844","8085863","6.88","6.92","6.83","6.89","0.0100","346"
"2897A","王道銀甲特","37000","373200","10.05","10.10","10.05","10.10","0.0000","11"
"2901","欣欣","3164","92722","29.40","29.40","29.30","29.30","-0.0500","12"
"2903","遠百","969815","20022153","21.50","21.65","21.30","21.60","0.1000","409"
"2904","匯僑","31110","897823","28.80","28.90","28.80","28.90","0.1000","37"
"2905","三商","784114","16991207","21.65","21.75","21.50","21.70","0.2000","348"
"2906","高林","489659","7620882","15.50","15.75","15.30","15.40","-0.2000","214"
"2908","特力","31639","824986","25.90","26.35","25.70","25.95","0.0500","33"
"2910","統領","8001","249978","30.55","31.50","30.55","31.50","0.4000","9"
"2911","麗嬰房","247922","1896411","7.49","7.79","7.49","7.68","0.0700","168"
"2912","統一超","1498064","397024284","268.00","269.00","264.00","264.50","-3.5000","2199"
"2913","農林","11215022","211652309","18.10","19.35","18.10","19.05","0.8000","3372"
"2915","潤泰全","2434951","197595001","81.50","82.70","81.30","82.70","0.5000","1104"
"2923","鼎固-KY","12000","332459","27.60","27.85","27.55","27.85","0.3000","16"
"2929","淘帝-KY","159584","2074064","13.50","13.50","12.70","13.25","0.2500","91"
"2936","客思達-KY","26150","581193","22.20","22.55","22.00","22.25","0.0000","24"
"2939","凱羿-KY","104","3203","","","","","0.0000","4"
"3002","歐格","93000","1096550","11.75","11.95","11.60","11.90","0.1500","56"
"3003","健和興","1886665","120854382","63.60","65.70","62.70","65.00","1.0000","1195"
"3004","豐達科","102503","5276503","49.25","52.50","49.25","52.10","1.6000","78"
"3005","神基","748878","37196400","49.80","50.00","49.00","49.90","0.1000","570"
"3006","晶豪科","41250027","4639298325","106.00","117.00","105.00","117.00","10.5000","20591"
"3008","大立光","230337","673215350","2895.00","2950.00","2880.00","2935.00","15.0000","1310"
"3010","華立","448220","33978436","75.50","76.30","75.30","76.00","-0.2000","358"
"3011","今皓","287140","2148218","7.53","7.60","7.30","7.60","0.0400","126"
"3013","晟銘電","501250","5999721","12.50","12.95","12.45","12.90","0.3500","174"
"3014","聯陽","7296528","816030394","111.00","116.00","108.00","115.00","2.5000","4991"
"3015","全漢","721054","30309361","41.35","42.60","41.00","42.25","0.7500","456"
"3016","嘉晶","1743457","108450002","61.00","63.10","60.80","62.80","0.5000","1138"
"3017","奇鋐","6907061","455066226","64.90","67.10","64.00","66.70","1.8000","4449"
"3018","同開","88429","1417725","16.10","16.20","15.90","16.20","0.1000","132"
"3019","亞光","2154634","164261488","75.60","77.40","74.20","77.40","1.2000","1573"
"3021","鴻名","246445","5112836","20.40","21.40","19.90","20.95","0.6000","157"
"3022","威強電","140221","6821938","47.95","49.35","47.80","49.10","0.7000","113"
"3023","信邦","390956","97470441","241.50","253.00","240.00","251.50","8.0000","443"
"3024","憶聲","1838474","23771819","12.35","13.35","12.35","13.15","0.4000","648"
"3025","星通","1033858","26482766","25.00","26.50","25.00","26.10","1.1000","550"
"3026","禾伸堂","2339318","294865738","125.50","128.50","123.50","127.50","0.0000","1605"
"3027","盛達","4354117","98781129","23.00","23.45","22.25","22.60","-0.5000","2334"
"3028","增你強","707614","19711753","27.80","28.15","27.60","28.05","-0.0500","391"
"3029","零壹","785929","35103956","44.50","45.60","44.30","45.50","0.7000","558"
"3030","德律","353403","19926130","56.00","56.70","55.70","56.40","0.3000","270"
"3031","佰鴻","553180","9536457","17.00","17.65","16.80","17.35","0.3500","295"
"3032","偉訓","389320","15390212","40.25","41.35","39.80","41.25","1.0000","208"
"3033","威健","3407528","76608582","22.40","22.65","22.15","22.50","0.1000","1540"
"3034","聯詠","11282820","5417338527","470.00","492.50","464.00","487.50","17.0000","11155"
"3035","智原","7935131","482450910","58.90","62.50","58.70","61.40","1.6000","5096"
"3036","文曄","1208800","61702389","50.50","51.50","50.20","51.30","0.5000","685"
"3036A","文曄甲特","17001","800697","47.10","47.10","47.05","47.10","0.0000","12"
"3037","欣興","33940966","3442219547","100.00","104.00","99.00","103.50","3.0000","16738"
"3038","全台","1090273","20971557","19.00","19.50","18.90","19.20","0.2000","430"
"3040","遠見","128011","6115427","47.70","47.90","47.40","47.80","0.1000","99"
"3041","揚智","1898848","46418553","23.55","25.00","23.45","24.85","0.8000","983"
"3042","晶技","5898548","543231057","90.90","94.40","90.70","94.10","1.8000","3465"
"3043","科風","101126","398340","3.75","4.06","3.75","3.91","-0.0700","52"
"3044","健鼎","1097022","137022026","126.50","129.00","126.00","128.50","1.5000","652"
"3045","台灣大","1618286","161667002","100.50","100.50","99.50","100.00","-1.0000","996"
"3046","建碁","184465","4093749","22.50","22.60","21.65","22.60","-0.2500","138"
"3047","訊舟","894420","9762702","10.50","11.05","10.50","11.00","0.1500","363"
"3048","益登","1800949","60876268","33.20","34.20","33.05","34.05","0.4500","1050"
"3049","和鑫","7895942","92611501","11.50","12.05","11.35","11.90","0.3000","1693"
"3050","鈺德","722800","10952501","14.75","15.40","14.75","15.30","0.3500","287"
"3051","力特","724703","5732418","7.70","8.11","7.70","8.01","0.2200","250"
"3052","夆典","573953","6608805","11.55","11.80","11.55","11.75","0.1000","189"
"3054","立萬利","27000","574400","21.00","21.70","20.90","21.55","-0.6500","26"
"3055","蔚華科","322756","8409468","27.40","27.60","26.65","27.30","-0.3000","361"
"3056","總太","693820","27173763","38.60","39.40","38.60","39.30","0.4500","402"
"3057","喬鼎","1529444","22775072","14.10","15.75","13.80","15.75","1.4000","677"
"3058","立德","1983195","30035570","15.25","15.55","14.75","15.30","0.3000","839"
"3059","華晶科","4903382","158654917","31.80","33.00","31.40","32.70","0.2000","2724"
"3060","銘異","14678631","343301322","22.75","24.35","22.00","24.00","1.2000","5978"
"3062","建漢","2080122","33543765","16.25","16.90","16.15","16.65","0.2500","617"
"3090","日電貿","958093","48188507","51.30","52.20","50.60","51.70","0.3000","551"
"3092","鴻碩","1553726","97736160","60.50","64.50","60.50","63.40","1.5000","1027"
"3094","聯傑","1295644","41345334","31.00","32.60","30.90","32.30","0.7000","746"
"3130","一零四","136","22901","","","","","0.0000","7"
"3138","耀登","2524412","427496402","161.50","180.00","160.00","177.00","11.5000","2522"
"3149","正達","3530979","110441143","30.50","32.55","30.20","32.00","0.3000","1642"
"3164","景岳","230652","5634617","24.40","24.60","24.10","24.50","0.1000","162"
"3167","大量","106000","6614000","62.00","63.00","61.50","63.00","1.0000","66"
"3189","景碩","8599252","811852571","93.60","96.40","93.20","96.00","1.6000","5273"
"3209","全科","595453","16614366","27.90","28.30","27.80","28.00","0.0000","350"
"3229","晟鈦","15004","92644","5.93","6.25","5.93","6.21","0.0100","15"
"3231","緯創","10848302","315715596","28.90","29.35","28.70","29.30","0.2000","4123"
"3257","虹冠電","122302","8809720","71.30","72.70","71.10","72.10","0.2000","139"
"3266","昇陽","58099","715762","12.30","12.40","12.25","12.40","0.1000","25"
"3296","勝德","220000","4428350","20.10","20.60","19.70","20.60","0.3500","126"
"3305","昇貿","1248655","50838660","39.60","41.60","39.55","41.50","1.3000","742"
"3308","聯德","150830","1244259","7.87","8.46","7.87","8.46","0.2900","96"
"3311","閎暉","58787","1956155","32.90","33.90","32.90","33.70","0.2500","72"
"3312","弘憶股","853826","16331188","19.20","19.55","18.85","19.25","-0.0500","411"
"3321","同泰","367660","4532628","11.95","12.50","11.95","12.40","0.2500","183"
"3338","泰碩","336005","14916275","45.30","46.15","44.80","45.80","0.5000","209"
"3346","麗清","934615","39768754","41.80","43.25","41.20","42.85","0.6500","629"
"3356","奇偶","410634","11257482","26.95","27.85","26.65","27.50","0.4500","272"
"3376","新日興","490451","51948559","105.50","106.50","105.50","106.00","-1.0000","394"
"3380","明泰","978522","26031269","26.50","27.00","26.10","26.75","0.2500","696"
"3383","新世紀","65930","309181","4.49","4.75","4.49","4.75","0.2600","24"
"3406","玉晶光","5875340","2559074975","425.00","454.00","420.50","442.50","29.0000","5417"
"3413","京鼎","983635","214665902","213.00","222.00","213.00","219.50","1.5000","867"
"3416","融程電","31082","2233210","72.50","72.50","71.50","71.90","-0.2000","32"
"3419","譁裕","618227","11315723","18.10","18.70","17.55","18.70","0.6000","342"
"3432","台端","84000","1071500","12.70","13.00","12.50","12.85","-0.0500","41"
"3437","榮創","1465871","41806635","27.85","29.05","27.55","28.85","0.5000","873"
"3443","創意","1985042","686265961","334.00","353.00","331.50","352.00","11.5000","1979"
"3450","聯鈞","564880","30919729","53.50","55.40","53.30","55.30","1.2000","376"
"3454","晶睿","113707","8431604","76.80","77.30","75.50","76.50","0.2000","84"
"3481","群創","498354975","10590536002","20.20","22.15","20.00","21.80","1.1000","101818"
"3494","誠研","637036","2071763","3.18","3.37","3.16","3.33","0.1500","174"
"3501","維熹","126100","6131295","48.35","49.10","48.30","48.85","0.5000","88"
"3504","揚明光","1061882","78406034","72.80","76.00","71.10","76.00","4.1000","781"
"3515","華擎","479266","73456946","151.50","155.50","150.00","155.00","2.0000","363"
"3518","柏騰","92020","2281027","25.45","25.90","24.70","25.50","0.1500","80"
"3528","安馳","41374","1886879","45.50","46.15","45.50","45.85","0.3500","24"
"3530","晶相光","1164352","114807710","95.60","101.00","95.00","99.80","3.2000","908"
"3532","台勝科","1037552","160976453","154.50","157.00","152.50","156.00","-1.0000","858"
"3533","嘉澤","1094385","605673117","557.00","574.00","548.00","554.00","-2.0000","1159"
"3535","晶彩科","205312","3312497","16.30","16.50","16.00","16.35","0.1000","115"
"3536","誠創","54610","430225","7.90","8.00","7.60","8.00","-0.1000","28"
"3543","州巧","99002","2684301","27.45","27.50","27.00","27.00","-0.5000","56"
"3545","敦泰","75222141","14021227086","172.00","193.50","170.00","190.00","14.0000","40510"
"3550","聯穎","273676","4879759","17.50","18.05","17.35","18.00","0.4500","170"
"3557","嘉威","118755","9449699","82.50","84.00","81.90","83.20","0.2000","82"
"3563","牧德","101501","23448412","227.00","233.00","227.00","232.00","1.0000","130"
"3576","聯合再生","24634369","323293293","12.85","13.35","12.80","13.20","0.4000","6302"
"3583","辛耘","260111","14607759","56.80","59.10","56.80","58.70","0.2000","120"
"3588","通嘉","700332","44881223","62.70","66.60","62.70","66.00","2.2000","498"
"3591","艾笛森","195191","3645474","18.30","19.00","18.10","18.85","0.5500","136"
"3593","力銘","29169","417790","14.20","14.50","14.15","14.45","0.0500","55"
"3596","智易","1516420","140322600","91.70","93.80","90.50","93.20","0.3000","1058"
"3605","宏致","1206316","50221808","40.15","42.50","40.05","42.05","1.3000","806"
"3607","谷崧","438134","5816362","13.20","13.95","13.15","13.75","0.3000","205"
"3617","碩天","85000","6669400","82.00","82.80","81.60","82.10","0.6000","45"
"3622","洋華","673621","21578028","31.75","32.70","31.25","31.70","-0.0500","383"
"3645","達邁","298314","12951715","43.20","43.80","42.90","43.40","0.1000","214"
"3653","健策","1249799","337952870","262.00","275.00","261.00","272.50","8.5000","1089"
"3661","世芯-KY","8083152","3828009674","464.50","497.00","443.00","480.00","25.5000","7782"
"3665","貿聯-KY","3783345","864099951","216.00","239.50","215.00","235.00","17.0000","2992"
"3669","圓展","1879117","159981876","84.60","86.50","84.30","84.80","1.2000","1417"
"3673","TPK-KY","2479541","111255848","44.60","45.45","44.25","45.35","0.7000","1592"
"3679","新至陞","336248","43369473","127.00","131.50","127.00","129.50","0.5000","261"
"3682","亞太電","4641889","38649855","8.25","8.43","8.19","8.32","-0.0100","1344"
"3686","達能","679270","10516540","15.20","15.80","15.10","15.40","0.3000","363"
"3694","海華","586007","12903193","21.35","22.50","21.15","22.30","0.8500","368"
"3701","大眾控","4360","62450","14.45","14.45","14.45","14.45","0.3000","12"
"3702","大聯大","1550442","76262202","49.40","49.40","48.95","49.30","-0.1500","812"
"3702A","大聯大甲特","86400","4284998","49.60","49.70","49.50","49.55","-0.0500","58"
"3703","欣陸","4182405","103422360","24.95","25.85","24.65","24.95","-0.2500","1701"
"3704","合勤控","2813297","80614512","27.95","29.10","27.85","29.10","0.9500","1455"
"3705","永信","505531","21421607","43.05","43.10","42.80","42.95","-0.1000","225"
"3706","神達","5445385","150273928","27.35","28.00","27.25","27.90","0.6000","1912"
"3708","上緯投控","534351","61899251","115.00","117.00","113.00","116.50","1.0000","432"
"3711","日月光投控","8776821","932125363","105.00","108.00","103.50","106.50","1.0000","3804"
"3712","永崴投控","910732","24075866","26.60","28.00","26.50","27.55","0.9000","405"
"3714","富采","3768283","263899704","68.10","71.00","68.10","70.90","1.6000","2609"
"4104","佳醫","242474","13204432","56.40","56.80","56.20","56.80","0.4000","125"
"4106","雃博","6164430","236196136","38.90","39.80","37.10","37.25","0.4500","3727"
"4108","懷特","784597","19667190","25.10","25.35","24.85","25.15","0.3000","390"
"4119","旭富","161061","13571982","83.80","84.70","83.30","84.50","-0.1000","155"
"4133","亞諾法","17729895","1344290033","77.00","78.50","73.10","75.50","3.8000","11411"
"4137","麗豐-KY","131247","27513767","208.50","211.00","208.50","209.50","-0.5000","125"
"4141","龍燈-KY","193627","2270725","11.70","11.85","11.50","11.65","0.0000","190"
"4142","國光生","21961727","1241583889","57.10","58.30","55.30","55.50","-0.1000","11719"
"4148","全宇生技-KY","55000","1830050","35.50","35.50","33.75","34.50","0.0000","13"
"4155","訊映","454006","11025851","23.65","24.60","23.65","24.00","0.4000","283"
"4164","承業醫","237154","8096665","34.95","35.30","34.95","35.30","0.3000","130"
"4190","佐登-KY","120218","9109027","75.60","76.90","74.10","76.80","1.1000","76"
"4306","炎洲","3763147","65293670","17.00","17.60","16.90","17.30","0.1500","1328"
"4414","如興","6520156","63700701","9.49","9.99","9.37","9.68","0.1300","2107"
"4426","利勤","803944","19230782","24.05","25.45","24.05","24.60","-0.0500","339"
"4438","廣越","76730","9297515","121.00","123.50","118.00","121.00","-0.5000","71"
"4439","冠星-KY","26000","3818000","146.00","149.50","144.00","148.50","2.5000","21"
"4526","東台","343783","5246561","15.00","15.55","14.90","15.40","0.4000","234"
"4532","瑞智","529128","10289413","19.95","20.20","19.70","20.10","0.1000","197"
"4536","拓凱","104063","16825580","161.00","164.00","160.00","161.50","0.5000","103"
"4540","全球傳動","336730","16856223","48.60","51.20","48.40","50.00","1.3000","272"
"4545","銘鈺","84089","2162645","25.50","26.05","25.25","25.85","-0.1500","68"
"4551","智伸科","221507","37835594","170.00","173.00","168.50","172.50","0.0000","200"
"4552","力達-KY","88473","2504168","29.90","29.90","29.35","29.50","-0.2000","52"
"4555","氣立","34364","1760982","51.40","51.50","50.80","51.30","0.0000","27"
"4557","永新-KY","14111","891932","63.00","63.50","63.00","63.50","-0.1000","23"
"4560","強信-KY","218000","8898300","41.10","41.75","40.80","41.75","0.3000","74"
"4562","穎漢","89025","1744392","20.00","20.00","19.30","19.70","0.0000","70"
"4564","元翎","2150213","80355548","36.80","38.00","36.30","37.40","0.4000","959"
"4566","時碩工業","131003","6064939","46.35","46.80","45.15","46.50","0.1500","114"
"4571","鈞興-KY","93001","12232632","130.00","134.50","130.00","131.00","1.0000","78"
"4572","駐龍","117091","10693263","86.60","92.50","86.60","92.40","6.4000","91"
"4576","大銀微系統","305638","37531997","122.00","125.00","119.50","125.00","3.0000","287"
"4581","光隆精密-KY","4080","153536","37.65","37.65","37.60","37.60","0.3000","5"
"4720","德淵","1099180","16460780","14.75","15.20","14.70","14.90","0.1500","318"
"4722","國精化","224040","7332192","32.80","32.85","32.25","32.75","-0.0500","117"
"4737","華廣","29000","2090900","72.40","72.50","71.20","71.80","-0.3000","23"
"4739","康普","826105","56836680","66.50","70.50","65.40","70.00","3.3000","607"
"4746","台耀","13828171","1222349650","85.70","89.90","85.40","89.90","8.1000","4905"
"4755","三福化","28610","1754189","61.20","61.50","61.20","61.50","0.3000","24"
"4763","材料-KY","182886","19341409","106.00","107.00","103.50","106.00","-1.0000","174"
"4764","雙鍵","7000","395800","57.00","57.00","56.00","57.00","-0.2000","6"
"4766","南寶","78000","11458500","145.00","148.00","145.00","147.00","0.0000","30"
"4807","日成-KY","20020","481564","24.15","24.35","24.00","24.05","-0.6000","33"
"4904","遠傳","1880086","120548430","64.50","64.60","64.00","64.20","-0.4000","1285"
"4906","正文","1688723","48359179","28.50","29.20","28.30","29.00","0.2500","811"
"4912","聯德控股-KY","422021","72939657","169.00","176.50","168.00","176.00","4.0000","296"
"4915","致伸","1910328","96989064","50.70","51.40","50.20","51.40","0.4000","1160"
"4916","事欣科","152508","3214893","21.20","21.95","21.20","21.80","-0.0500","95"
"4919","新唐","18573070","1226392453","63.20","68.20","63.10","66.80","2.8000","10459"
"4927","泰鼎-KY","1899447","101982344","54.80","54.80","52.70","53.70","1.3000","1388"
"4930","燦星網","465226","11186383","23.05","24.70","23.05","24.10","0.6500","297"
"4934","太極","869588","19897755","22.00","23.35","21.95","22.95","0.6500","484"
"4935","茂林-KY","487027","43058474","87.00","90.50","87.00","89.40","0.9000","343"
"4938","和碩","7077519","513748386","72.20","72.90","72.20","72.70","0.2000","3552"
"4942","嘉彰","325174","13440412","40.70","41.75","40.70","41.50","0.0500","205"
"4943","康控-KY","498596","27055901","55.50","56.70","55.00","56.60","0.1000","323"
"4952","凌通","337417","16242824","47.30","48.80","47.10","48.60","0.8000","276"
"4956","光鋐","659256","14135971","21.05","21.90","21.00","21.50","0.3000","411"
"4958","臻鼎-KY","5901947","527479185","91.50","93.80","91.20","93.70","1.9000","2631"
"4960","誠美材","13036228","156344667","11.90","12.25","11.70","12.05","0.2500","2849"
"4961","天鈺","26560313","6951354961","247.50","276.00","241.00","276.00","25.0000","17178"
"4967","十銓","8340519","434348186","49.00","54.50","48.60","52.80","2.7000","5330"
"4968","立積","2079645","981096887","469.50","482.00","464.50","478.50","16.0000","1970"
"4976","佳凌","7950985","568390570","69.70","73.70","68.20","70.70","0.7000","4113"
"4977","眾達-KY","177531","16051779","88.20","91.40","88.20","91.40","1.2000","167"
"4989","榮科","1378224","51894566","36.60","38.50","36.00","37.55","0.5000","734"
"4994","傳奇","93569","6128232","67.20","67.20","64.50","65.00","-0.6000","92"
"4999","鑫禾","178332","8580965","47.35","48.45","47.25","48.15","0.4000","151"
"5007","三星","85229","5185351","60.40","62.90","60.30","60.80","0.4000","84"
"5203","訊連","336714","27480078","83.60","84.80","81.90","82.60","-2.7000","228"
"5215","科嘉-KY","257952","27658102","105.00","108.50","105.00","108.50","0.0000","229"
"5225","東科-KY","43001","787368","18.00","18.70","18.00","18.70","0.0000","24"
"5234","達興材料","50101","4388819","87.80","87.80","87.00","87.30","-0.5000","38"
"5243","乙盛-KY","2378477","140418279","58.30","60.20","57.70","59.70","1.5000","1537"
"5258","虹堡","681058","14879946","21.00","22.10","21.00","21.95","0.4500","243"
"5269","祥碩","851480","1114132255","1275.00","1340.00","1260.00","1340.00","60.0000","1294"
"5283","禾聯碩","96101","11364285","118.00","120.00","116.50","119.50","2.5000","126"
"5284","jpp-KY","10000","419350","41.55","42.75","41.55","42.30","-0.4500","5"
"5285","界霖","807473","53331228","63.00","67.40","63.00","66.20","2.2000","503"
"5288","豐祥-KY","87008","11863588","137.50","137.50","135.50","136.00","-1.5000","73"
"5388","中磊","1911327","122643814","65.50","65.60","63.50","64.30","-1.9000","1473"
"5434","崇越","331513","42423677","128.00","129.00","126.00","128.50","0.5000","306"
"5469","瀚宇博","3910959","166994607","42.55","43.70","42.30","43.50","-0.1000","1894"
"5471","松翰","4432682","384551537","87.10","90.50","86.70","90.10","2.0000","2275"
"5484","慧友","33017","464531","14.15","14.20","13.90","13.95","-0.1500","28"
"5515","建國","430630","5553487","12.70","13.00","12.70","13.00","0.2500","233"
"5519","隆大","1375686","30341717","21.60","22.40","21.60","22.00","0.1500","635"
"5521","工信","1460670","13783850","9.40","9.54","9.30","9.43","0.0100","512"
"5522","遠雄","508546","27476004","54.60","54.90","54.00","54.80","0.2000","293"
"5525","順天","122187","3021471","24.50","24.85","24.50","24.80","0.0000","78"
"5531","鄉林","2521786","28830097","11.45","11.65","11.30","11.60","0.1500","846"
"5533","皇鼎","111035","1791403","16.10","16.15","16.10","16.15","0.0500","37"
"5534","長虹","192824","15046744","77.70","78.50","77.70","78.20","0.0000","169"
"5538","東明-KY","253000","11017150","45.30","45.30","42.70","42.85","0.9000","154"
"5546","永固-KY","103221","7841473","76.50","76.50","75.70","76.30","-0.2000","69"
"5607","遠雄港","1340551","40269992","29.45","30.75","29.35","29.65","0.0000","653"
"5608","四維航","44535191","1447357390","30.75","33.25","29.70","33.25","3.0000","15210"
"5706","鳳凰","201646","7147379","35.15","35.80","35.00","35.60","0.4500","170"
"5871","中租-KY","2274263","470503696","205.00","209.00","203.00","209.00","3.5000","1794"
"5871A","中租-KY甲特","509617","50625663","99.50","99.50","99.20","99.20","-0.3000","175"
"5876","上海商銀","3889923","172014038","43.90","44.45","43.85","44.40","0.0500","2312"
"5880","合庫金","8035806","165738114","20.70","20.70","20.50","20.65","-0.1000","2662"
"5906","台南-KY","16067","692531","44.00","44.05","42.00","42.90","-1.0000","17"
"5907","大洋-KY","223000","4199250","18.95","19.15","18.60","19.00","0.0000","107"
"6005","群益證","9510365","158499943","16.40","16.85","16.35","16.65","0.0000","2796"
"6024","群益期","487957","20916560","42.20","43.35","42.15","43.20","0.8500","374"
"6108","競國","189015","3370758","18.85","18.90","18.65","18.75","-0.1000","85"
"6112","聚碩","145662","5921005","40.60","40.90","40.30","40.65","0.0500","108"
"6115","鎰勝","127383","5519592","42.80","44.00","42.80","43.15","0.2000","95"
"6116","彩晶","266015960","5146877663","18.75","20.35","18.20","19.70","0.5000","67462"
"6117","迎廣","12064","190544","14.90","16.20","14.90","16.20","0.4000","17"
"6120","達運","2153250","27474429","12.60","13.30","12.60","13.20","0.3500","839"
"6128","上福","45265","1114981","24.65","24.75","24.60","24.75","0.1000","31"
"6133","金橋","92429","836696","8.94","9.24","8.88","9.24","0.2900","48"
"6136","富爾特","85525","1474058","17.20","17.30","17.10","17.25","0.0500","76"
"6139","亞翔","438205","12173860","27.50","28.05","27.35","28.05","0.4500","224"
"6141","柏承","262054","6946133","25.80","26.95","25.80","26.70","0.5000","192"
"6142","友勁","836529","10065454","11.85","12.30","11.70","12.15","0.2000","381"
"6152","百一","832654","8338174","9.72","10.20","9.60","10.10","0.2600","288"
"6153","嘉聯益","3336490","94611528","28.50","29.10","28.00","29.00","0.0000","1648"
"6155","鈞寶","336140","8291700","24.05","25.25","24.05","25.05","0.3500","235"
"6164","華興","621422","6000005","9.50","9.88","9.33","9.76","0.2500","264"
"6165","浪凡","345115","11155856","31.40","32.80","31.00","32.60","1.1500","249"
"6166","凌華","103030","5965046","58.00","58.40","57.20","58.00","-0.2000","52"
"6168","宏齊","1578148","30106859","18.60","19.40","18.55","19.40","0.6000","633"
"6172","互億","18084","630967","35.00","35.05","34.20","34.90","-0.0500","15"
"6176","瑞儀","1903846","214809032","115.00","116.50","114.00","116.00","-0.5000","904"
"6177","達麗","244577","7001467","28.45","28.80","28.35","28.80","0.3000","136"
"6183","關貿","67116","3279871","49.00","49.35","48.85","49.25","0.2500","55"
"6184","大豐電","143628","6442257","44.30","45.05","44.30","45.00","0.7000","99"
"6189","豐藝","561503","21828651","39.50","39.80","39.10","39.45","-0.1000","312"
"6191","精成科","7812681","226148399","28.90","30.20","28.70","29.95","0.7000","2571"
"6192","巨路","190763","13402843","69.00","71.10","69.00","70.50","2.2000","177"
"6196","帆宣","330476","31838164","94.50","98.20","94.40","96.40","1.0000","298"
"6197","佳必琪","266248","9798673","36.20","37.10","36.20","36.95","0.5500","198"
"6201","亞弘電","31098","1414070","45.25","45.70","45.20","45.70","0.5000","28"
"6202","盛群","1614348","145049330","88.50","90.80","88.50","89.90","0.6000","1125"
"6205","詮欣","91346","2819613","30.25","31.10","30.25","30.60","-0.2500","76"
"6206","飛捷","71297","4367773","61.80","61.80","60.90","61.20","-0.3000","66"
"6209","今國光","1011351","32078883","31.05","32.35","30.85","32.35","0.7500","522"
"6213","聯茂","998658","119179508","122.50","123.50","121.00","122.50","1.0000","527"
"6214","精誠","228832","19723945","85.80","86.60","85.50","86.40","0.0000","194"
"6215","和椿","733273","15364474","20.65","21.60","20.45","21.40","0.5500","371"
"6216","居易","76746","1920670","25.20","25.20","24.85","25.00","-0.1500","65"
"6224","聚鼎","376525","40164676","104.50","108.00","104.00","107.50","1.5000","317"
"6225","天瀚","10043","39055","4.00","4.00","3.61","3.70","-0.2600","11"
"6226","光鼎","967032","8589863","8.60","9.05","8.59","8.94","0.2400","362"
"6230","尼得科超眾","170714","36713405","208.50","216.00","208.50","215.00","2.5000","126"
"6235","華孚","623634","11166993","17.20","18.20","17.20","18.05","0.4500","277"
"6239","力成","2556723","257086211","101.00","102.50","99.90","100.00","-2.0000","1380"
"6243","迅杰","829212","13264904","16.10","16.40","15.50","16.40","0.3000","470"
"6251","定穎","2167679","38808785","17.50","18.20","17.40","17.95","0.3500","908"
"6257","矽格","2882442","139187980","47.65","48.80","47.35","48.65","0.8000","1519"
"6269","台郡","1579674","181084124","112.00","116.00","111.50","115.50","2.5000","941"
"6271","同欣電","1330164","223738489","164.50","172.50","163.50","168.50","1.0000","1121"
"6277","宏正","80616","6648637","82.50","82.90","82.10","82.60","-0.2000","65"
"6278","台表科","6210455","675364505","103.50","112.00","102.50","111.50","6.0000","3785"
"6281","全國電","48565","3918987","80.80","81.30","80.40","81.00","0.2000","49"
"6282","康舒","1608965","41069990","25.00","25.85","25.00","25.75","0.2500","798"
"6283","淳安","4618783","199649655","44.55","45.55","42.20","43.60","-2.2500","3118"
"6285","啟碁","1005540","62241955","63.30","64.20","63.00","63.70","-0.2000","631"
"6288","聯嘉","1026050","25704180","24.80","25.85","24.50","25.55","0.4500","461"
"6289","華上","27294","81975","3.20","3.20","2.96","3.13","-0.1000","11"
"6405","悅城","352003","9203932","25.85","26.80","25.25","26.30","0.9000","207"
"6409","旭隼","99763","109121555","1115.00","1150.00","1100.00","1150.00","35.0000","112"
"6412","群電","135471","9041871","66.90","67.00","66.40","66.90","0.2000","128"
"6414","樺漢","961260","187657408","188.50","198.50","188.50","197.50","7.5000","814"
"6415","矽力-KY","488890","1581869940","2955.00","3345.00","2955.00","3345.00","300.0000","758"
"6416","瑞祺電通","968606","108501657","110.50","114.50","109.00","112.50","0.5000","769"
"6426","統新","151165","11596850","77.80","80.80","77.80","80.50","2.3000","111"
"6431","光麗-KY","27000","832450","30.60","31.10","30.60","31.10","0.0500","19"
"6438","迅得","515226","46053898","87.70","90.60","87.10","89.40","0.3000","408"
"6442","光聖","8003","237897","32.05","32.65","32.05","32.65","0.6000","4"
"6443","元晶","10056849","316513117","30.85","31.95","30.35","31.70","0.8500","4406"
"6449","鈺邦","196707","11486005","57.50","59.40","57.20","58.80","0.0000","155"
"6451","訊芯-KY","562681","59754451","104.00","108.50","103.50","107.00","1.5000","447"
"6456","GIS-KY","2400676","231596455","94.40","98.10","94.10","98.10","3.2000","1914"
"6464","台數科","4332","469688","109.00","109.00","108.00","108.00","-0.5000","11"
"6477","安集","4356137","185868219","42.40","43.30","41.75","43.15","1.2000","2372"
"6491","晶碩","1480928","720239433","498.00","512.00","475.00","478.50","-12.0000","1450"
"6504","南六","904543","153872600","175.00","175.00","166.50","166.50","-1.5000","829"
"6505","台塑化","1137528","110870226","97.50","98.10","97.10","97.50","-0.7000","871"
"6515","穎崴","102232","25313208","249.00","251.00","243.00","249.50","0.5000","136"
"6525","捷敏-KY","334266","25032042","73.30","76.00","72.50","75.20","1.7000","227"
"6531","愛普","4540604","2781796281","591.00","636.00","585.00","634.00","31.0000","4212"
"6533","晶心科","2597653","1011405204","370.00","405.00","367.00","399.00","23.0000","2511"
"6541","泰福-KY","989329","56028799","58.00","58.00","54.60","56.80","-1.2000","651"
"6552","易華電","109840","5483538","49.50","50.50","48.65","49.90","0.4000","99"
"6558","興能高","227499","8628761","37.00","38.90","37.00","38.50","0.2000","150"
"6573","虹揚-KY","150001","2371216","15.50","16.30","15.50","16.10","0.5500","75"
"6579","研揚","7004","445558","62.60","64.50","62.50","64.50","0.8000","8"
"6581","鋼聯","48101","3293958","67.80","69.50","66.50","68.30","-0.2000","39"
"6582","申豐","1730322","472220101","270.50","281.50","266.00","270.50","-1.0000","1581"
"6591","動力-KY","377059","23338135","61.30","62.80","61.00","62.10","0.3000","266"
"6592","和潤企業","891763","71320374","79.70","80.70","79.50","80.20","-0.1000","500"
"6598","ABC-KY","3721603","200415555","55.00","56.30","50.50","51.90","-0.3000","2601"
"6605","帝寶","228589","12094845","54.60","55.70","54.60","55.50","0.5000","127"
"6625","必應","27304","753536","27.85","28.60","27.65","27.65","-1.1500","30"
"6641","基士德-KY","33200","2206100","67.50","67.50","66.60","67.30","-0.3000","27"
"6655","科定","46472","3356856","70.00","73.60","70.00","71.50","0.0000","39"
"6666","羅麗芬-KY","19017","1449827","77.90","77.90","75.30","77.30","-0.6000","13"
"6668","中揚光","422839","26256657","60.80","63.90","60.40","62.40","0.3000","338"
"6669","緯穎","350710","294231734","830.00","850.00","829.00","848.00","13.0000","429"
"6670","復盛應用","686608","154097935","220.50","231.00","218.50","221.00","3.0000","592"
"6671","三能-KY","62000","2918550","47.00","47.50","47.00","47.05","-0.4500","28"
"6672","騰輝電子-KY","1589473","146708308","88.50","93.80","88.40","93.50","4.4000","1158"
"6674","鋐寶科技","31000","838400","26.60","27.30","26.55","27.10","0.5000","27"
"6698","旭暉應材","88281","3509623","39.50","40.20","39.00","40.00","0.2000","83"
"6706","惠特","1126330","165806974","143.50","151.00","142.50","150.00","5.0000","950"
"6715","嘉基","16003","1709523","106.00","108.00","106.00","108.00","0.0000","17"
"6743","安普新","459103","49524373","101.00","111.50","101.00","110.00","4.0000","407"
"6754","匯僑設計","120001","5323544","44.40","44.60","44.10","44.50","-0.0500","108"
"6756","威鋒電子","221717","51128593","225.00","234.00","224.00","234.00","6.0000","251"
"6768","志強-KY","228055","15199105","64.70","67.70","64.50","67.00","1.7000","116"
"6776","展碁國際","104505","3990963","38.00","38.90","37.65","38.35","-0.4000","94"
"6781","AES-KY","305696","209561084","685.00","693.00","673.00","688.00","-1.0000","445"
"8011","台通","779196","12551246","15.60","16.45","15.55","16.15","0.2000","416"
"8016","矽創","9899147","2516859133","237.00","264.00","233.00","261.00","21.0000","7310"
"8021","尖點","2557310","95653202","36.95","38.80","36.80","38.75","1.2000","1362"
"8028","昇陽半導體","336354","14703290","43.70","44.60","42.80","44.35","0.5000","244"
"8033","雷虎","499145","7404641","15.15","15.15","14.60","14.85","0.0500","266"
"8039","台虹","473547","21653459","45.50","46.15","45.15","45.75","-0.1000","342"
"8046","南電","11295402","3573158716","311.00","322.50","309.00","322.50","7.5000","8662"
"8070","長華*","2694576","87705662","32.15","33.25","31.90","32.95","0.3500","1475"
"8072","陞泰","28690","696816","24.55","25.10","24.50","25.05","0.0500","44"
"8081","致新","1823478","374281907","201.50","209.00","197.50","206.00","4.5000","1507"
"8101","華冠","114574","300695","2.56","2.70","2.56","2.70","-0.0100","33"
"8103","瀚荃","1448009","54611040","36.20","38.40","36.20","38.30","1.6000","888"
"8104","錸寶","299218","14424215","47.90","48.90","47.20","48.50","0.9500","205"
"8105","凌巨","3769244","47911798","12.45","13.20","12.20","13.15","0.6000","1064"
"8110","華東","4569458","62414158","13.30","14.10","13.30","13.85","0.3000","1347"
"8112","至上","4153439","155092803","38.10","38.65","37.80","38.40","0.0000","1780"
"8114","振樺電","12648","880877","68.70","70.80","68.70","70.80","0.0000","19"
"8131","福懋科","321728","11951255","38.05","38.60","38.00","38.45","0.1500","178"
"8150","南茂","2422274","102965104","41.80","42.90","41.65","42.80","0.4500","1413"
"8163","達方","1735918","69387145","41.30","41.80","40.60","41.55","0.1500","786"
"8201","無敵","32159","313726","9.78","9.80","9.61","9.61","-0.1900","21"
"8210","勤誠","212125","16313326","75.90","77.40","75.60","77.30","1.0000","196"
"8213","志超","1002083","46521834","46.20","46.75","45.85","46.40","-0.0500","589"
"8215","明基材","1637594","40167878","24.00","25.00","23.90","24.75","0.2500","1013"
"8222","寶一","139659","1701854","12.35","12.40","12.00","12.40","0.1000","218"
"8249","菱光","475116","9850621","21.50","21.95","21.30","21.75","0.1500","178"
"8261","富鼎","4523239","269840594","57.70","60.80","57.10","60.20","1.1000","2231"
"8271","宇瞻","1981516","84828790","41.35","43.60","41.35","43.15","1.3000","1217"
"8341","日友","106853","21824166","209.00","210.00","209.00","209.50","0.5000","255"
"8367","建新國際","1060055","38457455","35.20","37.65","34.35","35.50","0.8500","648"
"8374","羅昇","80217","1939478","25.40","25.60","25.25","25.35","-0.1500","34"
"8404","百和興業-KY","8661253","441489480","50.50","52.40","47.50","52.20","4.5000","4550"
"8411","福貞-KY","59877","822067","13.85","14.15","13.75","14.15","0.1000","81"
"8422","可寧衛","91226","15546945","169.50","171.00","169.50","170.50","0.5000","169"
"8427","基勝-KY","2000","100400","50.20","50.20","50.20","50.20","-0.1000","2"
"8429","金麗-KY","784043","7990904","10.05","10.45","9.81","10.30","0.3800","409"
"8442","威宏-KY","26010","982080","38.65","38.65","37.80","38.50","0.5000","21"
"8443","阿瘦","82365","889833","10.85","10.90","10.70","10.90","0.0500","125"
"8454","富邦媒","515814","609233990","1175.00","1235.00","1120.00","1220.00","60.0000","922"
"8462","柏文","76349","10379480","136.50","138.00","133.50","138.00","-0.5000","313"
"8463","潤泰材","12017","438127","37.00","37.00","36.00","36.70","-0.2500","11"
"8464","億豐","139377","55676657","397.00","403.50","393.00","399.00","2.0000","143"
"8466","美吉吉-KY","40000","2088300","53.40","53.40","52.00","52.70","-0.7000","34"
"8467","波力-KY","10000","408900","40.40","41.80","40.40","40.60","0.6000","8"
"8473","山林水","1109729","49861515","44.40","45.85","43.45","44.50","-0.4500","881"
"8478","東哥遊艇","34274","1682276","49.50","50.50","48.80","50.50","0.9000","33"
"8480","泰昇-KY","4000","449000","111.00","113.50","111.00","113.50","4.5000","4"
"8481","政伸","40083","3183460","80.10","80.30","79.50","80.20","1.4000","40"
"8482","商億-KY","124000","8944200","72.20","72.40","71.70","72.40","0.3000","34"
"8488","吉源-KY","15000","220850","15.05","15.25","14.95","15.15","0.0500","11"
"8499","鼎炫-KY","79456","10384651","128.00","132.00","128.00","132.00","1.0000","83"
"8926","台汽電","582217","22636159","38.95","39.00","38.75","38.75","-0.2000","361"
"8940","新天地","13643","157455","11.40","11.60","11.40","11.60","0.2000","33"
"8996","高力","313259","13369184","43.00","44.65","43.00","44.30","1.0000","171"
"9103","美德醫療-DR","18696337","485388347","27.20","27.60","24.50","25.10","-1.9000","8729"
"910322","康師傅-DR","91000","2485650","25.50","27.60","25.50","27.05","0.4500","33"
"9105","泰金寶-DR","9689081","41419120","4.22","4.36","4.19","4.33","0.0000","2082"
"910861","神州-DR","630001","6022249","9.26","9.80","9.26","9.60","0.1100","64"
"9110","越南控-DR","86300","246760","2.90","2.93","2.80","2.88","0.0400","44"
"911608","明輝-DR","87000","307960","3.75","3.80","3.38","3.72","0.0000","38"
"911616","杜康-DR","119980","213609","1.79","1.80","1.76","1.78","-0.0100","79"
"911622","泰聚亨-DR","97000","601800","6.20","6.30","6.15","6.17","-0.3000","60"
"911868","同方友友-DR","633000","951090","1.55","1.55","1.48","1.50","-0.0400","154"
"912000","晨訊科-DR","1174037","3107301","2.68","2.68","2.62","2.65","-0.0400","206"
"912398","友佳-DR","55872","238838","4.27","4.34","4.23","4.29","0.0200","79"
"9136","巨騰-DR","72001","631248","8.76","8.86","8.73","8.80","-0.0900","46"
"9188","精熙-DR","47000","135520","2.90","2.90","2.82","2.90","0.0000","15"
"9802","鈺齊-KY","2486233","289327759","109.50","119.00","109.50","118.00","7.0000","1337"
"9902","台火","1514452","19096048","12.00","13.00","12.00","12.90","0.6500","483"
"9904","寶成","22448916","827379396","35.80","37.50","35.80","36.80","0.7000","9759"
"9905","大華","393331","9693193","25.00","25.60","25.00","25.40","0.2000","187"
"9906","欣巴巴","13192","555474","43.00","43.00","41.50","42.40","0.4000","14"
"9907","統一實","2711665","35072735","12.55","13.15","12.55","12.95","0.0500","1050"
"9908","大台北","77913","2566980","33.30","33.60","33.05","33.55","0.1500","70"
"9910","豐泰","1547143","335614309","214.50","223.00","214.00","222.00","7.0000","1219"
"9911","櫻花","459560","29601934","64.00","65.10","63.70","65.00","0.8000","332"
"9912","偉聯","11123","99884","8.80","9.02","8.80","9.00","0.0000","27"
"9914","美利達","920387","279514700","302.00","306.50","300.00","306.00","2.0000","768"
"9917","中保科","622781","55607698","91.70","91.80","90.80","91.30","-0.4000","556"
"9918","欣天然","10613","399965","38.80","38.90","38.70","38.90","0.1000","29"
"9919","康那香","20457078","779399870","37.95","39.70","36.80","36.85","-0.9500","10816"
"9921","巨大","388881","125614130","315.00","328.50","315.00","324.00","5.5000","393"
"9924","福興","153507","6453719","43.75","44.35","43.70","44.25","0.5000","77"
"9925","新保","206510","7924795","38.40","38.50","38.05","38.45","0.0000","152"
"9926","新海","6117","291214","47.65","47.65","47.60","47.60","-0.0500","8"
"9927","泰銘","373394","10998441","30.20","30.45","30.15","30.25","-0.1000","167"
"9928","中視","8282","46379","5.60","5.60","5.60","5.60","0.0000","3"
"9929","秋雨","17004","198798","11.45","11.85","11.30","11.85","0.2500","18"
"9930","中聯資源","75921","3484398","46.00","46.00","45.75","45.90","-0.1000","79"
"9931","欣高","2112","85245","40.30","40.50","40.30","40.50","0.6500","5"
"9933","中鼎","1107057","38991621","36.65","36.95","36.35","36.85","0.2000","471"
"9934","成霖","292017","4662972","16.00","16.15","15.80","16.05","0.0000","127"
"9935","慶豐富","463290","10164553","21.95","22.45","21.65","22.20","0.3500","230"
"9937","全國","21283","991988","47.40","47.40","47.00","47.35","-0.0500","30"
"9938","百和","1509136","140082419","91.90","95.30","91.00","95.10","3.5000","1024"
"9939","宏全","499190","34932419","69.40","70.40","69.10","70.10","-0.1000","402"
"9940","信義","827950","24655274","30.15","30.30","29.90","30.10","-0.2000","434"
"9941","裕融","409767","53165771","129.50","131.50","129.00","131.50","0.0000","311"
"9941A","裕融甲特","38313","1925620","50.30","50.40","50.20","50.40","0.0000","30"
"9942","茂順","201600","17426878","85.00","88.40","84.80","87.80","1.9000","168"
"9943","好樂迪","166873","10233698","61.40","61.90","60.60","61.70","0.2000","155"
"9944","新麗","986721","21331449","22.00","22.10","21.30","21.45","0.0000","557"
"9945","潤泰新","4508848","234307804","51.30","51.80","51.00","51.50","-0.2000","2057"
"9946","三發地產","176687","2556389","14.55","14.60","14.40","14.55","0.1000","100"
"9955","佳龍","401350","7413720","18.00","18.75","17.90","18.50","0.3500","251"
"9958","世紀鋼","1620717","166772427","102.50","104.00","101.50","103.50","-0.5000","1102"
