證券代號,證券名稱,成交股數,成交金額,開盤價,最高價,最低價,收盤價,漲跌價差,成交筆數
"0050","元大台灣50","5710574","786076633","137.20","138.10","137.20","137.70","0.6000","5200"
"0051","元大中型100","90531","4960096","54.60","55.15","54.50","55.15","0.9500","97"
"0052","富邦科技","815292","102140066","125.45","126.00","125.00","125.10","0.0500","376"
"0053","元大電子","13636","902080","66.25","66.25","66.00","66.25","0.2500","16"
"0054","元大台商50","1001","31541","31.51","31.51","31.51","31.51","0.1900","2"
"0055","元大MSCI金融","56305","1195936","21.26","21.30","21.18","21.27","0.0100","50"
"0056","元大高股息","16294396","568682961","34.82","35.06","34.74","35.06","0.3100","7617"
"0057","富邦摩台","22000","2062700","93.75","93.85","93.75","93.85","0.6000","3"
"0061","元大寶滬深","499381","12185322","24.60","24.62","24.25","24.36","-0.1800","219"
"006203","元大MSCI台灣","3333","217075","65.15","65.20","65.15","65.20","0.4000","12"
"006204","永豐臺灣加權","22124","1940360","87.30","87.75","87.30","87.75","0.8000","9"
"006205","富邦上証","972548","38405823","39.69","39.80","39.16","39.53","0.0100","239"
"006206","元大上證50","305122","12102157","39.75","40.00","39.40","39.77","0.1200","85"
"006207","FH滬深","964323","30817296","32.03","32.13","31.75","32.10","0.0800","119"
"006208","富邦台50","1026064","81091682","78.90","79.35","78.80","79.10","0.2000","1352"
"00625K","富邦上証+R","","","","","","","0.0000",""
"00631L","元大台灣50正2","2793545","343909162","122.70","123.90","122.10","123.65","1.6500","1115"
"00632R","元大台灣50反1","116293545","669581094","5.77","5.79","5.74","5.74","-0.0400","7009"
"00633L","富邦上証正2","8083870","586303565","73.00","73.45","71.35","72.60","0.4500","1984"
"00634R","富邦上証反1","553000","2037080","3.67","3.71","3.66","3.68","-0.0100","50"
"00635U","期元大S&P黃金","399322","10217821","25.53","25.61","25.53","25.58","0.0500","188"
"00636","國泰中國A50","3392586","97005977","28.66","28.73","28.34","28.65","0.1500","626"
"00636K","國泰中國A50+U","200","2080","10.40","10.40","10.40","10.40","0.0700","2"
"00637L","元大滬深300正2","51820630","1490995276","28.95","29.14","28.35","28.89","0.2800","10456"
"00638R","元大滬深300反1","879000","6517270","7.41","7.45","7.36","7.40","-0.0400","74"
"00639","富邦深100","2185790","38468555","17.67","17.69","17.37","17.56","0.1100","247"
"00640L","富邦日本正2","290000","8094430","28.06","28.06","27.67","27.99","0.1200","51"
"00641R","富邦日本反1","179000","1929780","10.74","10.81","10.74","10.75","0.0000","31"
"00642U","期元大S&P石油","18028005","206358493","11.39","11.48","11.39","11.45","0.1200","2656"
"00643","群益深証中小","899061","16542251","18.51","18.54","18.22","18.44","0.1400","258"
"00643K","群益深証中小+R","","","","","","","0.0000",""
"00645","富邦日本","151291","3808107","25.21","25.21","25.06","25.15","0.0100","24"
"00646","元大S&P500","245561","8722338","35.59","35.60","35.45","35.59","-0.0600","178"
"00647L","元大S&P500正2","16000","992750","62.05","62.10","62.00","62.10","-0.0500","7"
"00648R","元大S&P500反1","598000","4390620","7.35","7.35","7.33","7.33","-0.0100","63"
"00650L","FH香港正2","971000","30305790","30.79","31.33","30.78","31.24","0.5800","81"
"00651R","FH香港反1","42000","282710","6.74","6.74","6.70","6.71","-0.0700","12"
"00652","富邦印度","111766","2946190","26.33","26.44","26.28","26.31","-0.0100","78"
"00653L","富邦印度正2","1084350","40859744","37.58","37.90","37.49","37.57","0.1900","217"
"00654R","富邦印度反1","235099","2176061","9.27","9.28","9.24","9.26","-0.0400","65"
"00655L","國泰中國A50正2","5499558","303383298","55.45","55.75","54.20","55.20","0.5500","1171"
"00656R","國泰中國A50反1","317000","2144590","6.75","6.83","6.74","6.78","-0.0500","21"
"00657","國泰日經225","121001","4228534","34.99","34.99","34.80","34.95","-0.1300","9"
"00657K","國泰日經225+U","100","1268","12.68","12.68","12.68","12.68","-0.0400","1"
"00660","元大歐洲50","9303","268758","28.86","28.92","28.86","28.92","-0.0900","12"
"00661","元大日經225","2025","71693","35.44","35.44","35.36","35.36","-0.3200","4"
"00662","富邦NASDAQ","787003","38056904","48.45","48.45","48.28","48.33","-0.1700","149"
"00663L","國泰臺灣加權正2","106329","11757182","110.90","111.25","109.65","111.20","1.8000","34"
"00664R","國泰臺灣加權反1","6602651","43113320","6.54","6.56","6.51","6.51","-0.0500","525"
"00665L","富邦恒生國企正2","162000","4060260","24.54","25.18","24.54","25.10","0.6500","64"
"00666R","富邦恒生國企反1","74000","794850","10.80","10.80","10.72","10.72","-0.1800","5"
"00668","國泰美國道瓊","22270","768062","34.43","34.50","34.43","34.50","-0.1200","9"
"00668K","國泰美國道瓊+U","200","2504","12.52","12.52","12.52","12.52","0.0000","2"
"00669R","國泰美國道瓊反1","3345000","26917420","8.06","8.06","8.03","8.04","-0.0200","216"
"00670L","富邦NASDAQ正2","235583","21248094","90.30","90.30","90.00","90.25","0.0000","53"
"00671R","富邦NASDAQ反1","2235020","13229098","5.92","5.93","5.91","5.92","0.0100","92"
"00673R","期元大S&P原油反1","1572069","26233393","16.78","16.78","16.65","16.69","-0.2000","346"
"00674R","期元大S&P黃金反1","104000","1299370","12.52","12.52","12.48","12.49","-0.0400","35"
"00675L","富邦臺灣加權正2","464547","22067954","47.40","47.78","47.13","47.76","0.7000","277"
"00676R","富邦臺灣加權反1","7558015","26939493","3.57","3.58","3.55","3.55","-0.0200","379"
"00677U","期富邦VIX","186981529","274911716","1.47","1.48","1.47","1.47","0.0000","3346"
"00678","群益NBI生技","50446","1357119","26.97","26.97","26.86","26.94","-0.0400","31"
"00680L","元大美債20正2","8000","177650","22.23","22.23","22.16","22.16","-0.0700","6"
"00681R","元大美債20反1","51000","729550","14.30","14.32","14.30","14.32","0.0100","12"
"00682U","期元大美元指數","158110","2827250","17.91","17.91","17.87","17.88","-0.0300","45"
"00683L","期元大美元指正2","624106","10181198","16.34","16.35","16.30","16.34","-0.0700","239"
"00684R","期元大美元指反1","1000","19380","19.38","19.38","19.38","19.38","0.0200","1"
"00685L","群益臺灣加權正2","6000","248940","41.49","41.49","41.49","41.49","0.2900","4"
"00686R","群益臺灣加權反1","284000","1102120","3.88","3.89","3.87","3.87","-0.0200","33"
"00688L","國泰20年美債正2","83000","1841420","22.24","22.24","22.17","22.17","-0.0700","4"
"00689R","國泰20年美債反1","372000","5586560","15.02","15.02","15.01","15.01","-0.0300","24"
"00690","兆豐藍籌30","222348","7281128","32.91","32.91","32.70","32.70","-0.1300","38"
"00692","富邦公司治理","2038726","71668219","35.10","35.28","35.04","35.20","0.1000","961"
"00693U","期街口S&P黃豆","344960","8056251","23.34","23.38","23.32","23.35","0.1600","146"
"00700","富邦恒生國企","104036","1992311","19.15","19.17","19.15","19.15","0.1500","6"
"00701","國泰股利精選30","1283527","30940424","24.08","24.20","24.06","24.18","0.1100","466"
"00702","國泰標普低波高息","118640","2426037","20.48","20.48","20.42","20.44","-0.0900","23"
"00703","台新MSCI中國","194400","4830084","24.70","24.97","24.67","24.94","0.2400","25"
"00706L","期元大S&P日圓正2","5000","80600","16.12","16.12","16.12","16.12","0.0500","5"
"00707R","期元大S&P日圓反1","","","","","","","0.0000",""
"00708L","期元大S&P黃金正2","1382484","41410010","29.86","30.01","29.81","29.92","0.1100","331"
"00709","富邦歐洲","108555","2565921","23.62","23.66","23.62","23.64","-0.1700","13"
"00710B","FH彭博高收益債","629687","11582849","18.36","18.42","18.33","18.40","0.0400","92"
"00711B","FH彭博新興債","273432","5426546","19.84","19.88","19.82","19.88","0.0000","17"
"00712","FH富時不動產","2200579","31768619","14.44","14.49","14.41","14.42","-0.0200","1208"
"00713","元大台灣高息低波","77596","3307751","42.57","42.74","42.37","42.74","0.3300","97"
"00714","群益道瓊美國地產","5000","105460","21.09","21.10","21.09","21.09","-0.0900","4"
"00715L","期街口布蘭特正2","55458248","429362818","7.69","7.79","7.69","7.74","0.1700","3865"
"00717","富邦美國特別股","572732","9530554","16.65","16.66","16.63","16.65","0.0000","133"
"00728","第一金工業30","279204","7951919","28.53","28.61","28.32","28.40","0.0000","217"
"00730","富邦臺灣優質高息","402722","8581562","21.20","21.39","21.20","21.39","0.1900","205"
"00731","FH富時高息低波","261486","15139648","57.75","58.00","57.75","58.00","0.3000","28"
"00732","國泰RMB短期報酬","100000","3965000","39.65","39.65","39.65","39.65","-0.1500","2"
"00733","富邦臺灣中小","642788","27665331","43.00","43.36","42.57","43.36","0.7200","274"
"00735","國泰臺韓科技","106199","3587332","33.81","33.89","33.71","33.82","0.2500","17"
"00736","國泰新興市場","119166","2855682","23.87","23.99","23.87","23.99","0.3600","11"
"00737","國泰AI+Robo","261775","8266027","31.65","31.65","31.53","31.59","-0.0600","54"
"00738U","期元大道瓊白銀","1566731","45716181","29.02","29.29","28.97","29.16","0.1400","371"
"00739","元大MSCI A股","400326","11700419","29.27","29.31","28.95","29.29","0.1200","66"
"00742","新光內需收益","54554","1220491","22.37","22.39","22.37","22.39","-0.0200","5"
"00743","國泰中國A150","122000","3689250","30.22","30.31","29.99","30.31","0.0400","11"
"00752","中信中國50","1237913","36346401","29.23","29.53","29.22","29.50","0.4400","529"
"00753L","中信中國50正2","1041001","39702469","37.57","38.65","37.53","38.44","1.2000","375"
"00757","統一FANG+","935577","42530892","45.49","45.51","45.40","45.46","-0.1800","469"
"00762","元大全球AI","60568","2275047","37.64","37.64","37.50","37.62","-0.0200","41"
"00763U","期街口道瓊銅","334487","10157890","30.34","30.44","30.30","30.38","0.0400","134"
"00770","國泰北美科技","111273","3830648","34.36","34.47","34.35","34.45","-0.1000","10"
"00771","元大US高息特別股","27643","522157","18.90","18.90","18.88","18.89","-0.0200","37"
"00774B","新光中國政金綠債","2000","78300","39.15","39.15","39.15","39.15","-0.1500","2"
"00774C","新光中政金綠債+R","","","","","","","0.0000",""
"00775B","新光投等債15+","3000","120900","40.40","40.40","40.25","40.25","-0.1500","3"
"00783","富邦中証500","602948","13697531","23.00","23.00","22.54","22.72","-0.0800","28"
"008201","BP上證50","","","","","","","0.0000",""
"00830","國泰費城半導體","922146","25499457","27.72","27.73","27.61","27.67","-0.0500","283"
"00850","元大臺灣ESG永續","1525171","52188763","34.15","34.31","34.12","34.27","0.2100","943"
"00851","台新全球AI","43032","1293237","30.06","30.06","29.95","29.95","-0.0400","6"
"00852L","國泰美國道瓊正2","766000","15876370","20.72","20.75","20.70","20.75","0.0100","37"
"00861","元大全球未來通訊","427512","12098973","28.33","28.34","28.27","28.30","-0.0300","198"
"00865B","國泰US短期公債","102000","3712600","36.40","36.40","36.30","36.30","-0.1000","4"
"00875","國泰網路資安","191847","5872112","30.70","30.70","30.55","30.63","-0.0100","109"
"00876","元大未來關鍵科技","843373","24183170","28.66","28.75","28.64","28.66","0.0400","314"
"00878","國泰永續高股息","6742398","124286679","18.40","18.48","18.37","18.47","0.1400","3148"
"00881","國泰台灣5G+","25818264","456652251","17.69","17.80","17.61","17.62","0.0000","9385"
"00882","中信中國高股息","8110738","130042325","16.13","16.15","15.97","16.04","-0.0900","3139"
"00885","富邦越南","11170799","173627760","15.46","15.62","15.44","15.58","0.1300","2902"
"00891","中信關鍵半導體","49145101","767408546","15.64","15.72","15.52","15.53","0.0300","17313"
"01001T","土銀富邦R1","","","","","","","0.0000",""
"01002T","土銀國泰R1","289420","5221999","18.11","18.11","18.02","18.04","-0.0900","49"
"01003T","兆豐新光R1","79100","1503765","19.01","19.01","19.01","19.01","0.0000","11"
"01004T","土銀富邦R2","188000","3080310","16.41","16.41","16.37","16.38","-0.0500","13"
"01007T","兆豐國泰R2","222000","4451250","20.29","20.29","20.01","20.26","-0.0300","132"
"01009T","王道圓滿R1","56157","515112","9.17","9.18","9.17","9.18","0.0100","9"
"01010T","京城樂富R1","30000","324670","10.82","10.85","10.82","10.84","0.0200","9"
"020000","富邦特選蘋果N","16000","121160","7.57","7.58","7.56","7.57","0.0800","7"
"020002","元富新中國N","2000","40420","20.21","20.21","20.21","20.21","0.0000","1"
"020004","兆豐電菁英30N","","","","","","","0.0000",""
"020006","永昌中小300N","34000","1082220","31.83","31.83","31.83","31.83","0.0000","1"
"020007","凱基臺灣500N","","","","","","","0.0000",""
"020008","元大特股高息N","2000","24070","12.03","12.04","12.03","12.04","0.0200","2"
"020011","統一微波高息20N","19000","122150","6.44","6.45","6.42","6.45","0.0300","4"
"020012","富邦行動通訊N","11000","68560","6.23","6.24","6.23","6.23","0.0200","4"
"020015","統一MSCI美低波N","685000","9879600","14.42","14.43","14.42","14.43","-0.0200","3"
"020016","統一MSCI美科技N","3000","54180","18.06","18.06","18.06","18.06","0.0000","2"
"020018","統一價值成長30N","204000","3244170","15.93","16.24","15.73","16.24","0.4700","28"
"020019","統一特選台灣5GN","124000","1721160","13.96","13.96","13.79","13.80","-0.0200","22"
"02001L","富邦蘋果正二N","28000","344220","12.24","12.30","12.24","12.30","0.2600","2"
"02001R","富邦蘋果反一N","","","","","","","0.0000",""
"020020","元大台股領航N","1314000","9433260","7.15","7.22","7.15","7.20","0.0500","315"
"020022","元大電動車N","7031000","42126350","5.98","6.02","5.95","5.98","0.0500","907"
"1101","台泥","9774499","502441292","51.60","51.60","51.20","51.50","-0.1000","4923"
"1101B","台泥乙特","3119","167076","53.50","53.60","53.50","53.60","0.0000","12"
"1102","亞泥","7274980","375093096","51.90","51.90","51.30","51.60","-0.3000","2979"
"1103","嘉泥","1378521","30436310","22.25","22.40","21.95","22.20","-0.0500","616"
"1104","環泥","468921","10736042","23.15","23.15","22.75","22.95","0.2000","247"
"1108","幸福","944099","13305936","14.20","14.25","13.90","14.05","0.0500","458"
"1109","信大","944137","25338285","26.50","27.20","26.25","27.15","0.9000","543"
"1110","東泥","259008","4081173","16.05","16.05","15.65","15.75","-0.3000","136"
"1201","味全","1424255","30871471","21.75","21.80","21.55","21.70","0.0500","660"
"1203","味王","54440","1936977","35.60","35.75","35.50","35.65","0.0000","69"
"1210","大成","1733547","100432607","58.00","58.50","57.50","58.10","0.4000","1226"
"1213","大飲","26112","228714","8.72","8.77","8.72","8.76","-0.2500","12"
"1215","卜蜂","837976","66935796","79.90","80.30","79.30","79.80","0.2000","701"
"1216","統一","2792597","206339767","73.20","74.40","73.20","74.10","0.5000","1809"
"1217","愛之味","19597133","238361962","12.05","12.40","11.85","12.25","0.3000","4791"
"1218","泰山","972318","28409418","29.30","29.40","29.10","29.20","0.0000","617"
"1219","福壽","1494176","35082030","23.55","23.90","23.15","23.60","0.1000","609"
"1220","台榮","807409","13780188","17.35","17.35","16.95","17.05","0.0500","469"
"1225","福懋油","373589","17023325","45.05","46.10","44.50","46.00","0.9500","258"
"1227","佳格","1339408","72656306","53.90","54.50","53.90","54.40","0.7000","1096"
"1229","聯華","1664930","80097362","48.55","48.55","48.00","48.20","-0.1000","1664"
"1231","聯華食","791345","47961080","59.20","61.50","59.20","61.20","1.9000","740"
"1232","大統益","87981","14183603","160.50","162.50","160.00","162.00","1.5000","188"
"1233","天仁","5264","182387","34.60","34.65","34.60","34.65","-0.0500","7"
"1234","黑松","106366","3727200","35.00","35.15","34.95","35.00","0.0000","88"
"1235","興泰","6033","203772","34.00","34.05","33.50","34.05","0.0500","8"
"1236","宏亞","98965","1507015","15.10","15.35","15.10","15.20","0.1000","103"
"1256","鮮活果汁-KY","27739","13073576","469.00","473.50","469.00","470.50","-1.5000","202"
"1301","台塑","3781676","390421355","103.00","104.00","102.50","103.00","-0.5000","2202"
"1303","南亞","4680196","396906786","84.40","85.40","84.30","85.00","0.6000","2482"
"1304","台聚","21316589","770431657","36.05","36.70","35.70","36.50","0.2000","10132"
"1305","華夏","10802471","383916332","35.50","36.05","35.25","35.90","0.3000","4167"
"1307","三芳","267878","5875490","21.80","22.05","21.80","22.00","0.2500","155"
"1308","亞聚","19771449","636859100","31.55","32.80","31.50","32.75","0.8000","7819"
"1309","台達化","4376766","180767258","41.50","41.80","40.75","41.65","0.3000","2237"
"1310","台苯","4919128","98046089","19.75","20.15","19.75","20.10","0.4500","1427"
"1312","國喬","17893158","483077186","27.35","27.45","26.75","27.00","0.2000","5146"
"1312A","國喬特","13000","444150","34.30","34.30","34.10","34.30","0.0000","9"
"1313","聯成","13186990","344345573","25.80","26.65","25.55","26.45","0.7000","5128"
"1314","中石化","126863768","1708234878","13.40","13.70","13.30","13.50","0.4500","22097"
"1315","達新","96160","6868914","71.40","71.80","71.20","71.60","0.2000","85"
"1316","上曜","653321","7415364","11.45","11.45","11.20","11.40","0.0000","219"
"1319","東陽","1254093","42166835","33.20","34.35","33.05","34.10","1.0000","759"
"1321","大洋","413135","14848413","35.80","36.25","35.40","36.25","0.9000","208"
"1323","永裕","161380","5509155","33.90","34.45","33.90","34.25","0.0000","75"
"1324","地球","59001","637682","10.75","10.95","10.60","10.95","0.3000","49"
"1325","恆大","2101116","190137978","89.50","91.60","89.00","91.20","1.4000","1514"
"1326","台化","5589404","484424950","85.90","87.40","85.70","87.20","1.6000","2879"
"1337","再生-KY","1646721","12599174","7.62","7.75","7.61","7.65","0.0300","577"
"1338","廣華-KY","403351","25833151","63.30","64.70","63.00","64.70","1.8000","334"
"1339","昭輝","215000","8146650","37.90","38.20","37.75","37.95","0.0500","182"
"1340","勝悅-KY","179368","1917042","10.70","10.80","10.60","10.80","0.1000","170"
"1341","富林-KY","9000","704600","79.00","79.00","78.00","78.50","0.0000","8"
"1342","八貫","19000","1038900","55.20","55.20","54.50","54.70","0.3000","19"
"1402","遠東新","7978209","253245263","31.70","32.00","31.45","31.90","0.2500","3548"
"1409","新纖","19652307","426106991","21.65","21.95","21.35","21.95","0.4000","6362"
"1410","南染","23292","807341","34.60","34.90","34.55","34.80","0.2000","21"
"1413","宏洲","874830","10483518","12.00","12.25","11.60","12.10","0.2500","365"
"1414","東和","2593749","46250036","17.90","18.15","17.40","18.05","0.2500","956"
"1416","廣豐","395856","4415894","11.20","11.25","11.10","11.20","0.1000","175"
"1417","嘉裕","3228662","51949858","15.75","16.50","15.55","16.50","0.8000","1132"
"1418","東華","3840","42421","11.00","11.35","11.00","11.35","-0.1500","6"
"1419","新紡","26036","1028818","39.90","39.90","39.35","39.70","-0.1000","21"
"1423","利華","76713","1625724","21.30","21.30","21.10","21.20","-0.0500","65"
"1432","大魯閣","72975","1020687","14.00","14.10","13.90","14.10","0.0000","262"
"1434","福懋","1264996","39281046","31.00","31.20","30.80","31.15","0.2500","783"
"1435","中福","65402","1351850","20.85","21.00","20.60","20.70","-0.7000","53"
"1436","華友聯","33279","1315822","39.70","39.80","39.25","39.75","0.0500","34"
"1437","勤益控","113932","2845391","25.00","25.00","24.85","25.00","-0.0500","52"
"1438","三地開發","47435","1461620","30.50","31.30","30.50","31.30","0.8000","38"
"1439","中和","44003","1053221","24.00","24.00","23.80","24.00","0.0500","29"
"1440","南紡","34154046","954233271","28.15","28.45","27.40","28.45","0.4500","12980"
"1441","大東","1264184","14442946","11.70","11.75","11.15","11.60","-0.1000","581"
"1442","名軒","125589","2170759","17.25","17.35","17.25","17.35","0.1000","42"
"1443","立益","40163","489562","12.45","12.45","12.10","12.15","-0.2500","27"
"1444","力麗","8775647","112750597","13.00","13.00","12.65","12.85","0.0500","2483"
"1445","大宇","126801","1547121","12.00","12.30","11.95","12.25","0.2500","64"
"1446","宏和","43000","1248350","29.00","29.15","28.90","28.90","0.0000","24"
"1447","力鵬","20793629","266352844","13.00","13.00","12.55","12.85","0.1500","3600"
"1449","佳和","138306","2257098","15.90","16.70","15.90","16.50","0.4000","89"
"1451","年興","1090858","23394327","21.70","21.85","21.00","21.65","0.0500","574"
"1452","宏益","4511843","109253756","24.55","24.85","23.40","24.80","0.5500","2066"
"1453","大將","175772","1617833","9.22","9.35","9.01","9.19","-0.0100","84"
"1454","台富","126130","1297206","10.50","10.50","10.20","10.35","0.0000","88"
"1455","集盛","64797217","1655669881","25.80","26.25","24.55","26.25","1.1500","21742"
"1456","怡華","112000","1940350","17.70","17.70","17.20","17.20","-0.0500","54"
"1457","宜進","1680618","30379797","18.25","18.25","17.90","18.05","0.0000","789"
"1459","聯發","1886908","26153274","14.00","14.10","13.60","14.05","0.1500","745"
"1460","宏遠","6199746","75418628","12.60","12.60","11.80","12.25","0.1500","2302"
"1463","強盛","253861","3500666","14.00","14.00","13.65","13.80","-0.1000","168"
"1464","得力","407627","7024885","17.30","17.30","17.20","17.30","0.0500","267"
"1465","偉全","35930","461259","12.80","12.90","12.80","12.90","0.1000","32"
"1466","聚隆","4401031","91161704","20.30","21.10","20.30","20.85","0.6000","2001"
"1467","南緯","1376312","24252057","17.60","17.90","17.35","17.80","0.2000","501"
"1468","昶和","39000","472250","12.30","12.30","12.00","12.00","-0.3000","30"
"1470","大統新創","10125","161537","15.85","16.00","15.85","16.00","0.1000","10"
"1471","首利","2875965","31076308","10.15","11.15","10.15","11.15","1.0000","878"
"1472","三洋紡","59096","628210","10.60","10.70","10.60","10.70","0.1000","31"
"1473","台南","248577","4482912","18.25","18.30","17.70","18.00","-0.0500","159"
"1474","弘裕","6951914","120148734","17.35","17.65","16.65","17.25","0.0000","2220"
"1475","業旺","31342","1123123","35.60","36.10","35.60","36.10","0.9500","32"
"1476","儒鴻","1252946","786809738","645.00","645.00","616.00","635.00","-10.0000","1495"
"1477","聚陽","3583257","997647505","282.00","284.00","271.50","284.00","3.0000","2924"
"1503","士電","120278","6165630","51.20","51.50","51.10","51.50","0.3000","96"
"1504","東元","1410039","46564515","33.00","33.20","32.80","33.10","0.1000","689"
"1506","正道","117623","1145114","9.69","9.79","9.65","9.79","0.0900","70"
"1507","永大","106874","6601452","61.90","62.00","61.60","61.90","0.0000","79"
"1512","瑞利","26031","118505","4.52","4.68","4.51","4.68","0.0800","27"
"1513","中興電","3062555","158031239","51.30","51.90","51.10","51.50","0.3000","1735"
"1514","亞力","705110","16984807","23.85","24.25","23.85","24.20","0.3500","333"
"1515","力山","1322218","103471888","78.00","79.00","77.40","78.70","1.3000","943"
"1516","川飛","28001","591822","21.15","21.25","21.00","21.25","0.1000","21"
"1517","利奇","2883157","74897806","25.95","26.50","25.50","26.40","0.5500","1512"
"1519","華城","567219","25334519","44.50","45.30","44.30","44.45","0.2000","472"
"1521","大億","74337","3295445","44.20","44.70","44.00","44.60","0.4000","63"
"1522","堤維西","446978","9770797","21.90","22.05","21.50","22.00","0.4000","243"
"1524","耿鼎","299954","3006344","10.00","10.10","9.98","10.05","0.1200","138"
"1525","江申","82072","5399468","65.40","66.50","65.30","66.00","1.0000","73"
"1526","日馳","455871","22660337","49.70","50.40","48.60","49.80","0.7000","285"
"1527","鑽全","1644800","80823132","48.90","49.70","48.25","49.35","1.5500","1098"
"1528","恩德","209195","2071211","9.93","9.99","9.87","9.92","0.0300","105"
"1529","樂士","95252","1601832","16.85","16.95","16.60","16.75","-0.2000","65"
"1530","亞崴","19312","689578","35.70","35.75","35.65","35.70","0.0500","16"
"1531","高林股","167192","2433703","14.65","14.80","14.45","14.75","0.2000","119"
"1532","勤美","662490","22157580","33.45","33.80","32.95","33.65","0.5000","308"
"1533","車王電","393022","22521682","56.60","58.00","56.50","57.10","0.5000","295"
"1535","中宇","33312","1274410","38.25","38.50","38.20","38.50","0.1000","33"
"1536","和大","479761","45457450","94.60","95.50","94.30","94.70","0.8000","452"
"1537","廣隆","175060","25469077","144.00","147.00","144.00","147.00","3.5000","190"
"1538","正峰","7276","90943","12.50","12.70","12.50","12.70","0.2000","12"
"1539","巨庭","82000","1444000","17.80","17.80","17.45","17.60","0.1000","43"
"1540","喬福","132405","2117775","16.00","16.05","15.90","16.05","0.1000","64"
"1541","錩泰","31003","1536799","50.00","50.00","49.25","49.50","0.0000","32"
"1558","伸興","51789","8581622","165.00","166.50","165.00","166.00","1.5000","65"
"1560","中砂","400919","26172011","64.80","65.70","64.70","65.40","0.9000","281"
"1568","倉佑","615364","16018499","25.35","26.30","25.35","26.10","0.7500","446"
"1582","信錦","292301","24577869","84.40","84.50","83.50","84.40","0.5000","227"
"1583","程泰","13373","850767","63.60","63.80","63.50","63.50","0.0000","13"
"1587","吉茂","151040","4248684","28.00","28.30","27.95","28.20","0.2000","103"
"1589","永冠-KY","732534","53913071","73.10","74.10","72.90","74.10","1.3000","528"
"1590","亞德客-KY","388816","386480480","995.00","1010.00","988.00","992.00","-6.0000","460"
"1592","英瑞-KY","546000","1589920","3.03","3.03","2.88","2.91","-0.0200","92"
"1597","直得","1877374","204227697","102.50","111.00","102.50","110.50","9.5000","1601"
"1598","岱宇","1153891","106681012","91.60","93.50","91.50","93.20","1.9000","783"
"1603","華電","1043646","31999652","31.10","31.20","30.15","31.20","0.4000","547"
"1604","聲寶","545023","16075111","29.60","29.60","29.40","29.60","0.0500","372"
"1605","華新","44285361","1166887524","26.45","26.95","26.00","26.50","0.0500","15565"
"1608","華榮","22090815","611849236","27.90","28.60","26.90","27.90","-0.1500","9127"
"1609","大亞","23315956","679240956","29.65","29.90","28.55","29.15","-0.1500","10325"
"1611","中電","682777","7791911","11.40","11.55","11.30","11.50","0.1000","341"
"1612","宏泰","2495113","64272584","25.70","26.20","25.30","26.10","0.5500","1331"
"1614","三洋電","98050","3292390","33.70","33.80","33.50","33.80","0.0000","59"
"1615","大山","815184","32712438","40.35","41.45","39.20","40.40","0.0500","546"
"1616","億泰","4885008","49694917","10.50","10.55","9.60","10.50","0.0000","1879"
"1617","榮星","402002","7635646","19.30","19.50","18.60","19.15","-0.1500","256"
"1618","合機","1564388","25318726","16.20","16.45","16.00","16.25","0.0500","667"
"1626","艾美特-KY","17000","410300","24.20","24.20","24.10","24.10","-0.1000","15"
"1701","中化","816316","18951709","23.15","23.35","23.10","23.30","0.1500","402"
"1702","南僑","1067329","58678456","55.00","55.40","54.70","55.00","0.0000","754"
"1707","葡萄王","323865","54943865","167.00","171.50","167.00","171.50","5.0000","446"
"1708","東鹼","803903","22180811","27.50","27.80","27.40","27.75","0.2500","370"
"1709","和益","8166642","156018135","19.10","19.30","18.80","19.20","0.3000","2487"
"1710","東聯","2969145","64943594","21.75","22.15","21.60","22.15","0.4500","878"
"1711","永光","3330129","63823041","19.15","19.35","19.05","19.20","0.2000","1424"
"1712","興農","655017","14241969","21.70","21.80","21.65","21.75","0.0500","271"
"1713","國化","86383","1944920","22.80","22.80","22.40","22.55","0.0500","54"
"1714","和桐","20079863","230374131","11.30","11.60","11.25","11.55","0.3000","5011"
"1717","長興","9037711","369021651","40.70","41.30","40.20","41.30","0.8000","4495"
"1718","中纖","16905435","173343231","10.20","10.40","10.15","10.35","0.2000","3650"
"1720","生達","370402","14190555","38.40","38.50","38.20","38.50","0.0500","254"
"1721","三晃","268752","2644887","9.80","9.90","9.80","9.88","0.0900","177"
"1722","台肥","1707909","94992829","55.50","56.20","55.30","56.10","0.7000","982"
"1723","中碳","140102","15140246","107.50","108.50","107.50","108.50","1.0000","107"
"1724","台硝","70189","1109427","15.80","15.85","15.80","15.80","0.0000","48"
"1725","元禎","67216","1273895","18.95","19.25","18.85","19.25","0.4000","49"
"1726","永記","31171","2314588","74.40","74.50","74.00","74.10","-0.3000","24"
"1727","中華化","1398289","18892690","12.70","13.90","12.70","13.90","1.2000","565"
"1730","花仙子","238557","16478493","69.50","69.50","68.80","69.20","-0.2000","295"
"1731","美吾華","1191835","24476304","20.65","20.65","20.35","20.55","0.0500","528"
"1732","毛寶","2869451","100010946","36.20","36.60","33.40","36.60","0.4000","1825"
"1733","五鼎","249187","5956363","23.90","24.05","23.85","23.95","0.0500","133"
"1734","杏輝","1631368","49201621","30.60","30.60","29.90","30.45","0.0000","1058"
"1735","日勝化","31243","567548","18.00","18.45","18.00","18.30","0.0000","26"
"1736","喬山","279972","22135514","79.00","79.50","78.70","79.10","0.1000","220"
"1737","臺鹽","302913","9707368","32.10","32.15","31.95","32.15","0.1500","205"
"1760","寶齡富錦","3248865","301265663","95.80","99.50","89.00","99.00","2.2000","2640"
"1762","中化生","1223702","77937880","63.30","64.30","62.90","64.30","1.4000","720"
"1773","勝一","129216","14546949","112.50","113.50","112.00","113.00","0.0000","134"
"1776","展宇","39063","677800","17.30","17.55","17.20","17.55","0.3500","38"
"1783","和康生","1255559","45539277","36.50","37.30","35.30","35.90","-0.6000","796"
"1786","科妍","61246","3149286","51.70","52.20","51.00","52.20","0.3000","44"
"1789","神隆","2093715","57345094","27.60","27.70","27.00","27.55","-0.0500","1104"
"1795","美時","2942469","268976848","93.50","93.50","90.40","92.30","-0.7000","1792"
"1802","台玻","53585901","1801947679","33.00","34.80","32.75","33.75","0.8500","20422"
"1805","寶徠","86041","1193418","13.85","13.95","13.70","13.90","0.0500","48"
"1806","冠軍","2683028","31559400","11.75","12.00","11.55","11.80","0.1500","970"
"1808","潤隆","357850","20672473","56.10","58.20","56.10","58.00","0.4000","207"
"1809","中釉","2711469","39628151","14.40","14.95","14.15","14.90","0.7000","1126"
"1810","和成","899000","10148650","11.25","11.45","11.10","11.35","0.1500","294"
"1817","凱撒衛","26100","950180","37.20","37.20","36.20","36.40","0.1000","25"
"1903","士紙","204204","10804960","52.40","53.60","52.30","53.20","0.8000","138"
"1904","正隆","2599704","107331276","41.05","41.80","40.70","41.70","0.4000","1653"
"1905","華紙","20722383","499764238","24.15","24.70","23.60","24.50","0.1500","8773"
"1906","寶隆","287012","5577721","19.40","19.70","19.15","19.55","0.1500","167"
"1907","永豐餘","11654414","451512882","38.40","39.15","38.10","39.10","0.8500","5512"
"1909","榮成","11398805","270748800","23.50","24.20","23.20","24.05","0.6000","4743"
"2002","中鋼","191210116","7068863350","37.40","37.70","36.20","37.35","0.4000","60613"
"2002A","中鋼特","56016","2885425","51.40","51.80","51.40","51.80","0.1000","25"
"2006","東和鋼鐵","10467603","506224599","48.80","49.35","47.40","48.55","0.2000","5110"
"2007","燁興","18766311","278736252","15.15","15.50","14.15","14.95","-0.2000","7288"
"2008","高興昌","6409707","126410033","20.10","20.75","18.75","19.80","-0.2000","3007"
"2009","第一銅","72995647","5133341212","71.70","73.70","67.80","69.80","0.8000","37303"
"2010","春源","16846844","355897844","21.15","21.85","20.50","21.35","0.0500","7170"
"2012","春雨","2561635","73300548","28.90","29.70","27.55","28.50","-0.3000","1659"
"2013","中鋼構","1809166","77996583","43.10","43.90","42.60","43.45","0.2000","1140"
"2014","中鴻","247725609","13192041139","53.40","55.00","50.90","53.30","0.9000","103427"
"2015","豐興","1332119","99050312","76.10","76.20","73.50","74.40","-0.8000","936"
"2017","官田鋼","18675584","446290964","23.90","25.00","22.85","24.00","0.3000","8122"
"2020","美亞","9060409","311367051","34.60","35.30","33.50","34.80","0.2500","4512"
"2022","聚亨","37261076","573004237","15.50","16.15","14.30","15.45","0.3000","13539"
"2023","燁輝","74686731","1778636550","23.90","24.70","23.00","23.85","0.4000","26556"
"2024","志聯","557065","10279732","18.40","19.10","17.85","18.35","-0.7500","368"
"2025","千興","1014044","4041004","4.00","4.00","3.98","3.99","0.0100","182"
"2027","大成鋼","99075129","4644290061","46.80","48.10","44.70","47.90","1.9000","40670"
"2028","威致","28230639","1103383284","38.00","40.55","37.05","40.55","3.6500","12475"
"2029","盛餘","7865270","273359208","34.00","35.85","33.10","35.85","1.7000","3663"
"2030","彰源","10846610","221822189","20.60","21.10","19.80","20.80","0.5500","4005"
"2031","新光鋼","19026757","1233825782","65.80","66.80","62.50","65.60","1.4000","9990"
"2032","新鋼","3220164","66361880","20.90","21.05","20.00","20.85","0.4000","1509"
"2033","佳大","3350821","59542989","17.30","18.50","16.80","18.40","1.3000","1574"
"2034","允強","7537630","243051522","32.15","33.10","31.50","32.30","0.1000","3336"
"2038","海光","91848483","3675028642","39.00","41.55","37.30","41.55","3.7500","38276"
"2049","上銀","1394124","523067529","370.00","379.00","370.00","375.50","7.5000","1280"
"2059","川湖","71794","27773961","383.50","389.00","383.50","389.00","5.5000","94"
"2062","橋椿","95000","2708700","28.45","28.65","28.35","28.55","0.1000","69"
"2069","運錩","4749340","118718774","24.45","25.75","23.55","25.55","1.4500","2313"
"2101","南港","711793","27228844","38.10","38.50","38.10","38.50","0.4000","414"
"2102","泰豐","4096726","111360793","27.20","27.75","26.55","27.75","0.5500","1815"
"2103","台橡","15660902","476621929","31.30","31.40","29.95","30.40","-0.6500","5768"
"2104","國際中橡","28101505","749552597","27.65","27.80","26.00","26.25","-0.9500","11291"
"2105","正新","2324515","108913554","47.00","47.20","46.40","47.00","0.3500","1374"
"2106","建大","766933","31317643","40.60","41.25","40.25","40.95","0.5000","562"
"2107","厚生","894610","21782924","24.35","24.60","24.10","24.50","0.4000","419"
"2108","南帝","9447140","1272321179","132.50","137.00","131.00","137.00","6.0000","6232"
"2109","華豐","411784","7782867","18.85","19.30","18.65","19.00","0.1500","214"
"2114","鑫永銓","48207","5816754","119.50","121.00","119.50","120.50","1.0000","34"
"2115","六暉-KY","62444","2941118","47.00","47.40","47.00","47.10","0.2000","53"
"2201","裕隆","2967487","118099286","39.50","40.15","39.30","40.10","0.6500","1467"
"2204","中華","2827502","196845010","68.70","70.80","68.40","70.20","1.6000","1542"
"2206","三陽工業","1385485","39011842","28.00","28.40","27.95","28.30","0.3500","736"
"2207","和泰車","96418","54473193","567.00","571.00","562.00","565.00","-5.0000","192"
"2208","台船","8126416","182149266","22.20","22.85","22.00","22.75","0.7000","3472"
"2211","長榮鋼","1187446","63843571","54.30","55.10","53.00","53.90","-0.9000","963"
"2227","裕日車","50972","13578024","266.50","267.00","265.50","267.00","0.5000","100"
"2228","劍麟","106134","7633858","71.60","72.30","71.50","71.70","0.2000","88"
"2231","為升","595220","121034814","203.00","206.00","201.00","201.50","0.5000","534"
"2233","宇隆","1258643","142350955","108.00","117.00","108.00","115.50","8.0000","1086"
"2236","百達-KY","39570","963793","24.50","24.50","24.00","24.40","-0.1000","21"
"2239","英利-KY","120132","11122374","91.20","93.50","91.20","93.00","1.8000","108"
"2241","艾姆勒","115000","6177100","53.00","54.20","53.00","53.60","0.8000","98"
"2243","宏旭-KY","13000","129380","10.10","10.10","9.86","9.90","-0.1000","9"
"2247","汎德永業","74336","16483896","221.50","222.00","221.00","221.50","0.0000","135"
"2250","IKKA-KY","2210007","341127915","158.00","167.50","137.50","150.00","-9.0000","1950"
"2301","光寶科","2823093","187262552","66.00","66.80","65.70","66.40","0.2000","1852"
"2302","麗正","505322","9145335","18.50","18.50","17.90","18.25","0.1500","261"
"2303","聯電","153776392","8141177626","53.20","54.00","52.20","52.20","-0.8000","54862"
"2305","全友","989776","9308824","9.22","9.55","9.22","9.42","0.2000","405"
"2308","台達電","3940528","1164678532","295.00","297.00","294.50","297.00","1.0000","3151"
"2312","金寶","15373042","214646913","13.55","14.20","13.55","14.15","0.5500","4365"
"2313","華通","13536886","533783904","39.00","39.95","38.90","39.45","1.0500","6133"
"2314","台揚","11105585","418332240","35.30","38.50","35.30","38.50","3.5000","4911"
"2316","楠梓電","511919","15120992","29.20","29.90","29.15","29.60","0.6000","352"
"2317","鴻海","22421329","2559926686","114.50","115.00","113.50","114.50","1.0000","14042"
"2321","東訊","6001","42553","7.18","7.18","6.93","7.18","0.0000","11"
"2323","中環","8750027","91494959","10.35","10.60","10.25","10.45","0.2000","1991"
"2324","仁寶","7628259","179167844","23.45","23.65","23.40","23.45","0.0000","2964"
"2327","國巨","5334060","2683271268","510.00","510.00","499.00","500.00","-5.0000","5733"
"2328","廣宇","16228051","655830994","40.00","41.35","39.70","40.05","0.5000","8020"
"2329","華泰","11851763","216513177","18.45","18.55","18.05","18.15","0.0500","3796"
"2330","台積電","18405285","10985893229","598.00","599.00","595.00","598.00","1.0000","20318"
"2331","精英","3621285","89659127","24.65","25.00","24.60","24.65","0.0500","1297"
"2332","友訊","4146408","83623173","20.30","20.40","20.00","20.20","0.1500","1580"
"2337","旺宏","69310196","3021848745","43.15","44.80","42.85","43.00","0.8000","28285"
"2338","光罩","35978329","3118810005","85.80","89.70","84.40","84.40","-0.1000","20731"
"2340","光磊","3401540","91974764","26.95","27.35","26.85","26.95","0.0500","1587"
"2342","茂矽","1703124","55912120","32.95","33.45","32.45","33.00","0.1000","1002"
"2344","華邦電","180022367","6349215413","35.00","36.40","34.40","34.50","0.3500","62594"
"2345","智邦","854599","262253793","305.00","310.50","305.00","306.50","-1.0000","900"
"2347","聯強","7312477","448129483","60.40","62.00","60.10","61.60","1.8000","4193"
"2348","海悅","545529","52189728","93.20","98.00","93.20","97.00","3.7000","459"
"2349","錸德","2785901","28168387","10.15","10.20","10.00","10.15","0.1500","965"
"2351","順德","7321764","709451550","96.70","98.50","94.80","98.00","0.9000","4475"
"2352","佳世達","6331216","196031995","31.10","31.20","30.65","31.05","0.3500","2509"
"2353","宏碁","16845126","537475075","32.05","32.10","31.70","31.95","0.0500","7391"
"2354","鴻準","5745855","379966555","65.80","66.70","65.40","66.40","1.1000","3156"
"2355","敬鵬","2468741","73318220","28.80","30.30","28.80","30.15","1.2500","1343"
"2356","英業達","6412583","167358391","26.10","26.25","25.85","26.20","0.3500","2196"
"2357","華碩","3207839","1280738442","399.00","403.00","395.00","403.00","8.0000","3532"
"2358","廷鑫","1057095","15700324","14.65","15.10","14.60","14.85","0.0500","524"
"2359","所羅門","253229","4326466","17.05","17.15","17.00","17.15","0.1500","119"
"2360","致茂","383187","73147734","188.50","195.00","188.50","189.00","0.5000","368"
"2362","藍天","262660","7872911","29.90","30.05","29.90","30.00","0.1000","146"
"2363","矽統","13929638","300090004","21.40","21.75","21.35","21.45","0.2500","4908"
"2364","倫飛","168021","535234","3.16","3.22","3.16","3.17","-0.0600","48"
"2365","昆盈","3847824","49855850","12.85","13.15","12.70","13.05","0.3500","1089"
"2367","燿華","6381270","137328625","21.25","21.80","21.15","21.75","0.8000","2711"
"2368","金像電","33459091","1902085098","56.10","57.80","56.00","57.10","1.9000","17443"
"2369","菱生","8722227","156309313","17.60","18.35","17.45","17.85","0.4500","3127"
"2371","大同","6970356","173993987","25.00","25.30","24.75","24.85","0.0000","1877"
"2373","震旦行","17617","1620289","92.30","92.30","91.80","92.10","0.5000","37"
"2374","佳能","404539","6199538","15.35","15.40","15.25","15.30","0.0500","223"
"2375","凱美","3719926","389913448","105.00","106.00","103.50","105.00","0.5000","2400"
"2376","技嘉","13056912","1491463345","111.00","117.00","110.50","113.50","3.5000","8641"
"2377","微星","6036378","1022221540","166.50","172.00","164.50","171.50","6.0000","4271"
"2379","瑞昱","1734810","876487416","501.00","509.00","500.00","506.00","7.0000","1836"
"2380","虹光","3394150","44410997","12.20","13.30","12.20","13.30","1.2000","861"
"2382","廣達","9083486","818428395","90.40","90.70","89.80","89.90","0.2000","6110"
"2383","台光電","3000199","488514170","164.00","165.00","162.00","162.50","-1.5000","1821"
"2385","群光","14060625","1131802098","78.00","82.40","77.80","81.60","3.8000","8869"
"2387","精元","1214558","68683947","55.30","57.60","55.30","56.40","1.0000","702"
"2388","威盛","4696504","241672868","51.00","52.50","50.50","51.50","2.1000","2919"
"2390","云辰","40860063","966301494","24.80","25.00","23.10","23.80","-1.8500","17096"
"2392","正崴","1642701","67126202","40.35","41.15","40.35","41.15","0.9500","1061"
"2393","億光","4776730","222501376","46.30","46.90","46.10","46.60","0.8000","2496"
"2395","研華","648609","211080342","329.00","330.50","323.00","323.00","-6.5000","679"
"2397","友通","8071","511307","63.30","63.60","63.10","63.60","0.2000","12"
"2399","映泰","7971899","214212281","25.60","27.55","25.45","27.55","2.5000","2979"
"2401","凌陽","20421449","620437505","30.15","30.95","30.00","30.20","0.3500","9226"
"2402","毅嘉","1453468","25776193","17.50","17.90","17.50","17.75","0.4000","567"
"2404","漢唐","544649","125220837","231.00","232.00","229.00","229.50","-1.5000","725"
"2405","浩鑫","2253905","29450375","12.90","13.30","12.85","13.20","0.3000","843"
"2406","國碩","5583111","108614110","19.20","19.80","19.00","19.50","0.6500","2129"
"2408","南亞科","15322893","1261810762","82.40","84.00","81.20","81.30","-0.6000","8854"
"2409","友達","666680370","17473424042","26.30","26.80","25.70","25.70","-0.1500","151625"
"2412","中華電","2107933","239414178","113.50","114.00","113.00","113.50","0.0000","1317"
"2413","環科","354190","8329705","23.30","23.75","23.10","23.50","0.2000","218"
"2414","精技","296144","8628950","29.15","29.30","29.00","29.20","0.2000","235"
"2415","錩新","959789","37705967","39.00","39.75","38.45","39.70","0.7500","614"
"2417","圓剛","3545764","157612138","43.70","45.10","43.70","44.70","1.1000","2256"
"2419","仲琦","645750","13787389","21.25","21.50","21.15","21.40","0.3500","266"
"2420","新巨","137264","5087552","37.00","37.15","37.00","37.15","0.2000","120"
"2421","建準","2252959","101812789","43.55","46.00","43.55","45.95","2.5000","1669"
"2423","固緯","37068","882071","23.85","23.95","23.70","23.95","0.2500","41"
"2424","隴華","1548","40578","26.25","26.25","26.25","26.25","0.0000","4"
"2425","承啟","1449199","46469389","31.80","32.45","31.55","32.30","0.8000","843"
"2426","鼎元","3501102","95210764","27.10","27.60","27.05","27.10","-0.2500","1936"
"2427","三商電","155089","1767667","11.40","11.45","11.35","11.40","0.0500","72"
"2428","興勤","279630","45800574","164.00","166.00","161.50","162.50","-1.0000","254"
"2429","銘旺科","31434","498782","15.90","16.00","15.70","15.80","-0.1000","26"
"2430","燦坤","576170","16023569","27.70","28.20","27.45","28.20","0.5000","338"
"2431","聯昌","1473932","21939077","14.95","15.00","14.70","14.90","0.1000","507"
"2433","互盛電","39409","2074101","52.40","52.90","52.40","52.80","0.5000","38"
"2434","統懋","17915","656935","37.00","37.00","36.50","36.90","0.0500","22"
"2436","偉詮電","23184110","1711679405","72.50","75.40","72.50","73.20","1.5000","14069"
"2438","翔耀","103477","1139996","11.00","11.20","10.90","11.00","-0.2000","66"
"2439","美律","1275753","138218718","108.00","110.00","107.00","109.00","1.5000","999"
"2440","太空梭","905669","17319588","19.60","19.65","18.80","19.30","-0.1000","524"
"2441","超豐","1973412","142875471","72.90","73.00","72.00","72.40","0.3000","1403"
"2442","新美齊","716437","7353940","10.25","10.40","10.10","10.30","0.0500","262"
"2443","億麗","67534","201319","2.99","3.00","2.93","2.99","0.0000","26"
"2444","兆勁","495488","6244375","12.70","13.00","12.45","12.60","0.0000","228"
"2449","京元電子","9838307","432894464","43.45","44.80","43.30","43.75","0.5500","5191"
"2450","神腦","125914","4107729","32.55","32.70","32.50","32.65","0.2000","91"
"2451","創見","1880317","136874419","71.70","73.50","71.60","73.30","2.4000","1393"
"2453","凌群","534145","14173431","26.70","26.80","26.20","26.50","-0.2000","378"
"2454","聯發科","7359973","7283387219","1005.00","1015.00","976.00","977.00","-18.0000","10639"
"2455","全新","4006765","469994828","116.50","118.50","115.50","117.00","3.5000","2529"
"2456","奇力新","2491498","249396435","100.50","101.00","99.10","100.50","0.9000","1867"
"2457","飛宏","23958233","877309627","36.65","37.80","35.65","36.70","0.3000","11668"
"2458","義隆","2797212","590616929","212.00","214.50","209.00","209.00","-2.0000","2421"
"2459","敦吉","69605","3753773","53.70","54.00","53.70","53.90","0.2000","60"
"2460","建通","1901837","67880034","35.00","36.50","34.85","36.00","1.0000","1044"
"2461","光群雷","1721610","37120159","21.40","22.00","21.00","21.75","0.5500","671"
"2462","良得電","1185046","40676345","33.90","34.80","33.80","34.35","0.6500","564"
"2464","盟立","9670670","460161794","47.75","48.80","46.70","47.35","0.9500","5550"
"2465","麗臺","9386347","575987266","56.90","63.40","56.30","63.40","5.7000","5102"
"2466","冠西電","89000","2880100","32.20","32.45","32.20","32.40","0.2000","57"
"2467","志聖","592876","32245067","53.90","55.10","53.70","54.40","0.8000","475"
"2468","華經","139048","1905092","13.60","13.85","13.55","13.80","0.2500","87"
"2471","資通","139484","3678973","26.50","26.50","26.20","26.40","0.0500","86"
"2472","立隆電","802255","52847920","65.70","66.50","65.60","65.90","0.3000","599"
"2474","可成","2122108","393450244","187.00","187.00","184.50","185.00","1.0000","1614"
"2476","鉅祥","6517089","235028003","34.90","36.75","34.90","36.75","1.5500","3044"
"2477","美隆電","1041321","35178215","34.50","34.50","33.60","33.70","-0.4500","686"
"2478","大毅","1110334","78200037","70.60","71.50","70.00","70.30","-0.1000","753"
"2480","敦陽科","239293","16649419","69.80","69.80","69.10","69.70","0.5000","178"
"2481","強茂","6819289","354478566","51.60","52.90","51.30","52.00","0.8000","3591"
"2482","連宇","99426","1105215","11.00","11.20","11.00","11.20","0.2000","75"
"2483","百容","96900","1932900","19.90","20.15","19.60","20.15","0.3000","47"
"2484","希華","2836588","81905024","28.90","29.20","28.60","28.60","-0.1000","1447"
"2485","兆赫","4043934","80490874","19.50","20.25","19.45","19.95","0.5000","1633"
"2486","一詮","5929748","177895790","29.35","30.75","29.35","30.00","0.9500","2570"
"2488","漢平","149969","4508944","30.20","30.20","29.90","30.05","0.0500","87"
"2489","瑞軒","10890568","193934428","17.95","18.00","17.55","17.85","-0.1000","3794"
"2491","吉祥全","1672112","46541035","28.95","28.95","27.10","28.60","0.4000","943"
"2492","華新科","4824391","1015123707","209.00","213.00","208.00","210.50","0.5000","3342"
"2493","揚博","434715","16498107","37.75","38.05","37.65","38.00","0.4500","260"
"2495","普安","14270543","305251400","19.90","21.50","19.90","21.50","1.9500","2818"
"2496","卓越","10000","592500","59.50","59.50","58.70","59.00","0.0000","7"
"2497","怡利電","291182","8658779","29.50","30.30","29.25","30.30","1.1000","193"
"2498","宏達電","14489956","546974118","37.50","38.80","37.00","37.25","0.2000","6787"
"2501","國建","608502","12018154","19.80","19.85","19.65","19.75","-0.0500","244"
"2504","國產","2941471","74389606","25.60","25.60","25.15","25.30","-0.2500","1241"
"2505","國揚","1651402","51234476","30.60","31.20","30.60","31.05","0.4500","767"
"2506","太設","134159","1374407","10.20","10.30","10.15","10.25","0.0500","83"
"2509","全坤建","517349","10090637","19.50","19.60","19.40","19.55","0.0500","327"
"2511","太子","816757","9638975","11.90","11.90","11.75","11.80","-0.1000","251"
"2514","龍邦","1384178","25443745","19.20","19.20","18.00","18.35","-0.6500","742"
"2515","中工","5411045","48813649","9.02","9.08","8.98","9.04","0.0400","1340"
"2516","新建","3774155","24773257","6.34","6.81","6.30","6.52","0.3200","1082"
"2520","冠德","2455262","93133315","37.75","38.15","37.65","38.15","0.6500","1203"
"2524","京城","21144","732821","34.70","34.80","34.55","34.80","-0.2500","32"
"2527","宏璟","228176","5219016","22.95","22.95","22.70","22.95","0.0500","107"
"2528","皇普","46423","1029132","22.00","22.55","22.00","22.35","0.0500","26"
"2530","華建","548394","7617422","13.90","13.95","13.85","13.90","0.0000","104"
"2534","宏盛","394302","7811375","19.85","19.90","19.65","19.90","0.1500","226"
"2535","達欣工","655882","21960448","33.50","33.70","33.35","33.55","0.2500","443"
"2536","宏普","106374","2308873","21.65","21.80","21.65","21.80","0.1000","50"
"2537","聯上發","601094","5483163","9.13","9.20","9.05","9.19","0.0600","193"
"2538","基泰","253732","2532850","10.00","10.00","9.95","9.99","-0.0100","113"
"2539","櫻花建","91290","2877795","31.50","31.60","31.45","31.45","-0.0500","56"
"2540","愛山林","14002","1033348","74.00","74.00","73.50","74.00","-0.5000","11"
"2542","興富發","4501636","190195413","42.10","42.55","42.05","42.20","0.1000","2687"
"2543","皇昌","183195","1405458","7.70","7.80","7.60","7.79","0.0900","67"
"2545","皇翔","722683","29959171","40.95","41.65","40.90","41.60","0.6000","422"
"2546","根基","148065","7073957","47.50","48.35","47.45","48.05","0.6500","97"
"2547","日勝生","2433112","26893959","11.15","11.15","11.00","11.15","0.0500","415"
"2548","華固","695117","65000079","93.70","93.90","93.20","93.60","-0.1000","362"
"2597","潤弘","129436","18398083","142.00","143.00","141.00","141.50","-0.5000","125"
"2601","益航","31163936","410186549","12.70","13.80","12.45","13.80","1.2500","8043"
"2603","長榮","542547770","55984576106","101.50","108.00","98.20","108.00","9.4000","196823"
"2605","新興","27655986","746312434","26.20","28.45","25.55","27.60","1.4000","11334"
"2606","裕民","35877518","2146443035","60.70","61.00","58.30","61.00","1.2000","19939"
"2607","榮運","11799085","262433616","22.40","22.65","21.65","22.55","0.4500","4861"
"2608","嘉里大榮","62684804","4274862452","71.40","74.00","63.10","66.50","-1.4000","37812"
"2609","陽明","406062794","43351527510","105.50","112.50","101.00","112.50","10.0000","154437"
"2610","華航","227836692","4147087537","17.85","18.85","17.40","18.80","1.2500","50963"
"2611","志信","6648657","119502581","17.60","18.40","17.25","18.05","0.6500","2145"
"2612","中航","3730086","167816455","44.70","45.85","44.00","45.80","0.9500","2069"
"2613","中櫃","2691063","73123209","27.20","27.85","26.20","27.60","0.9000","1451"
"2614","東森","4660105","80218051","17.45","17.45","17.15","17.20","-0.1500","2031"
"2615","萬海","23700678","3605214451","148.00","159.50","142.00","159.50","14.5000","14849"
"2616","山隆","137041","4958984","36.20","36.30","36.10","36.20","0.1000","128"
"2617","台航","8631082","344013872","39.40","42.00","37.80","42.00","3.8000","4691"
"2618","長榮航","93312331","1639689721","17.30","18.00","16.95","18.00","1.0000","24544"
"2630","亞航","171549","3003451","17.40","17.75","17.30","17.50","0.2000","103"
"2633","台灣高鐵","5584271","166169942","29.45","29.95","29.40","29.95","0.5000","3797"
"2634","漢翔","938263","26084738","28.10","28.10","27.70","27.85","0.0000","505"
"2636","台驊投控","36754297","3838868367","103.00","113.00","97.50","113.00","10.0000","22367"
"2637","慧洋-KY","32167945","2209100162","68.00","70.30","66.30","70.00","2.6000","16285"
"2642","宅配通","18554888","1520405667","94.00","94.00","77.00","80.70","-4.8000","13741"
"2701","萬企","104043","1235281","11.90","11.95","11.80","11.95","0.0500","45"
"2702","華園","351231","6633481","18.50","19.50","18.40","18.85","0.2500","193"
"2704","國賓","57573","1603536","28.05","28.05","27.60","28.00","0.0000","59"
"2705","六福","141531","2413453","17.15","17.15","16.95","17.05","0.1000","121"
"2706","第一店","139557","1947915","13.90","14.05","13.75","14.00","0.2000","79"
"2707","晶華","437893","61624501","140.50","142.50","139.50","142.00","2.0000","423"
"2712","遠雄來","5000","168100","33.15","34.00","33.15","33.85","-0.0500","5"
"2722","夏都","62252","1836992","29.50","29.80","29.00","29.40","-0.0500","46"
"2723","美食-KY","970459","168316073","167.00","180.00","167.00","174.00","7.0000","882"
"2727","王品","3459413","484710835","143.00","145.00","136.50","141.50","-1.0000","3276"
"2731","雄獅","881688","76143246","83.10","87.90","83.10","87.50","4.4000","764"
"2739","寒舍","326254","7750449","23.20","24.60","22.90","23.85","0.9500","175"
"2748","雲品","125903","5104275","40.50","40.75","40.30","40.60","0.9000","76"
"2801","彰銀","5731707","96452243","16.90","16.90","16.75","16.85","0.0000","1537"
"2809","京城銀","3459436","142541316","41.20","41.50","40.85","41.45","0.3500","1908"
"2812","台中銀","4947701","56532847","11.35","11.50","11.35","11.45","0.1000","1561"
"2816","旺旺保","160353","3282209","20.50","20.55","20.40","20.50","0.1000","95"
"2820","華票","1523857","24311675","16.00","16.00","15.90","15.95","0.0500","360"
"2823","中壽","4132312","102324906","24.85","24.90","24.65","24.80","0.0500","1284"
"2832","台產","628210","13124388","20.80","21.00","20.80","20.90","0.1000","380"
"2834","臺企銀","10365463","99412596","9.58","9.63","9.56","9.59","-0.0200","2912"
"2836","高雄銀","203796","2233457","10.95","11.00","10.90","11.00","0.1000","126"
"2836A","高雄銀甲特","14006","321436","22.95","22.95","22.95","22.95","0.0000","9"
"2838","聯邦銀","472763","5535686","11.70","11.75","11.65","11.70","0.0000","201"
"2838A","聯邦銀甲特","77130","4074651","52.80","53.00","52.80","53.00","0.1000","37"
"2841","台開","848110","5912271","7.01","7.02","6.91","6.97","-0.0400","248"
"2845","遠東銀","2486961","26185150","10.55","10.60","10.50","10.60","0.1000","651"
"2849","安泰銀","46100","673204","14.60","14.65","14.55","14.55","0.1000","22"
"2850","新產","45062","1796071","39.85","40.00","39.70","40.00","0.1000","33"
"2851","中再保","798447","20821063","25.90","26.30","25.90","26.20","0.3000","479"
"2852","第一保","186200","2416570","13.10","13.10","12.95","13.00","0.0000","75"
"2855","統一證","3152791","90140141","28.70","28.80","28.25","28.75","0.1500","1183"
"2867","三商壽","3255287","30648014","9.45","9.48","9.35","9.45","0.0500","671"
"2880","華南金","5994808","109512377","18.35","18.35","18.20","18.30","0.0500","2106"
"2881","富邦金","14646097","1063035071","72.60","73.00","72.10","73.00","0.7000","6571"
"2881A","富邦特","158857","9918241","62.50","62.50","62.40","62.50","-0.1000","44"
"2881B","富邦金乙特","6805","421736","62.00","62.10","62.00","62.10","0.0000","16"
"2882","國泰金","16266892","908332412","56.00","56.40","55.50","55.80","-0.1000","7595"
"2882A","國泰特","78705","4903678","62.30","62.40","62.30","62.40","0.0000","37"
"2882B","國泰金乙特","99608","6167234","61.90","62.10","61.90","62.10","0.0000","21"
"2883","開發金","55045967","690050476","12.50","12.65","12.40","12.60","0.1500","9720"
"2884","玉山金","13190506","338972261","25.60","25.90","25.55","25.90","0.3500","5062"
"2885","元大金","15079478","386008723","25.60","25.75","25.45","25.70","0.1000","3822"
"2886","兆豐金","12339050","407165647","33.00","33.15","32.95","33.00","-0.1000","4287"
"2887","台新金","12415008","183905206","14.85","14.85","14.75","14.85","0.0500","3756"
"2887E","台新戊特","75448","3995531","53.00","53.00","52.90","52.90","-0.1000","27"
"2887F","台新戊特二","27855","1434509","51.60","51.60","51.50","51.60","0.1000","32"
"2888","新光金","51037325","510344248","10.10","10.10","9.94","10.00","-0.0500","8126"
"2888A","新光金甲特","11869","505405","42.75","42.75","42.55","42.65","-0.1500","14"
"2888B","新光金乙特","160557","6588668","41.20","41.20","40.95","41.00","-0.1500","74"
"2889","國票金","2474069","42287424","17.10","17.15","17.05","17.15","0.0500","1167"
"2890","永豐金","10162239","138671969","13.55","13.60","13.50","13.55","0.0000","2607"
"2891","中信金","17403304","399414953","23.00","23.05","22.85","23.00","-0.0500","4930"
"2891B","中信金乙特","4562","288027","63.20","63.30","63.20","63.30","0.0000","15"
"2891C","中信金丙特","1047","63807","","","","","0.0000","11"
"2892","第一金","6295948","139315524","22.00","22.20","22.00","22.20","0.2000","2795"
"2897","王道銀行","4112829","28575450","7.05","7.09","7.01","7.05","0.0100","382"
"2897A","王道銀甲特","51010","517801","10.15","10.20","10.15","10.15","0.0000","13"
"2901","欣欣","14433","407244","28.30","28.30","28.00","28.25","-0.0500","19"
"2903","遠百","309889","6954354","22.40","22.55","22.35","22.45","0.0500","226"
"2904","匯僑","118152","3470901","29.25","29.50","29.25","29.35","0.2500","81"
"2905","三商","757688","16942433","22.20","22.45","22.20","22.40","0.3000","394"
"2906","高林","205011","3197060","15.65","15.80","15.50","15.50","-0.1500","131"
"2908","特力","387881","10693405","27.50","27.75","27.40","27.60","0.1500","228"
"2910","統領","18000","574000","31.85","32.25","31.50","32.25","0.0000","16"
"2911","麗嬰房","709083","5977549","8.43","8.43","8.43","8.43","0.7600","246"
"2912","統一超","982678","261264617","264.00","267.00","263.00","266.50","2.0000","1156"
"2913","農林","5084267","99194329","19.60","19.90","19.25","19.80","0.0500","1912"
"2915","潤泰全","1317026","109355204","83.10","83.40","82.50","83.30","0.4000","746"
"2923","鼎固-KY","20416","571125","28.90","28.90","27.75","27.90","-0.5500","27"
"2929","淘帝-KY","4181556","67213979","15.85","16.10","15.65","16.10","1.4500","459"
"2936","客思達-KY","24000","549400","22.60","23.00","22.60","22.95","0.1000","14"
"2939","凱羿-KY","94000","3195750","34.00","34.10","33.65","34.10","0.7000","28"
"3002","歐格","115038","1361801","12.00","12.00","11.70","11.80","-0.1000","79"
"3003","健和興","3600469","267912356","73.80","75.40","73.40","74.90","0.7000","2570"
"3004","豐達科","52595","2964205","56.50","56.80","55.80","56.80","0.6000","49"
"3005","神基","846071","44010961","51.80","52.60","51.70","52.40","0.7000","519"
"3006","晶豪科","55059851","7713609642","136.50","145.50","134.50","136.50","2.5000","33838"
"3008","大立光","429090","1321925435","3050.00","3110.00","3050.00","3065.00","35.0000","2439"
"3010","華立","315101","24682025","78.00","78.60","78.00","78.50","0.6000","261"
"3011","今皓","159310","1283723","8.07","8.20","8.00","8.15","0.0800","82"
"3013","晟銘電","165825","2190509","13.15","13.35","13.05","13.35","0.1000","111"
"3014","聯陽","8214662","997158123","121.00","124.00","119.00","119.50","0.0000","5221"
"3015","全漢","603069","27035171","44.30","45.20","44.30","45.20","1.1000","384"
"3016","嘉晶","2205282","149978179","67.50","68.50","67.40","68.40","1.5000","1356"
"3017","奇鋐","9808236","713883755","74.50","74.50","71.50","72.40","-1.0000","5583"
"3018","同開","76919","1241386","16.20","16.25","16.00","16.20","-0.1000","133"
"3019","亞光","5694270","474869754","83.00","84.90","82.00","82.50","0.5000","3924"
"3021","鴻名","571680","12554011","20.75","22.80","20.75","22.80","2.0500","291"
"3022","威強電","137644","7094295","51.60","51.90","50.80","51.70","0.7000","125"
"3023","信邦","146125","38625690","266.00","266.00","263.00","264.00","-2.0000","240"
"3024","憶聲","2124292","28929028","13.50","13.85","13.45","13.65","0.2000","659"
"3025","星通","1102608","29778496","26.45","28.00","26.20","27.15","1.1500","651"
"3026","禾伸堂","1561307","207304973","133.50","134.00","131.50","133.50","1.0000","1210"
"3027","盛達","1605423","38445938","23.90","24.55","23.50","23.80","0.3500","882"
"3028","增你強","707107","19898340","28.05","28.25","28.05","28.20","0.2000","382"
"3029","零壹","587957","27653005","47.20","47.20","46.80","47.00","0.2000","413"
"3030","德律","364164","21015983","57.50","57.90","57.30","57.90","0.6000","272"
"3031","佰鴻","796377","14920359","18.50","18.95","18.45","18.70","0.3000","385"
"3032","偉訓","218446","9175638","41.50","42.45","41.50","42.30","0.8000","165"
"3033","威健","25679067","622573614","23.40","24.75","23.30","24.75","1.5500","9365"
"3034","聯詠","14356410","7545490433","536.00","540.00","515.00","516.00","-18.0000","16482"
"3035","智原","22562246","1584126198","68.00","71.70","67.90","69.40","1.0000","12911"
"3036","文曄","4027563","223375162","54.70","56.00","54.70","55.70","1.4000","2450"
"3036A","文曄甲特","58034","2780135","47.85","48.05","47.85","48.00","-0.1500","20"
"3037","欣興","31839879","3613561409","115.00","115.50","111.00","113.00","0.5000","17124"
"3038","全台","4890119","105002425","21.10","21.85","20.90","21.40","0.3500","1668"
"3040","遠見","163220","8119629","49.65","50.00","49.50","49.90","0.3000","147"
"3041","揚智","2616474","71208485","26.80","27.65","26.70","27.30","0.8000","1363"
"3042","晶技","16210394","1803993257","111.50","113.50","109.50","111.00","0.5000","9265"
"3043","科風","114254","461361","4.05","4.07","4.01","4.07","0.0700","51"
"3044","健鼎","909848","118033891","129.00","130.50","128.50","130.00","1.5000","663"
"3045","台灣大","2453345","245974461","100.00","101.00","99.60","100.00","-0.5000","1887"
"3046","建碁","252092","6338328","24.20","26.05","24.10","25.80","1.3000","205"
"3047","訊舟","1463153","16884808","11.30","11.70","11.30","11.65","0.4000","507"
"3048","益登","2090148","73967232","34.95","35.85","34.85","35.65","0.8000","990"
"3049","和鑫","8303948","107239830","12.80","13.10","12.70","12.90","0.2500","2321"
"3050","鈺德","441210","6940594","15.50","15.95","15.50","15.75","0.3500","246"
"3051","力特","736730","6049891","8.14","8.31","8.05","8.23","0.2300","190"
"3052","夆典","1725303","21448717","11.90","12.80","11.85","12.70","0.8000","564"
"3054","立萬利","14152","326550","23.45","23.45","22.80","23.30","-0.2000","15"
"3055","蔚華科","204238","6019194","29.55","29.95","29.00","29.30","-0.1000","119"
"3056","總太","508067","19737270","38.90","39.05","38.65","38.95","0.0500","302"
"3057","喬鼎","1651577","27905312","15.50","17.05","15.50","17.05","1.5500","636"
"3058","立德","22592302","376743712","15.80","17.10","15.80","16.35","0.7500","3959"
"3059","華晶科","3600791","129408468","35.85","36.40","35.65","35.90","0.3000","2187"
"3060","銘異","21424918","586558492","26.00","27.60","26.00","27.60","2.5000","6957"
"3062","建漢","2391434","43068779","17.80","18.25","17.65","18.00","0.4000","1031"
"3090","日電貿","728861","38940497","53.70","53.70","53.10","53.50","0.3000","475"
"3092","鴻碩","1165104","79031414","67.80","68.90","67.10","68.10","0.1000","733"
"3094","聯傑","1880043","65540792","34.10","35.75","34.10","34.45","0.1500","1153"
"3130","一零四","2254","374674","166.00","166.00","166.00","166.00","-1.0000","15"
"3138","耀登","1854307","367544668","194.50","203.00","190.50","199.00","9.0000","1811"
"3149","正達","3877472","138251575","35.00","36.80","34.35","36.10","1.2000","2173"
"3164","景岳","244872","6040735","24.85","24.85","24.55","24.80","0.0000","156"
"3167","大量","189337","12337438","63.60","67.10","63.50","66.70","3.3000","160"
"3189","景碩","10585657","1164217634","110.00","112.50","107.50","109.50","0.0000","6363"
"3209","全科","931457","26480814","28.35","28.60","28.25","28.55","0.3500","442"
"3229","晟鈦","21001","131616","6.17","6.48","6.17","6.48","0.3100","12"
"3231","緯創","17702488","553635537","30.90","31.60","30.90","31.40","0.6500","7048"
"3257","虹冠電","290767","22082089","75.60","76.30","75.30","76.10","1.3000","256"
"3266","昇陽","88000","1108050","12.60","12.60","12.50","12.55","-0.0500","11"
"3296","勝德","199030","4103822","21.00","21.10","20.35","20.85","0.0500","108"
"3305","昇貿","6879782","325203087","48.30","48.90","46.35","46.80","-0.9000","4068"
"3308","聯德","40443","348867","8.60","8.79","8.58","8.70","0.1200","43"
"3311","閎暉","81851","2833456","34.65","34.85","34.10","34.65","0.1500","72"
"3312","弘憶股","1007209","20689402","20.30","20.85","20.20","20.50","0.3000","533"
"3321","同泰","169842","2211002","13.00","13.15","12.85","13.05","0.1500","104"
"3338","泰碩","736928","36685034","49.00","50.50","49.00","50.50","1.8000","541"
"3346","麗清","925578","41748250","45.00","45.50","44.70","45.05","0.2500","629"
"3356","奇偶","443841","12785797","28.50","29.00","28.50","28.90","0.4000","217"
"3376","新日興","491543","55030731","111.00","113.00","111.00","112.00","1.0000","422"
"3380","明泰","1411488","40149977","27.90","28.70","27.90","28.55","0.7000","795"
"3383","新世紀","72369","325243","4.41","4.60","4.41","4.46","0.0000","27"
"3406","玉晶光","6227884","3024989309","476.00","494.50","472.50","486.00","19.0000","5985"
"3413","京鼎","3240425","777641703","234.00","244.50","234.00","243.50","9.5000","2533"
"3416","融程電","48000","3543300","74.00","74.00","73.40","74.00","0.3000","45"
"3419","譁裕","644781","12689810","19.60","19.80","19.50","19.75","0.3000","343"
"3432","台端","116000","1500750","13.00","13.00","12.80","12.90","-0.1000","54"
"3437","榮創","3450914","105410533","30.25","31.10","29.90","30.35","0.5500","1764"
"3443","創意","2541100","924331401","364.50","376.50","355.00","356.00","-4.0000","2420"
"3450","聯鈞","470287","27631610","58.00","59.30","58.00","58.50","0.8000","380"
"3454","晶睿","14177","1103266","77.80","78.20","77.70","77.80","0.0000","18"
"3481","群創","692573531","16997817190","24.80","25.05","24.10","24.10","-0.2500","155526"
"3494","誠研","72046","245136","3.41","3.44","3.34","3.44","0.0300","39"
"3501","維熹","116000","5874700","50.50","50.90","50.40","50.90","0.2000","76"
"3504","揚明光","1994174","155681815","74.90","82.00","74.90","76.50","1.7000","1551"
"3515","華擎","1072973","178994465","164.00","169.00","163.50","166.00","3.5000","881"
"3518","柏騰","338097","9265176","26.95","28.70","26.70","27.95","1.4500","159"
"3528","安馳","39281","1804292","45.95","46.40","45.70","46.30","0.6500","35"
"3530","晶相光","7218500","918651222","120.50","131.00","118.50","131.00","11.5000","4692"
"3532","台勝科","2515596","418141281","168.50","170.50","163.00","164.00","-4.5000","2000"
"3533","嘉澤","627985","374528841","599.00","608.00","586.00","588.00","-5.0000","764"
"3535","晶彩科","385352","6732780","17.70","17.70","17.35","17.50","-0.1000","193"
"3536","誠創","153585","1154713","7.20","7.68","7.20","7.65","0.6000","45"
"3543","州巧","159001","4416977","27.90","28.20","27.50","27.60","-0.3000","84"
"3545","敦泰","65178185","14946079554","225.00","232.50","223.00","232.50","21.0000","34648"
"3550","聯穎","265472","4835662","18.35","18.35","18.05","18.35","0.3000","152"
"3557","嘉威","122087","10142758","83.10","83.90","82.60","83.40","0.1000","107"
"3563","牧德","137112","33367673","244.50","244.50","242.00","243.50","3.0000","150"
"3576","聯合再生","17853283","243060375","13.55","13.75","13.45","13.60","0.2000","4366"
"3583","辛耘","253199","15707531","61.90","62.60","61.20","62.10","0.9000","187"
"3588","通嘉","8170053","694431819","82.30","88.30","80.30","88.30","8.0000","5137"
"3591","艾笛森","263665","5377141","20.40","20.55","20.15","20.40","0.1500","147"
"3593","力銘","60201","879061","14.80","14.80","14.50","14.80","-0.1000","37"
"3596","智易","1796719","173807823","97.00","98.20","96.10","96.40","-0.5000","1408"
"3605","宏致","1934531","88658224","45.70","46.30","45.05","46.00","0.8500","1270"
"3607","谷崧","937403","13963971","14.50","15.25","14.40","15.05","0.5500","477"
"3617","碩天","65269","5389988","82.00","82.80","82.00","82.80","0.8000","41"
"3622","洋華","1363459","46764152","33.60","35.35","33.25","34.25","1.1000","782"
"3645","達邁","404762","19029328","47.40","47.55","46.60","47.45","0.4500","298"
"3653","健策","1445303","414505600","289.00","292.00","281.00","281.50","-4.0000","1224"
"3661","世芯-KY","12229430","7220735911","610.00","629.00","563.00","570.00","-13.0000","13189"
"3665","貿聯-KY","702742","171937918","240.50","246.50","240.50","246.00","2.5000","655"
"3669","圓展","3773126","327635808","85.00","88.50","84.50","87.90","3.6000","2786"
"3673","TPK-KY","4099301","193711401","46.30","48.00","46.30","47.30","1.2000","2425"
"3679","新至陞","210027","28726464","134.50","138.00","134.00","137.50","2.5000","190"
"3682","亞太電","3165210","27642842","8.76","8.80","8.70","8.75","0.0400","906"
"3686","達能","933249","14909074","15.75","16.15","15.75","16.00","0.2500","447"
"3694","海華","434200","10357145","23.45","24.20","23.35","24.10","0.8000","247"
"3701","大眾控","12553","176221","14.30","14.30","13.85","14.25","0.0000","31"
"3702","大聯大","2888977","150176514","52.10","52.20","51.70","51.90","0.0000","2199"
"3702A","大聯大甲特","47000","2345600","49.80","50.00","49.80","50.00","0.0000","28"
"3703","欣陸","2046152","51557727","24.95","25.50","24.95","25.15","0.2500","908"
"3704","合勤控","2844801","88532313","31.60","31.70","30.85","30.90","-0.2500","1481"
"3705","永信","147662","6394667","43.30","43.65","43.10","43.45","0.1500","123"
"3706","神達","5512419","156186859","28.25","28.50","28.15","28.20","0.0000","1753"
"3708","上緯投控","930996","111560724","118.50","121.50","117.00","121.50","4.0000","705"
"3711","日月光投控","10557976","1192481717","112.00","114.00","111.50","113.00","1.5000","6405"
"3712","永崴投控","766075","22494671","28.95","29.65","28.95","29.60","0.8500","416"
"3714","富采","4455919","340707000","75.80","77.50","75.50","75.90","0.4000","2598"
"4104","佳醫","116885","6726806","57.50","57.90","57.30","57.80","0.2000","134"
"4106","雃博","24093302","1196396671","50.00","53.00","47.45","47.45","-5.2500","14393"
"4108","懷特","884773","22053871","25.35","25.35","24.55","24.95","-0.3500","486"
"4119","旭富","267292","23142541","85.40","87.50","85.40","87.50","2.1000","265"
"4133","亞諾法","7217228","437213415","62.90","63.60","58.30","62.80","-1.4000","5109"
"4137","麗豐-KY","103329","21824498","211.00","212.50","209.50","212.50","2.5000","108"
"4141","龍燈-KY","230139","2726645","11.75","12.05","11.70","11.90","0.2000","149"
"4142","國光生","11716345","606975405","52.30","53.60","50.60","53.10","0.8000","7314"
"4148","全宇生技-KY","28000","963100","34.90","34.90","34.10","34.20","-0.2000","23"
"4155","訊映","177191","4412875","25.00","25.00","24.80","25.00","0.0500","102"
"4164","承業醫","189735","6881655","36.35","36.75","36.00","36.45","0.3000","137"
"4190","佐登-KY","90310","7135390","78.00","79.60","78.00","79.50","1.5000","83"
"4306","炎洲","5945702","111671274","18.65","18.95","18.65","18.70","0.1000","1600"
"4414","如興","2920688","28788412","9.85","9.94","9.75","9.90","0.0700","1039"
"4426","利勤","362255","9095643","24.40","25.50","24.40","25.30","0.8000","283"
"4438","廣越","180252","24142140","135.00","136.00","132.50","133.50","-2.5000","179"
"4439","冠星-KY","8000","1175000","147.00","147.00","146.50","147.00","0.0000","8"
"4526","東台","260566","4046593","15.50","15.65","15.40","15.65","0.2500","166"
"4532","瑞智","486079","9909612","20.30","20.50","20.30","20.45","0.1000","215"
"4536","拓凱","190112","32140122","165.00","172.50","165.00","170.00","4.5000","170"
"4540","全球傳動","481417","25352197","50.40","54.10","50.40","53.80","3.5000","402"
"4545","銘鈺","424051","11723267","26.95","28.25","26.90","27.45","0.7000","238"
"4551","智伸科","411585","72038952","172.50","176.50","170.50","175.00","4.5000","367"
"4552","力達-KY","74778","2304699","30.65","31.45","30.35","31.10","0.1500","57"
"4555","氣立","71102","3857147","54.80","54.90","53.70","53.80","-0.6000","59"
"4557","永新-KY","18125","1164336","64.20","64.40","63.70","64.30","0.5000","21"
"4560","強信-KY","132001","5500695","41.70","42.00","41.45","41.95","0.2500","44"
"4562","穎漢","309004","6387035","21.45","21.45","20.10","20.70","-0.7500","227"
"4564","元翎","2105068","88985895","42.05","43.00","41.85","42.40","0.4500","1135"
"4566","時碩工業","158036","7555413","47.60","48.25","47.55","47.70","0.1000","110"
"4571","鈞興-KY","84049","11879401","144.00","144.00","139.50","139.50","-2.5000","80"
"4572","駐龍","42060","3983969","95.50","95.50","94.00","95.30","-0.1000","41"
"4576","大銀微系統","210512","26909014","128.00","129.00","126.00","129.00","2.5000","186"
"4581","光隆精密-KY","16000","590450","36.50","37.90","36.50","37.90","1.6500","13"
"4720","德淵","307280","4688841","15.10","15.35","15.10","15.25","0.1500","180"
"4722","國精化","264036","8891678","33.90","34.00","33.45","34.00","0.2500","155"
"4737","華廣","36000","2589600","72.20","72.50","71.50","71.80","-0.4000","33"
"4739","康普","925772","71635574","77.00","78.00","76.00","78.00","1.3000","663"
"4746","台耀","8780660","799517088","92.50","97.20","88.10","97.20","3.7000","5568"
"4755","三福化","13101","828885","63.30","63.50","63.10","63.50","0.2000","20"
"4763","材料-KY","131270","13903828","106.50","106.50","105.50","106.00","0.0000","116"
"4764","雙鍵","19002","1068113","56.00","57.60","55.90","56.80","-0.6000","15"
"4766","南寶","22031","3306685","151.00","151.00","149.50","150.50","0.0000","26"
"4807","日成-KY","13000","313050","24.05","24.45","23.95","24.40","0.1000","13"
"4904","遠傳","1275434","82261111","64.40","64.70","64.30","64.60","0.2000","765"
"4906","正文","1907708","57641347","30.20","30.40","30.05","30.25","0.2000","879"
"4912","聯德控股-KY","504142","93824803","184.00","189.00","182.00","188.50","7.0000","366"
"4915","致伸","1518413","81388922","53.20","53.90","53.20","53.80","0.7000","1078"
"4916","事欣科","114300","2570950","22.80","22.80","22.40","22.45","0.0500","80"
"4919","新唐","46617904","3925614665","82.90","86.30","81.80","86.10","4.2000","26895"
"4927","泰鼎-KY","924939","52595810","57.20","57.40","56.60","56.70","0.2000","612"
"4930","燦星網","488543","12074537","24.30","25.00","24.25","24.90","0.6500","302"
"4934","太極","1077113","26203104","23.75","24.80","23.75","24.80","1.0000","594"
"4935","茂林-KY","2233312","222076061","98.00","100.50","98.00","100.00","3.5000","1710"
"4938","和碩","6542977","481703176","73.60","73.80","73.40","73.80","0.3000","3549"
"4942","嘉彰","365095","15826080","43.35","43.80","42.95","43.60","0.6000","259"
"4943","康控-KY","830028","60426023","72.80","72.80","72.80","72.80","6.6000","444"
"4952","凌通","564175","29856367","52.40","53.50","52.10","52.70","0.7000","442"
"4956","光鋐","2274748","54019270","23.55","24.20","23.50","23.65","0.1500","972"
"4958","臻鼎-KY","5799243","569887578","98.00","99.50","97.10","98.40","1.4000","3243"
"4960","誠美材","8266405","103680801","12.55","12.75","12.40","12.50","0.0000","2053"
"4961","天鈺","38737156","12873181150","336.00","347.00","307.00","312.50","-21.5000","31006"
"4967","十銓","12036368","727808964","59.20","62.00","59.10","59.30","1.0000","7465"
"4968","立積","1468694","760885703","527.00","528.00","511.00","512.00","-6.0000","1517"
"4976","佳凌","16440156","1428452051","83.80","89.10","83.80","86.30","2.5000","10822"
"4977","眾達-KY","425382","42264187","98.10","100.50","97.70","100.00","2.5000","365"
"4989","榮科","3951522","160333597","41.35","41.65","39.60","40.00","-0.6500","2295"
"4994","傳奇","98330","6335098","64.80","65.50","64.10","65.50","1.3000","84"
"4999","鑫禾","278663","13918197","49.90","50.20","49.60","49.85","0.3500","246"
"5007","三星","59862","3624886","60.10","61.30","60.10","60.90","0.2000","65"
"5203","訊連","80058","6740201","83.80","85.20","83.30","84.70","1.2000","77"
"5215","科嘉-KY","459867","53749099","114.00","119.00","114.00","117.00","4.0000","399"
"5225","東科-KY","51000","1054800","20.50","20.90","20.10","20.60","0.2500","35"
"5234","達興材料","35011","3097984","88.80","88.90","88.00","88.50","-0.4000","25"
"5243","乙盛-KY","3173679","197931221","62.00","63.60","61.40","61.50","0.3000","2159"
"5258","虹堡","782700","17466753","22.00","22.60","21.95","22.35","0.4500","274"
"5269","祥碩","630583","950583150","1525.00","1540.00","1470.00","1485.00","-25.0000","985"
"5283","禾聯碩","110625","13200120","119.50","120.50","118.50","119.50","1.0000","106"
"5284","jpp-KY","44107","1856575","42.75","42.80","41.20","42.80","0.0500","37"
"5285","界霖","1108073","84761728","75.50","77.80","74.70","76.80","1.7000","730"
"5288","豐祥-KY","109000","15243000","138.50","142.50","137.50","142.00","4.0000","70"
"5388","中磊","592649","39793501","66.90","67.50","66.60","67.40","0.9000","447"
"5434","崇越","1739970","232375701","132.50","134.50","132.00","134.00","2.0000","1136"
"5469","瀚宇博","3727672","167966818","44.65","45.40","44.60","45.15","0.7500","1703"
"5471","松翰","2752707","261645756","95.20","95.60","94.50","94.70","0.4000","1842"
"5484","慧友","186416","2622443","14.10","14.50","13.95","14.00","0.0000","47"
"5515","建國","283246","3740748","13.25","13.30","13.15","13.25","0.0500","119"
"5519","隆大","2582526","57809878","22.05","22.90","22.00","22.75","0.7000","1040"
"5521","工信","1887205","18800768","9.96","10.05","9.90","10.05","0.0700","624"
"5522","遠雄","422027","23268711","55.20","55.60","54.90","55.50","0.6000","312"
"5525","順天","71052","1744653","24.75","24.75","24.45","24.55","-0.1000","47"
"5531","鄉林","1228086","14723258","12.05","12.15","11.85","12.10","0.0500","476"
"5533","皇鼎","123613","1990629","16.10","16.20","16.05","16.05","-0.0500","46"
"5534","長虹","234068","18455577","79.00","79.20","78.50","79.10","0.3000","246"
"5538","東明-KY","117000","5141100","44.45","44.80","42.80","44.00","0.7000","70"
"5546","永固-KY","68110","5423590","80.30","80.30","79.10","79.60","-0.6000","48"
"5607","遠雄港","888749","28820847","32.40","32.80","32.00","32.75","0.7000","512"
"5608","四維航","35965769","1291297773","36.25","36.95","34.20","36.60","1.4000","16521"
"5706","鳳凰","1306758","52071069","37.50","40.50","37.50","40.25","2.7500","815"
"5871","中租-KY","1408440","294110736","208.50","209.50","207.50","209.50","1.0000","1159"
"5871A","中租-KY甲特","7484","742538","99.30","99.30","99.20","99.20","0.1000","23"
"5876","上海商銀","1335163","60427856","45.10","45.40","45.00","45.35","-0.0500","746"
"5880","合庫金","4771604","100071495","20.95","21.05","20.90","21.00","0.0500","1915"
"5906","台南-KY","1050","45030","42.90","42.90","42.90","42.90","0.1000","2"
"5907","大洋-KY","179232","3520274","19.45","19.85","19.20","19.85","0.6000","94"
"6005","群益證","7606652","133697103","17.50","17.75","17.40","17.70","0.2000","2109"
"6024","群益期","385132","16855709","43.70","43.85","43.60","43.80","0.1000","333"
"6108","競國","243107","4677705","19.10","19.35","19.05","19.35","0.3000","126"
"6112","聚碩","218235","9190112","42.00","43.15","41.70","42.15","0.4500","146"
"6115","鎰勝","275468","12082676","43.80","45.10","43.40","43.90","0.1000","189"
"6116","彩晶","508706420","12397864763","24.00","25.20","23.60","24.05","0.6500","132374"
"6117","迎廣","6178","98756","16.10","16.10","15.80","16.00","0.0000","7"
"6120","達運","1916543","27303077","14.10","14.45","14.05","14.30","0.5000","847"
"6128","上福","66110","1662642","25.00","25.60","24.95","25.40","0.4500","40"
"6133","金橋","82879","767378","9.25","9.32","9.23","9.30","0.0500","41"
"6136","富爾特","102924","1790389","17.45","17.45","17.35","17.45","0.0500","76"
"6139","亞翔","289224","8532702","29.30","29.80","29.10","29.60","0.5000","210"
"6141","柏承","726005","20432298","27.70","28.50","27.70","28.15","0.6000","400"
"6142","友勁","2239816","29314229","12.40","13.45","12.35","13.45","1.2000","909"
"6152","百一","1036400","11063644","10.55","11.00","10.40","10.90","0.4000","403"
"6153","嘉聯益","4015817","122360964","29.80","30.95","29.80","30.55","1.0500","2049"
"6155","鈞寶","256178","6623478","25.65","26.15","25.60","25.85","0.2500","163"
"6164","華興","383771","3862856","9.97","10.20","9.97","10.10","0.0500","204"
"6165","浪凡","351010","11039114","31.40","32.05","31.15","31.55","0.1000","217"
"6166","凌華","215394","13044589","59.50","61.70","59.20","61.40","2.3000","155"
"6168","宏齊","1462910","30698417","20.90","21.15","20.85","20.90","0.1500","600"
"6172","互億","112004","4212147","37.85","37.90","37.00","37.60","-0.3500","50"
"6176","瑞儀","1733614","206759484","118.50","120.00","118.00","119.50","1.5000","1140"
"6177","達麗","436276","12877184","29.50","29.60","29.35","29.50","0.0500","152"
"6183","關貿","60071","2959964","49.45","49.75","48.90","49.10","0.0000","65"
"6184","大豐電","71554","3216655","44.95","45.00","44.90","44.95","0.0000","52"
"6189","豐藝","379127","15177744","40.00","40.15","39.85","40.10","0.2000","229"
"6191","精成科","12129092","398567499","32.50","33.35","32.30","32.65","0.4500","5475"
"6192","巨路","73709","5238017","71.90","71.90","70.80","71.10","0.2000","65"
"6196","帆宣","300894","31321084","103.50","105.00","103.00","104.50","2.0000","288"
"6197","佳必琪","283006","10774624","37.95","38.20","37.90","38.15","0.2000","179"
"6201","亞弘電","57176","2627646","46.00","46.10","45.85","45.90","-0.1000","56"
"6202","盛群","1131577","108135435","95.40","96.40","95.00","95.10","0.7000","871"
"6205","詮欣","91168","2857904","31.05","31.45","31.05","31.35","0.3000","70"
"6206","飛捷","81661","5204217","63.50","63.90","63.30","63.90","0.6000","72"
"6209","今國光","2291104","79363268","33.90","35.35","33.80","34.40","0.8000","1320"
"6213","聯茂","634398","80275210","127.00","128.00","125.50","126.00","-0.5000","504"
"6214","精誠","313117","27599935","87.90","88.60","87.70","88.50","0.8000","257"
"6215","和椿","924261","20715749","22.05","22.70","22.05","22.65","0.6500","478"
"6216","居易","32036","805357","25.10","25.20","25.10","25.20","0.1000","30"
"6224","聚鼎","462888","52999126","114.50","115.50","113.50","115.00","1.0000","388"
"6225","天瀚","3188","11986","3.75","3.80","3.75","3.80","0.0100","6"
"6226","光鼎","682452","6398412","9.35","9.44","9.26","9.43","0.2300","366"
"6230","尼得科超眾","183526","38506187","204.50","215.00","204.50","213.50","11.5000","192"
"6235","華孚","617858","11546507","18.25","19.00","18.25","18.85","0.6000","322"
"6239","力成","2050673","220647278","108.00","109.00","106.50","107.00","0.0000","1232"
"6243","迅杰","1249272","21654443","16.80","17.75","16.80","17.60","0.8000","654"
"6251","定穎","3333747","66776699","19.70","20.30","19.70","20.00","0.4000","1440"
"6257","矽格","2869304","146300816","50.70","51.40","50.50","51.00","0.7000","1527"
"6269","台郡","2714540","326687677","120.00","121.00","119.50","120.00","1.0000","1868"
"6271","同欣電","831741","152292534","182.00","185.00","182.00","182.00","-1.0000","756"
"6277","宏正","92889","7785467","83.60","84.00","83.50","83.90","0.5000","99"
"6278","台表科","20136734","2491999275","123.00","127.50","119.50","121.50","2.5000","11742"
"6281","全國電","50455","4139155","81.60","82.40","81.60","82.40","0.8000","58"
"6282","康舒","2084428","55580850","26.60","26.80","26.50","26.65","0.2500","945"
"6283","淳安","2469021","118378596","47.00","49.60","46.70","47.25","0.8500","1558"
"6285","啟碁","1006560","67835379","66.30","68.00","66.30","67.50","1.3000","807"
"6288","聯嘉","1342214","39039178","28.55","29.50","28.55","29.10","0.8000","653"
"6289","華上","33311","100178","3.00","3.03","3.00","3.03","0.1000","18"
"6405","悅城","420020","12051828","28.25","29.20","28.05","29.10","0.9000","225"
"6409","旭隼","84628","105267830","1250.00","1260.00","1235.00","1245.00","10.0000","125"
"6412","群電","621654","42962289","69.20","70.20","68.50","69.20","0.0000","445"
"6414","樺漢","270649","57161506","211.00","212.50","210.00","210.50","0.5000","246"
"6415","矽力-KY","876349","3128266935","3700.00","3720.00","3375.00","3420.00","-260.0000","1219"
"6416","瑞祺電通","2186969","270614830","118.50","127.00","118.00","123.50","6.0000","1685"
"6426","統新","229465","19423773","82.40","86.30","82.40","85.40","3.4000","199"
"6431","光麗-KY","22001","676131","31.00","31.00","30.50","31.00","0.0000","14"
"6438","迅得","1301155","125283000","95.20","97.50","95.00","95.90","1.9000","1119"
"6442","光聖","13800","453629","33.80","33.80","32.70","33.40","0.6500","13"
"6443","元晶","21026596","712750799","33.50","34.30","33.30","34.30","1.4500","9358"
"6449","鈺邦","234035","14804918","64.00","64.00","62.60","63.60","0.2000","173"
"6451","訊芯-KY","1568639","179726431","111.00","116.50","111.00","114.50","4.5000","1208"
"6456","GIS-KY","8093781","847655463","100.00","108.00","99.90","108.00","9.6000","5697"
"6464","台數科","395021","39629777","108.50","108.50","108.50","108.50","-0.5000","8"
"6477","安集","2969567","139450014","46.00","47.60","45.95","47.20","1.5000","1934"
"6491","晶碩","558313","289525669","520.00","534.00","507.00","512.00","-3.0000","599"
"6504","南六","270468","44558218","165.00","165.50","163.50","165.00","0.5000","278"
"6505","台塑化","2355252","240148784","101.50","102.50","101.00","102.00","2.0000","1343"
"6515","穎崴","62868","16626998","262.50","267.00","261.50","264.00","0.0000","105"
"6525","捷敏-KY","296430","23295276","77.80","79.30","77.30","78.50","1.3000","264"
"6531","愛普","2611684","1885803754","729.00","739.00","712.00","713.00","-3.0000","2561"
"6533","晶心科","1968058","890380444","464.50","469.00","441.00","445.00","-11.0000","2083"
"6541","泰福-KY","587319","34841186","59.10","60.90","58.10","59.90","1.0000","482"
"6552","易華電","220355","11841738","53.40","54.20","53.10","53.90","1.2000","180"
"6558","興能高","279030","11075775","39.60","40.05","39.40","40.00","0.4500","181"
"6573","虹揚-KY","73631","1239395","16.75","17.00","16.70","17.00","0.3000","56"
"6579","研揚","18003","1233307","67.70","70.00","65.90","69.90","2.3000","17"
"6581","鋼聯","30050","2176125","72.50","72.90","72.00","72.50","0.6000","29"
"6582","申豐","1603748","460985192","282.50","292.00","280.50","292.00","11.5000","1409"
"6591","動力-KY","617636","41631575","66.80","68.40","66.20","67.50","2.0000","455"
"6592","和潤企業","768105","64612990","83.50","84.50","83.50","84.20","1.0000","461"
"6598","ABC-KY","1136810","51143716","45.70","45.80","44.20","45.70","-0.6000","928"
"6605","帝寶","335074","19404934","56.30","58.80","56.30","58.80","2.5000","269"
"6625","必應","14388","403505","27.95","28.20","27.90","28.00","0.1500","14"
"6641","基士德-KY","19010","1293981","68.10","68.40","67.80","68.10","0.0000","19"
"6655","科定","23000","1657200","71.60","72.20","71.60","71.70","0.0000","18"
"6666","羅麗芬-KY","30358","2378934","79.90","79.90","77.90","78.20","-0.3000","32"
"6668","中揚光","2021805","141482912","65.30","71.20","65.30","71.20","6.4000","1025"
"6669","緯穎","303897","279229486","931.00","938.00","909.00","912.00","-19.0000","435"
"6670","復盛應用","271156","60150899","221.00","224.00","220.50","222.50","3.0000","194"
"6671","三能-KY","5000","238800","47.65","48.20","47.65","48.20","0.2000","2"
"6672","騰輝電子-KY","6006098","670182369","108.50","114.00","107.50","113.50","4.0000","3900"
"6674","鋐寶科技","35002","1022162","29.20","29.50","29.00","29.20","0.0000","32"
"6698","旭暉應材","63214","2674141","41.80","42.80","41.75","42.50","0.8000","58"
"6706","惠特","2056301","344202171","165.00","171.00","164.50","166.00","3.0000","1694"
"6715","嘉基","92145","9841640","107.50","107.50","106.00","107.50","0.0000","65"
"6743","安普新","298881","36434972","123.00","124.00","121.00","121.00","-0.5000","311"
"6754","匯僑設計","95000","4323350","45.30","45.80","45.15","45.65","0.6500","76"
"6756","威鋒電子","297323","75211987","252.50","256.50","251.00","252.00","0.5000","288"
"6768","志強-KY","167152","12501346","75.10","75.70","74.30","74.90","-0.2000","115"
"6776","展碁國際","153318","6016137","39.00","39.45","38.95","39.45","0.4000","143"
"6781","AES-KY","435506","358416101","810.00","847.00","791.00","841.00","39.0000","681"
"8011","台通","3360681","61791511","18.75","18.75","18.10","18.60","-0.1500","1629"
"8016","矽創","12409917","3627144221","290.50","302.00","282.00","287.00","-1.5000","10243"
"8021","尖點","4375712","178429028","39.65","41.50","39.65","41.50","2.0500","2585"
"8028","昇陽半導體","366344","17361999","46.95","47.75","46.85","47.50","1.0000","287"
"8033","雷虎","952591","15640901","16.80","16.80","16.30","16.40","-0.3000","476"
"8039","台虹","959011","47190717","48.70","49.60","48.60","49.25","0.5500","559"
"8046","南電","9086015","2993489750","334.00","336.50","325.00","326.00","-4.5000","7075"
"8070","長華*","1890963","64358264","34.20","34.30","33.90","33.95","-0.1500","1072"
"8072","陞泰","36724","920054","25.40","25.40","24.90","25.15","-0.2000","49"
"8081","致新","3214886","726236374","225.50","232.00","220.00","221.00","0.0000","2830"
"8101","華冠","87425","244376","2.71","2.85","2.71","2.85","0.0500","33"
"8103","瀚荃","1661423","69734272","41.00","42.40","41.00","42.05","0.4500","1015"
"8104","錸寶","155406","7853820","50.20","50.90","49.85","50.80","0.9500","129"
"8105","凌巨","3385889","49023797","14.35","14.75","14.20","14.55","0.3000","1216"
"8110","華東","7272080","115666983","15.50","16.15","15.50","16.00","0.7000","2803"
"8112","至上","3071606","122951892","39.75","40.30","39.75","40.25","0.5500","1874"
"8114","振樺電","47999","3402029","71.00","71.10","70.60","70.90","-0.1000","56"
"8131","福懋科","200477","8005228","39.95","40.25","39.75","39.95","0.2000","164"
"8150","南茂","4215883","193424130","45.90","46.35","45.50","45.70","0.1500","2614"
"8163","達方","1547100","66689239","43.00","43.35","42.75","43.25","0.6000","903"
"8201","無敵","131254","1381223","9.99","10.80","9.99","10.45","0.4600","88"
"8210","勤誠","316839","23257089","74.30","74.50","73.10","73.60","-0.1000","292"
"8213","志超","1174969","56956399","48.20","48.75","48.20","48.55","0.4000","633"
"8215","明基材","9643228","264616262","26.90","27.80","26.90","27.50","0.9000","4105"
"8222","寶一","106582","1413601","13.40","13.40","13.10","13.30","0.1000","97"
"8249","菱光","283533","6329225","22.20","22.50","22.05","22.40","0.4000","167"
"8261","富鼎","15061101","1040347912","70.70","71.60","67.60","67.90","-0.4000","9355"
"8271","宇瞻","2533612","118901035","46.50","47.60","46.30","46.55","0.9000","1681"
"8341","日友","95973","20421481","213.50","214.00","212.00","213.50","0.0000","436"
"8367","建新國際","578188","21052079","35.80","37.20","34.95","37.00","1.4000","337"
"8374","羅昇","119531","3083838","25.90","26.05","25.55","26.00","0.2000","55"
"8404","百和興業-KY","1664984","77927374","46.05","47.80","45.20","47.80","1.5000","990"
"8411","福貞-KY","35949","501934","14.05","14.05","13.90","13.90","-0.1500","49"
"8422","可寧衛","160034","27788053","172.00","175.00","172.00","175.00","3.0000","234"
"8427","基勝-KY","15000","758200","50.50","51.10","50.50","51.10","0.0000","11"
"8429","金麗-KY","2902697","36413387","12.30","12.95","12.20","12.70","0.3500","1210"
"8442","威宏-KY","16000","622250","39.00","39.50","38.55","39.00","-0.1500","16"
"8443","阿瘦","34933","402464","11.65","11.65","11.45","11.55","0.1000","57"
"8454","富邦媒","259630","324999685","1240.00","1280.00","1230.00","1280.00","40.0000","552"
"8462","柏文","114923","17103325","150.50","151.50","146.50","148.00","-0.5000","237"
"8463","潤泰材","41000","1503200","37.00","37.00","36.50","36.90","0.5000","32"
"8464","億豐","430401","172541556","404.50","406.00","397.50","402.00","-5.5000","401"
"8466","美吉吉-KY","13300","768600","59.00","59.00","57.10","57.20","0.1000","17"
"8467","波力-KY","5000","203500","40.10","41.15","40.10","41.05","-0.2500","5"
"8473","山林水","167827","6981098","41.20","42.25","41.20","42.10","0.5000","143"
"8478","東哥遊艇","98200","5333500","54.80","55.60","53.40","54.00","-0.3000","71"
"8480","泰昇-KY","9062","1019666","112.00","114.00","111.00","111.00","1.5000","11"
"8481","政伸","15000","1217900","81.40","81.40","81.10","81.20","-0.2000","15"
"8482","商億-KY","5000","371700","74.60","74.60","74.00","74.00","-1.4000","5"
"8488","吉源-KY","4000","61150","15.25","15.30","15.25","15.30","0.0000","3"
"8499","鼎炫-KY","122340","16687890","134.50","137.50","134.50","137.00","2.5000","116"
"8926","台汽電","458476","17865654","39.00","39.10","38.85","39.00","0.0000","273"
"8940","新天地","40625","450929","11.10","11.15","11.05","11.10","0.0000","70"
"8996","高力","143610","6476737","44.75","45.30","44.75","45.20","0.4500","115"
"9103","美德醫療-DR","7605239","194721072","25.00","27.00","24.10","27.00","2.2000","4241"
"910322","康師傅-DR","10000","261600","26.25","26.30","26.00","26.15","0.0500","8"
"9105","泰金寶-DR","27539168","122928598","4.34","4.58","4.33","4.56","0.2000","3974"
"910861","神州-DR","18000","167510","9.29","9.39","9.25","9.39","0.1000","10"
"9110","越南控-DR","229000","655880","2.81","2.93","2.81","2.93","0.0700","74"
"911608","明輝-DR","335000","1336240","4.10","4.10","3.90","4.09","0.0300","98"
"911616","杜康-DR","237500","419049","1.77","1.80","1.75","1.76","0.0000","36"
"911622","泰聚亨-DR","189000","1170480","6.37","6.37","6.06","6.14","-0.0900","80"
"911868","同方友友-DR","2552000","3960740","1.48","1.60","1.46","1.60","0.1400","397"
"912000","晨訊科-DR","4207172","11837517","2.69","2.91","2.68","2.87","0.1800","618"
"912398","友佳-DR","561757","2596155","4.39","4.73","4.37","4.70","0.4000","229"
"9136","巨騰-DR","164000","1415320","8.64","8.67","8.58","8.61","-0.0300","74"
"9188","精熙-DR","379005","1126364","2.94","2.99","2.93","2.98","0.0700","77"
"9802","鈺齊-KY","1174974","144459139","122.00","125.00","119.00","124.50","2.5000","662"
"9902","台火","769440","10227026","13.25","13.50","13.05","13.40","0.1500","331"
"9904","寶成","12835219","482758598","37.80","37.90","37.20","37.80","0.1500","6301"
"9905","大華","157112","4099712","26.20","26.30","26.00","26.10","0.0000","102"
"9906","欣巴巴","15570","671053","43.80","43.90","42.65","43.45","0.0500","22"
"9907","統一實","2989953","39211995","13.15","13.25","13.00","13.20","0.0500","1074"
"9908","大台北","56108","1887690","33.75","33.90","33.55","33.55","-0.2000","75"
"9910","豐泰","1283204","299628483","241.00","241.00","231.50","233.00","-8.0000","1066"
"9911","櫻花","604840","41141444","68.00","69.60","66.80","68.40","0.6000","536"
"9912","偉聯","283319","2730828","9.38","10.05","9.05","9.81","0.4900","120"
"9914","美利達","961347","311657133","321.50","327.50","319.00","327.50","5.0000","936"
"9917","中保科","137314","12620035","91.60","92.20","91.50","92.10","0.3000","221"
"9918","欣天然","12250","486236","39.85","39.85","39.55","39.60","-0.2500","18"
"9919","康那香","5243854","187837140","35.75","36.30","35.30","36.10","0.4000","2529"
"9921","巨大","743874","245394276","331.00","334.00","325.00","334.00","3.0000","671"
"9924","福興","123803","5551815","44.80","44.95","44.70","44.70","-0.1000","94"
"9925","新保","175708","6742668","38.15","38.50","38.15","38.50","0.3500","166"
"9926","新海","15022","721914","48.30","48.30","47.85","48.10","-0.2000","17"
"9927","泰銘","1312073","42673227","32.05","33.20","31.90","33.00","1.3000","734"
"9928","中視","41065","246582","6.00","6.01","6.00","6.00","0.0000","24"
"9929","秋雨","4001","47511","11.95","11.95","11.85","11.85","-0.1000","5"
"9930","中聯資源","82513","3846525","46.50","46.70","46.50","46.65","0.1500","106"
"9931","欣高","18270","728134","39.70","40.25","39.70","39.95","-0.6000","14"
"9933","中鼎","477274","18030751","37.80","38.00","37.65","38.00","0.2000","374"
"9934","成霖","377030","6306223","16.70","16.80","16.60","16.75","0.0000","198"
"9935","慶豐富","455363","10157014","22.35","22.50","22.10","22.35","0.2500","181"
"9937","全國","27253","1279463","46.95","47.00","46.90","46.95","-0.0500","35"
"9938","百和","835460","78882846","95.50","96.30","93.50","94.30","-1.2000","662"
"9939","宏全","1221122","85976230","70.70","70.80","70.20","70.80","0.1000","830"
"9940","信義","557706","17425678","31.00","31.50","31.00","31.50","0.5000","300"
"9941","裕融","317333","42955050","135.50","136.50","134.50","135.50","0.0000","353"
"9941A","裕融甲特","14000","715200","51.00","51.20","51.00","51.20","0.3000","9"
"9942","茂順","467489","42961731","90.30","92.90","90.30","92.40","2.7000","358"
"9943","好樂迪","265447","16726747","62.10","63.50","62.10","63.50","1.5000","267"
"9944","新麗","568458","12313613","21.80","21.85","21.55","21.75","-0.1000","286"
"9945","潤泰新","2511710","131697159","52.40","52.60","52.30","52.50","0.0000","1487"
"9946","三發地產","123223","1838351","14.90","15.00","14.85","14.90","0.0500","70"
"9955","佳龍","616862","12277473","20.10","20.20","19.50","19.95","0.1000","332"
"9958","世紀鋼","4052666","458036545","111.50","114.50","111.50","113.50","3.0000","2467"
